%!PS-Adobe-3.0 EPSF-3.0
%%Creator: (MATLAB, The Mathworks, Inc. Version 9.6.0.1072779 \(R2019a\). Operating System: Windows 8.1)
%%Title: ./plot_chan_gain_sweep.eps
%%CreationDate: 2019-04-17T15:09:39
%%Pages: (atend)
%%BoundingBox:    41     2   684   337
%%LanguageLevel: 3
%%EndComments
%%BeginProlog
%%BeginResource: procset (Apache XML Graphics Std ProcSet) 1.2 0
%%Version: 1.2 0
%%Copyright: (Copyright 2001-2003,2010 The Apache Software Foundation. License terms: http://www.apache.org/licenses/LICENSE-2.0)
/bd{bind def}bind def
/ld{load def}bd
/GR/grestore ld
/GS/gsave ld
/RM/rmoveto ld
/C/curveto ld
/t/show ld
/L/lineto ld
/ML/setmiterlimit ld
/CT/concat ld
/f/fill ld
/N/newpath ld
/S/stroke ld
/CC/setcmykcolor ld
/A/ashow ld
/cp/closepath ld
/RC/setrgbcolor ld
/LJ/setlinejoin ld
/GC/setgray ld
/LW/setlinewidth ld
/M/moveto ld
/re {4 2 roll M
1 index 0 rlineto
0 exch rlineto
neg 0 rlineto
cp } bd
/_ctm matrix def
/_tm matrix def
/BT { _ctm currentmatrix pop matrix _tm copy pop 0 0 moveto } bd
/ET { _ctm setmatrix } bd
/iTm { _ctm setmatrix _tm concat } bd
/Tm { _tm astore pop iTm 0 0 moveto } bd
/ux 0.0 def
/uy 0.0 def
/F {
  /Tp exch def
  /Tf exch def
  Tf findfont Tp scalefont setfont
  /cf Tf def  /cs Tp def
} bd
/ULS {currentpoint /uy exch def /ux exch def} bd
/ULE {
  /Tcx currentpoint pop def
  gsave
  newpath
  cf findfont cs scalefont dup
  /FontMatrix get 0 get /Ts exch def /FontInfo get dup
  /UnderlinePosition get Ts mul /To exch def
  /UnderlineThickness get Ts mul /Tt exch def
  ux uy To add moveto  Tcx uy To add lineto
  Tt setlinewidth stroke
  grestore
} bd
/OLE {
  /Tcx currentpoint pop def
  gsave
  newpath
  cf findfont cs scalefont dup
  /FontMatrix get 0 get /Ts exch def /FontInfo get dup
  /UnderlinePosition get Ts mul /To exch def
  /UnderlineThickness get Ts mul /Tt exch def
  ux uy To add cs add moveto Tcx uy To add cs add lineto
  Tt setlinewidth stroke
  grestore
} bd
/SOE {
  /Tcx currentpoint pop def
  gsave
  newpath
  cf findfont cs scalefont dup
  /FontMatrix get 0 get /Ts exch def /FontInfo get dup
  /UnderlinePosition get Ts mul /To exch def
  /UnderlineThickness get Ts mul /Tt exch def
  ux uy To add cs 10 mul 26 idiv add moveto Tcx uy To add cs 10 mul 26 idiv add lineto
  Tt setlinewidth stroke
  grestore
} bd
/QT {
/Y22 exch store
/X22 exch store
/Y21 exch store
/X21 exch store
currentpoint
/Y21 load 2 mul add 3 div exch
/X21 load 2 mul add 3 div exch
/X21 load 2 mul /X22 load add 3 div
/Y21 load 2 mul /Y22 load add 3 div
/X22 load /Y22 load curveto
} bd
/SSPD {
dup length /d exch dict def
{
/v exch def
/k exch def
currentpagedevice k known {
/cpdv currentpagedevice k get def
v cpdv ne {
/upd false def
/nullv v type /nulltype eq def
/nullcpdv cpdv type /nulltype eq def
nullv nullcpdv or
{
/upd true def
} {
/sametype v type cpdv type eq def
sametype {
v type /arraytype eq {
/vlen v length def
/cpdvlen cpdv length def
vlen cpdvlen eq {
0 1 vlen 1 sub {
/i exch def
/obj v i get def
/cpdobj cpdv i get def
obj cpdobj ne {
/upd true def
exit
} if
} for
} {
/upd true def
} ifelse
} {
v type /dicttype eq {
v {
/dv exch def
/dk exch def
/cpddv cpdv dk get def
dv cpddv ne {
/upd true def
exit
} if
} forall
} {
/upd true def
} ifelse
} ifelse
} if
} ifelse
upd true eq {
d k v put
} if
} if
} if
} forall
d length 0 gt {
d setpagedevice
} if
} bd
/RE { % /NewFontName [NewEncodingArray] /FontName RE -
  findfont dup length dict begin
  {
    1 index /FID ne
    {def} {pop pop} ifelse
  } forall
  /Encoding exch def
  /FontName 1 index def
  currentdict definefont pop
  end
} bind def
%%EndResource
%%BeginResource: procset (Apache XML Graphics EPS ProcSet) 1.0 0
%%Version: 1.0 0
%%Copyright: (Copyright 2002-2003 The Apache Software Foundation. License terms: http://www.apache.org/licenses/LICENSE-2.0)
/BeginEPSF { %def
/b4_Inc_state save def         % Save state for cleanup
/dict_count countdictstack def % Count objects on dict stack
/op_count count 1 sub def      % Count objects on operand stack
userdict begin                 % Push userdict on dict stack
/showpage { } def              % Redefine showpage, { } = null proc
0 setgray 0 setlinecap         % Prepare graphics state
1 setlinewidth 0 setlinejoin
10 setmiterlimit [ ] 0 setdash newpath
/languagelevel where           % If level not equal to 1 then
{pop languagelevel             % set strokeadjust and
1 ne                           % overprint to their defaults.
{false setstrokeadjust false setoverprint
} if
} if
} bd
/EndEPSF { %def
count op_count sub {pop} repeat            % Clean up stacks
countdictstack dict_count sub {end} repeat
b4_Inc_state restore
} bd
%%EndResource
%FOPBeginFontDict
%%IncludeResource: font Courier-Oblique
%%IncludeResource: font Courier-BoldOblique
%%IncludeResource: font Courier-Bold
%%IncludeResource: font ZapfDingbats
%%IncludeResource: font Symbol
%%IncludeResource: font Helvetica
%%IncludeResource: font Helvetica-Oblique
%%IncludeResource: font Helvetica-Bold
%%IncludeResource: font Helvetica-BoldOblique
%%IncludeResource: font Times-Roman
%%IncludeResource: font Times-Italic
%%IncludeResource: font Times-Bold
%%IncludeResource: font Times-BoldItalic
%%IncludeResource: font Courier
%FOPEndFontDict
%%BeginResource: encoding WinAnsiEncoding
/WinAnsiEncoding [
/.notdef /.notdef /.notdef /.notdef /.notdef
/.notdef /.notdef /.notdef /.notdef /.notdef
/.notdef /.notdef /.notdef /.notdef /.notdef
/.notdef /.notdef /.notdef /.notdef /.notdef
/.notdef /.notdef /.notdef /.notdef /.notdef
/.notdef /.notdef /.notdef /.notdef /.notdef
/.notdef /.notdef /space /exclam /quotedbl
/numbersign /dollar /percent /ampersand /quotesingle
/parenleft /parenright /asterisk /plus /comma
/hyphen /period /slash /zero /one
/two /three /four /five /six
/seven /eight /nine /colon /semicolon
/less /equal /greater /question /at
/A /B /C /D /E
/F /G /H /I /J
/K /L /M /N /O
/P /Q /R /S /T
/U /V /W /X /Y
/Z /bracketleft /backslash /bracketright /asciicircum
/underscore /quoteleft /a /b /c
/d /e /f /g /h
/i /j /k /l /m
/n /o /p /q /r
/s /t /u /v /w
/x /y /z /braceleft /bar
/braceright /asciitilde /bullet /Euro /bullet
/quotesinglbase /florin /quotedblbase /ellipsis /dagger
/daggerdbl /circumflex /perthousand /Scaron /guilsinglleft
/OE /bullet /Zcaron /bullet /bullet
/quoteleft /quoteright /quotedblleft /quotedblright /bullet
/endash /emdash /asciitilde /trademark /scaron
/guilsinglright /oe /bullet /zcaron /Ydieresis
/space /exclamdown /cent /sterling /currency
/yen /brokenbar /section /dieresis /copyright
/ordfeminine /guillemotleft /logicalnot /sfthyphen /registered
/macron /degree /plusminus /twosuperior /threesuperior
/acute /mu /paragraph /middot /cedilla
/onesuperior /ordmasculine /guillemotright /onequarter /onehalf
/threequarters /questiondown /Agrave /Aacute /Acircumflex
/Atilde /Adieresis /Aring /AE /Ccedilla
/Egrave /Eacute /Ecircumflex /Edieresis /Igrave
/Iacute /Icircumflex /Idieresis /Eth /Ntilde
/Ograve /Oacute /Ocircumflex /Otilde /Odieresis
/multiply /Oslash /Ugrave /Uacute /Ucircumflex
/Udieresis /Yacute /Thorn /germandbls /agrave
/aacute /acircumflex /atilde /adieresis /aring
/ae /ccedilla /egrave /eacute /ecircumflex
/edieresis /igrave /iacute /icircumflex /idieresis
/eth /ntilde /ograve /oacute /ocircumflex
/otilde /odieresis /divide /oslash /ugrave
/uacute /ucircumflex /udieresis /yacute /thorn
/ydieresis
] def
%%EndResource
%FOPBeginFontReencode
/Courier-Oblique findfont
dup length dict begin
  {1 index /FID ne {def} {pop pop} ifelse} forall
  /Encoding WinAnsiEncoding def
  currentdict
end
/Courier-Oblique exch definefont pop
/Courier-BoldOblique findfont
dup length dict begin
  {1 index /FID ne {def} {pop pop} ifelse} forall
  /Encoding WinAnsiEncoding def
  currentdict
end
/Courier-BoldOblique exch definefont pop
/Courier-Bold findfont
dup length dict begin
  {1 index /FID ne {def} {pop pop} ifelse} forall
  /Encoding WinAnsiEncoding def
  currentdict
end
/Courier-Bold exch definefont pop
/Helvetica findfont
dup length dict begin
  {1 index /FID ne {def} {pop pop} ifelse} forall
  /Encoding WinAnsiEncoding def
  currentdict
end
/Helvetica exch definefont pop
/Helvetica-Oblique findfont
dup length dict begin
  {1 index /FID ne {def} {pop pop} ifelse} forall
  /Encoding WinAnsiEncoding def
  currentdict
end
/Helvetica-Oblique exch definefont pop
/Helvetica-Bold findfont
dup length dict begin
  {1 index /FID ne {def} {pop pop} ifelse} forall
  /Encoding WinAnsiEncoding def
  currentdict
end
/Helvetica-Bold exch definefont pop
/Helvetica-BoldOblique findfont
dup length dict begin
  {1 index /FID ne {def} {pop pop} ifelse} forall
  /Encoding WinAnsiEncoding def
  currentdict
end
/Helvetica-BoldOblique exch definefont pop
/Times-Roman findfont
dup length dict begin
  {1 index /FID ne {def} {pop pop} ifelse} forall
  /Encoding WinAnsiEncoding def
  currentdict
end
/Times-Roman exch definefont pop
/Times-Italic findfont
dup length dict begin
  {1 index /FID ne {def} {pop pop} ifelse} forall
  /Encoding WinAnsiEncoding def
  currentdict
end
/Times-Italic exch definefont pop
/Times-Bold findfont
dup length dict begin
  {1 index /FID ne {def} {pop pop} ifelse} forall
  /Encoding WinAnsiEncoding def
  currentdict
end
/Times-Bold exch definefont pop
/Times-BoldItalic findfont
dup length dict begin
  {1 index /FID ne {def} {pop pop} ifelse} forall
  /Encoding WinAnsiEncoding def
  currentdict
end
/Times-BoldItalic exch definefont pop
/Courier findfont
dup length dict begin
  {1 index /FID ne {def} {pop pop} ifelse} forall
  /Encoding WinAnsiEncoding def
  currentdict
end
/Courier exch definefont pop
%FOPEndFontReencode
%%EndProlog
%%Page: 1 1
%%PageBoundingBox: 0 0 753 358
%%BeginPageSetup
[1 0 0 -1 0 358] CT
%%EndPageSetup
GS
[0.75019 0 0 0.7507 0 -0.0831] CT
N
0 0 M
1004 0 L
1004 477 L
0 477 L
0 0 L
cp
clip
1 GC
N
0 0 1004 477 re
f
GR
GS
[0.75019 0 0 0.7507 0 -0.0831] CT
1 GC
N
0 0 1004 477 re
f
GR
GS
[0.75019 0 0 0.7507 0 -0.0831] CT
1 GC
N
131 413 M
909 413 L
909 36 L
131 36 L
cp
f
GR
GS
[0.75019 0 0 0.7507 0 -0.0831] CT
0.873 GC
[2 2] 0 setdash
2 LJ
2.667 LW
N
131 413 M
131 36 L
S
GR
GS
[0.75019 0 0 0.7507 0 -0.0831] CT
0.873 GC
[2 2] 0 setdash
2 LJ
2.667 LW
N
208.8 413 M
208.8 36 L
S
GR
GS
[0.75019 0 0 0.7507 0 -0.0831] CT
0.873 GC
[2 2] 0 setdash
2 LJ
2.667 LW
N
286.6 413 M
286.6 36 L
S
GR
GS
[0.75019 0 0 0.7507 0 -0.0831] CT
0.873 GC
[2 2] 0 setdash
2 LJ
2.667 LW
N
364.4 413 M
364.4 36 L
S
GR
GS
[0.75019 0 0 0.7507 0 -0.0831] CT
0.873 GC
[2 2] 0 setdash
2 LJ
2.667 LW
N
442.2 413 M
442.2 36 L
S
GR
GS
[0.75019 0 0 0.7507 0 -0.0831] CT
0.873 GC
[2 2] 0 setdash
2 LJ
2.667 LW
N
520 413 M
520 36 L
S
GR
GS
[0.75019 0 0 0.7507 0 -0.0831] CT
0.873 GC
[2 2] 0 setdash
2 LJ
2.667 LW
N
597.8 413 M
597.8 36 L
S
GR
GS
[0.75019 0 0 0.7507 0 -0.0831] CT
0.873 GC
[2 2] 0 setdash
2 LJ
2.667 LW
N
675.6 413 M
675.6 36 L
S
GR
GS
[0.75019 0 0 0.7507 0 -0.0831] CT
0.873 GC
[2 2] 0 setdash
2 LJ
2.667 LW
N
753.4 413 M
753.4 36 L
S
GR
GS
[0.75019 0 0 0.7507 0 -0.0831] CT
0.873 GC
[2 2] 0 setdash
2 LJ
2.667 LW
N
831.2 413 M
831.2 36 L
S
GR
GS
[0.75019 0 0 0.7507 0 -0.0831] CT
0.873 GC
[2 2] 0 setdash
2 LJ
2.667 LW
N
909 413 M
909 36 L
S
GR
GS
[0.75019 0 0 0.7507 0 -0.0831] CT
0.873 GC
[2 2] 0 setdash
2 LJ
2.667 LW
N
909 413 M
131 413 L
S
GR
GS
[0.75019 0 0 0.7507 0 -0.0831] CT
0.873 GC
[2 2] 0 setdash
2 LJ
2.667 LW
N
909 365.875 M
131 365.875 L
S
GR
GS
[0.75019 0 0 0.7507 0 -0.0831] CT
0.873 GC
[2 2] 0 setdash
2 LJ
2.667 LW
N
909 318.75 M
131 318.75 L
S
GR
GS
[0.75019 0 0 0.7507 0 -0.0831] CT
0.873 GC
[2 2] 0 setdash
2 LJ
2.667 LW
N
909 271.625 M
131 271.625 L
S
GR
GS
[0.75019 0 0 0.7507 0 -0.0831] CT
0.873 GC
[2 2] 0 setdash
2 LJ
2.667 LW
N
909 224.5 M
131 224.5 L
S
GR
GS
[0.75019 0 0 0.7507 0 -0.0831] CT
0.873 GC
[2 2] 0 setdash
2 LJ
2.667 LW
N
909 177.375 M
131 177.375 L
S
GR
GS
[0.75019 0 0 0.7507 0 -0.0831] CT
0.873 GC
[2 2] 0 setdash
2 LJ
2.667 LW
N
909 130.25 M
131 130.25 L
S
GR
GS
[0.75019 0 0 0.7507 0 -0.0831] CT
0.873 GC
[2 2] 0 setdash
2 LJ
2.667 LW
N
909 83.125 M
131 83.125 L
S
GR
GS
[0.75019 0 0 0.7507 0 -0.0831] CT
0.873 GC
[2 2] 0 setdash
2 LJ
2.667 LW
N
909 36 M
131 36 L
S
GR
GS
[0.75019 0 0 0.7507 0 -0.0831] CT
0.149 GC
2 setlinecap
1 LJ
2.667 LW
N
131 413 M
909 413 L
S
GR
GS
[0.75019 0 0 0.7507 0 -0.0831] CT
0.149 GC
2 setlinecap
1 LJ
2.667 LW
N
131 36 M
909 36 L
S
GR
GS
[0.75019 0 0 0.7507 0 -0.0831] CT
0.149 GC
2 setlinecap
1 LJ
2.667 LW
N
131 413 M
131 405.22 L
S
GR
GS
[0.75019 0 0 0.7507 0 -0.0831] CT
0.149 GC
2 setlinecap
1 LJ
2.667 LW
N
208.8 413 M
208.8 405.22 L
S
GR
GS
[0.75019 0 0 0.7507 0 -0.0831] CT
0.149 GC
2 setlinecap
1 LJ
2.667 LW
N
286.6 413 M
286.6 405.22 L
S
GR
GS
[0.75019 0 0 0.7507 0 -0.0831] CT
0.149 GC
2 setlinecap
1 LJ
2.667 LW
N
364.4 413 M
364.4 405.22 L
S
GR
GS
[0.75019 0 0 0.7507 0 -0.0831] CT
0.149 GC
2 setlinecap
1 LJ
2.667 LW
N
442.2 413 M
442.2 405.22 L
S
GR
GS
[0.75019 0 0 0.7507 0 -0.0831] CT
0.149 GC
2 setlinecap
1 LJ
2.667 LW
N
520 413 M
520 405.22 L
S
GR
GS
[0.75019 0 0 0.7507 0 -0.0831] CT
0.149 GC
2 setlinecap
1 LJ
2.667 LW
N
597.8 413 M
597.8 405.22 L
S
GR
GS
[0.75019 0 0 0.7507 0 -0.0831] CT
0.149 GC
2 setlinecap
1 LJ
2.667 LW
N
675.6 413 M
675.6 405.22 L
S
GR
GS
[0.75019 0 0 0.7507 0 -0.0831] CT
0.149 GC
2 setlinecap
1 LJ
2.667 LW
N
753.4 413 M
753.4 405.22 L
S
GR
GS
[0.75019 0 0 0.7507 0 -0.0831] CT
0.149 GC
2 setlinecap
1 LJ
2.667 LW
N
831.2 413 M
831.2 405.22 L
S
GR
GS
[0.75019 0 0 0.7507 0 -0.0831] CT
0.149 GC
2 setlinecap
1 LJ
2.667 LW
N
909 413 M
909 405.22 L
S
GR
GS
[0.75019 0 0 0.7507 0 -0.0831] CT
0.149 GC
2 setlinecap
1 LJ
2.667 LW
N
131 36 M
131 43.78 L
S
GR
GS
[0.75019 0 0 0.7507 0 -0.0831] CT
0.149 GC
2 setlinecap
1 LJ
2.667 LW
N
208.8 36 M
208.8 43.78 L
S
GR
GS
[0.75019 0 0 0.7507 0 -0.0831] CT
0.149 GC
2 setlinecap
1 LJ
2.667 LW
N
286.6 36 M
286.6 43.78 L
S
GR
GS
[0.75019 0 0 0.7507 0 -0.0831] CT
0.149 GC
2 setlinecap
1 LJ
2.667 LW
N
364.4 36 M
364.4 43.78 L
S
GR
GS
[0.75019 0 0 0.7507 0 -0.0831] CT
0.149 GC
2 setlinecap
1 LJ
2.667 LW
N
442.2 36 M
442.2 43.78 L
S
GR
GS
[0.75019 0 0 0.7507 0 -0.0831] CT
0.149 GC
2 setlinecap
1 LJ
2.667 LW
N
520 36 M
520 43.78 L
S
GR
GS
[0.75019 0 0 0.7507 0 -0.0831] CT
0.149 GC
2 setlinecap
1 LJ
2.667 LW
N
597.8 36 M
597.8 43.78 L
S
GR
GS
[0.75019 0 0 0.7507 0 -0.0831] CT
0.149 GC
2 setlinecap
1 LJ
2.667 LW
N
675.6 36 M
675.6 43.78 L
S
GR
GS
[0.75019 0 0 0.7507 0 -0.0831] CT
0.149 GC
2 setlinecap
1 LJ
2.667 LW
N
753.4 36 M
753.4 43.78 L
S
GR
GS
[0.75019 0 0 0.7507 0 -0.0831] CT
0.149 GC
2 setlinecap
1 LJ
2.667 LW
N
831.2 36 M
831.2 43.78 L
S
GR
GS
[0.75019 0 0 0.7507 0 -0.0831] CT
0.149 GC
2 setlinecap
1 LJ
2.667 LW
N
909 36 M
909 43.78 L
S
GR
GS
[0.75019 0 0 0.7507 98.27505 314.75977] CT
0.149 GC
/Helvetica 18.667 F
GS
[1 0 0 1 0 0] CT
-5.5 19 moveto 
1 -1 scale
(0) t 
GR
GR
GS
[0.75019 0 0 0.7507 156.63994 314.75977] CT
0.149 GC
/Helvetica 18.667 F
GS
[1 0 0 1 0 0] CT
-13 19 moveto 
1 -1 scale
(0.1) t 
GR
GR
GS
[0.75019 0 0 0.7507 215.00482 314.75977] CT
0.149 GC
/Helvetica 18.667 F
GS
[1 0 0 1 0 0] CT
-13 19 moveto 
1 -1 scale
(0.2) t 
GR
GR
GS
[0.75019 0 0 0.7507 273.36971 314.75977] CT
0.149 GC
/Helvetica 18.667 F
GS
[1 0 0 1 0 0] CT
-13 19 moveto 
1 -1 scale
(0.3) t 
GR
GR
GS
[0.75019 0 0 0.7507 331.73458 314.75977] CT
0.149 GC
/Helvetica 18.667 F
GS
[1 0 0 1 0 0] CT
-13 19 moveto 
1 -1 scale
(0.4) t 
GR
GR
GS
[0.75019 0 0 0.7507 390.09945 314.75977] CT
0.149 GC
/Helvetica 18.667 F
GS
[1 0 0 1 0 0] CT
-13 19 moveto 
1 -1 scale
(0.5) t 
GR
GR
GS
[0.75019 0 0 0.7507 448.46437 314.75977] CT
0.149 GC
/Helvetica 18.667 F
GS
[1 0 0 1 0 0] CT
-13 19 moveto 
1 -1 scale
(0.6) t 
GR
GR
GS
[0.75019 0 0 0.7507 506.82919 314.75977] CT
0.149 GC
/Helvetica 18.667 F
GS
[1 0 0 1 0 0] CT
-13 19 moveto 
1 -1 scale
(0.7) t 
GR
GR
GS
[0.75019 0 0 0.7507 565.19411 314.75977] CT
0.149 GC
/Helvetica 18.667 F
GS
[1 0 0 1 0 0] CT
-13 19 moveto 
1 -1 scale
(0.8) t 
GR
GR
GS
[0.75019 0 0 0.7507 623.55893 314.75977] CT
0.149 GC
/Helvetica 18.667 F
GS
[1 0 0 1 0 0] CT
-13 19 moveto 
1 -1 scale
(0.9) t 
GR
GR
GS
[0.75019 0 0 0.7507 681.92385 314.75977] CT
0.149 GC
/Helvetica 18.667 F
GS
[1 0 0 1 0 0] CT
-5.5 19 moveto 
1 -1 scale
(1) t 
GR
GR
GS
[0.75019 0 0 0.7507 390.09973 333.97765] CT
0.149 GC
N
-11.871 28.666 M
-11.871 2.634 L
-11.871 2.431 -11.715 2.291 QT
-11.558 2.15 -11.34 2.15 QT
-11.136 2.15 -10.965 2.291 QT
-10.793 2.431 -10.793 2.634 QT
-10.793 28.666 L
-10.793 28.869 -10.965 29.009 QT
-11.136 29.15 -11.34 29.15 QT
-11.558 29.15 -11.715 29.009 QT
-11.871 28.869 -11.871 28.666 QT
cp
f
GR
GS
[0.75019 0 0 0.7507 390.09973 333.97765] CT
0.149 GC
N
-6.245 21.916 M
-6.245 21.759 -6.213 21.681 QT
-2.307 6.072 L
-2.198 5.603 -2.166 5.337 QT
-2.166 4.9 -3.932 4.9 QT
-4.198 4.9 -4.198 4.556 QT
-4.182 4.478 -4.135 4.306 QT
-4.088 4.134 -4.018 4.048 QT
-3.948 3.962 -3.823 3.962 QT
-0.182 3.666 L
-0.104 3.666 L
-0.104 3.697 -0.01 3.744 QT
0.084 3.791 0.099 3.791 QT
0.146 3.931 0.146 4.009 QT
-1.963 12.431 L
-0.291 10.462 1.974 10.462 QT
2.927 10.462 3.623 10.798 QT
4.318 11.134 4.709 11.798 QT
5.099 12.462 5.099 13.384 QT
5.099 14.494 4.599 16.064 QT
4.099 17.634 3.365 19.572 QT
2.99 20.447 2.99 21.181 QT
2.99 21.994 3.599 21.994 QT
4.662 21.994 5.365 20.869 QT
6.068 19.744 6.365 18.431 QT
6.412 18.275 6.568 18.275 QT
6.896 18.275 L
7.005 18.275 7.068 18.345 QT
7.13 18.416 7.13 18.509 QT
7.13 18.541 7.115 18.587 QT
6.88 19.572 6.412 20.509 QT
5.943 21.447 5.224 22.072 QT
4.505 22.697 3.552 22.697 QT
2.599 22.697 1.927 22.048 QT
1.255 21.4 1.255 20.462 QT
1.255 19.962 1.474 19.4 QT
2.24 17.384 2.74 15.783 QT
3.24 14.181 3.24 12.978 QT
3.24 12.197 2.943 11.681 QT
2.646 11.166 1.927 11.166 QT
0.474 11.166 -0.604 12.056 QT
-1.682 12.947 -2.479 14.416 QT
-4.307 21.775 L
-4.416 22.181 -4.721 22.439 QT
-5.026 22.697 -5.416 22.697 QT
-5.76 22.697 -6.002 22.47 QT
-6.245 22.244 -6.245 21.916 QT
cp
f
GR
GS
[0.75019 0 0 0.7507 390.09973 333.97765] CT
0.149 GC
N
10.901 28.666 M
10.901 2.634 L
10.901 2.431 11.057 2.291 QT
11.213 2.15 11.432 2.15 QT
11.635 2.15 11.807 2.291 QT
11.979 2.431 11.979 2.634 QT
11.979 28.666 L
11.979 28.869 11.807 29.009 QT
11.635 29.15 11.432 29.15 QT
11.213 29.15 11.057 29.009 QT
10.901 28.869 10.901 28.666 QT
cp
f
GR
GS
[0.75019 0 0 0.7507 0 -0.0831] CT
0.149 GC
2 setlinecap
1 LJ
2.667 LW
N
131 413 M
131 36 L
S
GR
GS
[0.75019 0 0 0.7507 0 -0.0831] CT
0.149 GC
2 setlinecap
1 LJ
2.667 LW
N
909 413 M
909 36 L
S
GR
GS
[0.75019 0 0 0.7507 0 -0.0831] CT
0.149 GC
2 setlinecap
1 LJ
2.667 LW
N
131 413 M
138.78 413 L
S
GR
GS
[0.75019 0 0 0.7507 0 -0.0831] CT
0.149 GC
2 setlinecap
1 LJ
2.667 LW
N
131 365.875 M
138.78 365.875 L
S
GR
GS
[0.75019 0 0 0.7507 0 -0.0831] CT
0.149 GC
2 setlinecap
1 LJ
2.667 LW
N
131 318.75 M
138.78 318.75 L
S
GR
GS
[0.75019 0 0 0.7507 0 -0.0831] CT
0.149 GC
2 setlinecap
1 LJ
2.667 LW
N
131 271.625 M
138.78 271.625 L
S
GR
GS
[0.75019 0 0 0.7507 0 -0.0831] CT
0.149 GC
2 setlinecap
1 LJ
2.667 LW
N
131 224.5 M
138.78 224.5 L
S
GR
GS
[0.75019 0 0 0.7507 0 -0.0831] CT
0.149 GC
2 setlinecap
1 LJ
2.667 LW
N
131 177.375 M
138.78 177.375 L
S
GR
GS
[0.75019 0 0 0.7507 0 -0.0831] CT
0.149 GC
2 setlinecap
1 LJ
2.667 LW
N
131 130.25 M
138.78 130.25 L
S
GR
GS
[0.75019 0 0 0.7507 0 -0.0831] CT
0.149 GC
2 setlinecap
1 LJ
2.667 LW
N
131 83.125 M
138.78 83.125 L
S
GR
GS
[0.75019 0 0 0.7507 0 -0.0831] CT
0.149 GC
2 setlinecap
1 LJ
2.667 LW
N
131 36 M
138.78 36 L
S
GR
GS
[0.75019 0 0 0.7507 0 -0.0831] CT
0.149 GC
2 setlinecap
1 LJ
2.667 LW
N
909 413 M
901.22 413 L
S
GR
GS
[0.75019 0 0 0.7507 0 -0.0831] CT
0.149 GC
2 setlinecap
1 LJ
2.667 LW
N
909 365.875 M
901.22 365.875 L
S
GR
GS
[0.75019 0 0 0.7507 0 -0.0831] CT
0.149 GC
2 setlinecap
1 LJ
2.667 LW
N
909 318.75 M
901.22 318.75 L
S
GR
GS
[0.75019 0 0 0.7507 0 -0.0831] CT
0.149 GC
2 setlinecap
1 LJ
2.667 LW
N
909 271.625 M
901.22 271.625 L
S
GR
GS
[0.75019 0 0 0.7507 0 -0.0831] CT
0.149 GC
2 setlinecap
1 LJ
2.667 LW
N
909 224.5 M
901.22 224.5 L
S
GR
GS
[0.75019 0 0 0.7507 0 -0.0831] CT
0.149 GC
2 setlinecap
1 LJ
2.667 LW
N
909 177.375 M
901.22 177.375 L
S
GR
GS
[0.75019 0 0 0.7507 0 -0.0831] CT
0.149 GC
2 setlinecap
1 LJ
2.667 LW
N
909 130.25 M
901.22 130.25 L
S
GR
GS
[0.75019 0 0 0.7507 0 -0.0831] CT
0.149 GC
2 setlinecap
1 LJ
2.667 LW
N
909 83.125 M
901.22 83.125 L
S
GR
GS
[0.75019 0 0 0.7507 0 -0.0831] CT
0.149 GC
2 setlinecap
1 LJ
2.667 LW
N
909 36 M
901.22 36 L
S
GR
GS
[0.75019 0 0 0.7507 93.47383 309.95531] CT
0.149 GC
/Helvetica 18.667 F
GS
[1 0 0 1 0 0] CT
-26 7 moveto 
1 -1 scale
(0.5) t 
GR
GR
GS
[0.75019 0 0 0.7507 93.47383 274.57865] CT
0.149 GC
/Helvetica 18.667 F
GS
[1 0 0 1 0 0] CT
-37 7 moveto 
1 -1 scale
(0.55) t 
GR
GR
GS
[0.75019 0 0 0.7507 93.47383 239.20197] CT
0.149 GC
/Helvetica 18.667 F
GS
[1 0 0 1 0 0] CT
-26 7 moveto 
1 -1 scale
(0.6) t 
GR
GR
GS
[0.75019 0 0 0.7507 93.47383 203.82536] CT
0.149 GC
/Helvetica 18.667 F
GS
[1 0 0 1 0 0] CT
-37 7 moveto 
1 -1 scale
(0.65) t 
GR
GR
GS
[0.75019 0 0 0.7507 93.47383 168.44869] CT
0.149 GC
/Helvetica 18.667 F
GS
[1 0 0 1 0 0] CT
-26 7 moveto 
1 -1 scale
(0.7) t 
GR
GR
GS
[0.75019 0 0 0.7507 93.47383 133.07202] CT
0.149 GC
/Helvetica 18.667 F
GS
[1 0 0 1 0 0] CT
-37 7 moveto 
1 -1 scale
(0.75) t 
GR
GR
GS
[0.75019 0 0 0.7507 93.47383 97.69535] CT
0.149 GC
/Helvetica 18.667 F
GS
[1 0 0 1 0 0] CT
-26 7 moveto 
1 -1 scale
(0.8) t 
GR
GR
GS
[0.75019 0 0 0.7507 93.47383 62.31868] CT
0.149 GC
/Helvetica 18.667 F
GS
[1 0 0 1 0 0] CT
-37 7 moveto 
1 -1 scale
(0.85) t 
GR
GR
GS
[0.75019 0 0 0.7507 93.47383 26.94206] CT
0.149 GC
/Helvetica 18.667 F
GS
[1 0 0 1 0 0] CT
-26 7 moveto 
1 -1 scale
(0.9) t 
GR
GR
GS
[0 -0.7507 0.75019 0 62.71599 168.44856] CT
0.149 GC
N
-24.069 -9.6 M
-24.319 -9.6 -24.319 -9.959 QT
-24.319 -10.022 -24.28 -10.186 QT
-24.241 -10.35 -24.162 -10.452 QT
-24.084 -10.553 -23.991 -10.553 QT
-22.334 -10.553 -21.678 -10.741 QT
-21.334 -10.85 -21.178 -11.459 QT
-17.475 -26.288 L
-17.412 -26.553 -17.412 -26.663 QT
-17.412 -26.944 -17.741 -26.991 QT
-18.256 -27.1 -19.678 -27.1 QT
-19.944 -27.1 -19.944 -27.444 QT
-19.944 -27.522 -19.897 -27.686 QT
-19.85 -27.85 -19.78 -27.944 QT
-19.709 -28.038 -19.6 -28.038 QT
-10.287 -28.038 L
-9.006 -28.038 -7.803 -27.584 QT
-6.6 -27.131 -5.842 -26.194 QT
-5.084 -25.256 -5.084 -23.928 QT
-5.084 -22.209 -6.287 -20.866 QT
-7.491 -19.522 -9.287 -18.772 QT
-11.084 -18.022 -12.772 -18.022 QT
-17.162 -18.022 L
-18.819 -11.35 L
-18.866 -11.084 -18.866 -10.975 QT
-18.866 -10.866 -18.834 -10.795 QT
-18.803 -10.725 -18.741 -10.702 QT
-18.678 -10.678 -18.553 -10.663 QT
-18.037 -10.553 -16.6 -10.553 QT
-16.334 -10.553 -16.334 -10.194 QT
-16.428 -9.819 -16.483 -9.709 QT
-16.537 -9.6 -16.803 -9.6 QT
-24.069 -9.6 L
cp
-17.037 -18.834 M
-13.256 -18.834 L
-10.631 -18.834 -9.256 -20.241 QT
-8.553 -20.944 -8.116 -22.256 QT
-7.678 -23.569 -7.678 -24.647 QT
-7.678 -25.975 -8.694 -26.538 QT
-9.709 -27.1 -11.209 -27.1 QT
-13.787 -27.1 L
-14.537 -27.1 -14.772 -26.975 QT
-15.006 -26.85 -15.209 -26.178 QT
-17.037 -18.834 L
cp
f
GR
GS
[0 -0.7507 0.75019 0 62.71599 168.44856] CT
0.149 GC
N
-6.792 -5.928 M
-6.792 -6.038 -6.776 -6.085 QT
-5.355 -11.756 L
-5.214 -12.288 -5.214 -12.694 QT
-5.214 -13.506 -5.776 -13.506 QT
-6.37 -13.506 -6.659 -12.795 QT
-6.948 -12.085 -7.214 -11.006 QT
-7.214 -10.944 -7.269 -10.913 QT
-7.323 -10.881 -7.37 -10.881 QT
-7.589 -10.881 L
-7.651 -10.881 -7.698 -10.952 QT
-7.745 -11.022 -7.745 -11.069 QT
-7.542 -11.897 -7.355 -12.475 QT
-7.167 -13.053 -6.761 -13.522 QT
-6.355 -13.991 -5.761 -13.991 QT
-5.105 -13.991 -4.605 -13.616 QT
-4.105 -13.241 -3.98 -12.616 QT
-3.495 -13.241 -2.878 -13.616 QT
-2.261 -13.991 -1.542 -13.991 QT
-0.933 -13.991 -0.472 -13.639 QT
-0.011 -13.288 -0.011 -12.694 QT
-0.011 -12.21 -0.316 -11.85 QT
-0.62 -11.491 -1.12 -11.491 QT
-1.417 -11.491 -1.628 -11.678 QT
-1.839 -11.866 -1.839 -12.178 QT
-1.839 -12.6 -1.534 -12.928 QT
-1.23 -13.256 -0.823 -13.256 QT
-1.136 -13.506 -1.573 -13.506 QT
-2.386 -13.506 -2.987 -12.928 QT
-3.589 -12.35 -4.073 -11.46 QT
-5.433 -6.022 L
-5.495 -5.756 -5.722 -5.569 QT
-5.948 -5.381 -6.23 -5.381 QT
-6.464 -5.381 -6.628 -5.53 QT
-6.792 -5.678 -6.792 -5.928 QT
cp
f
GR
GS
[0 -0.7507 0.75019 0 62.71599 168.44856] CT
0.149 GC
N
4.507 -5.381 M
3.586 -5.381 2.906 -5.858 QT
2.226 -6.335 1.867 -7.139 QT
1.507 -7.944 1.507 -8.835 QT
1.507 -10.178 2.195 -11.374 QT
2.882 -12.569 4.047 -13.28 QT
5.211 -13.991 6.554 -13.991 QT
7.367 -13.991 7.976 -13.569 QT
8.586 -13.147 8.586 -12.366 QT
8.586 -11.272 7.711 -10.741 QT
6.836 -10.21 5.742 -10.077 QT
4.648 -9.944 3.32 -9.944 QT
3.273 -9.944 L
2.961 -8.819 2.961 -8.006 QT
2.961 -7.163 3.351 -6.522 QT
3.742 -5.881 4.539 -5.881 QT
5.664 -5.881 6.711 -6.405 QT
7.757 -6.928 8.414 -7.85 QT
8.476 -7.897 8.57 -7.897 QT
8.664 -7.897 8.757 -7.795 QT
8.851 -7.694 8.851 -7.6 QT
8.851 -7.522 8.82 -7.491 QT
8.117 -6.506 6.937 -5.944 QT
5.757 -5.381 4.507 -5.381 QT
cp
3.382 -10.444 M
4.476 -10.444 5.414 -10.545 QT
6.351 -10.647 7.117 -11.061 QT
7.882 -11.475 7.882 -12.35 QT
7.882 -12.694 7.687 -12.96 QT
7.492 -13.225 7.179 -13.366 QT
6.867 -13.506 6.539 -13.506 QT
5.726 -13.506 5.078 -13.069 QT
4.429 -12.631 4.015 -11.928 QT
3.601 -11.225 3.382 -10.444 QT
cp
f
GR
GS
[0 -0.7507 0.75019 0 62.71599 168.44856] CT
0.149 GC
N
11.027 -6.756 M
11.527 -5.881 13.074 -5.881 QT
13.746 -5.881 14.348 -6.116 QT
14.949 -6.35 15.34 -6.803 QT
15.73 -7.256 15.73 -7.897 QT
15.73 -8.397 15.379 -8.71 QT
15.027 -9.022 14.527 -9.131 QT
13.496 -9.335 L
12.793 -9.522 12.332 -9.999 QT
11.871 -10.475 11.871 -11.163 QT
11.871 -12.006 12.332 -12.655 QT
12.793 -13.303 13.543 -13.647 QT
14.293 -13.991 15.105 -13.991 QT
15.965 -13.991 16.644 -13.585 QT
17.324 -13.178 17.324 -12.366 QT
17.324 -11.928 17.082 -11.592 QT
16.84 -11.256 16.402 -11.256 QT
16.152 -11.256 15.973 -11.42 QT
15.793 -11.585 15.793 -11.835 QT
15.793 -12.053 15.918 -12.264 QT
16.043 -12.475 16.254 -12.6 QT
16.465 -12.725 16.684 -12.725 QT
16.512 -13.131 16.051 -13.319 QT
15.59 -13.506 15.074 -13.506 QT
14.59 -13.506 14.105 -13.311 QT
13.621 -13.116 13.332 -12.741 QT
13.043 -12.366 13.043 -11.85 QT
13.043 -11.506 13.277 -11.249 QT
13.512 -10.991 13.871 -10.881 QT
14.98 -10.663 L
15.496 -10.538 15.941 -10.256 QT
16.387 -9.975 16.644 -9.545 QT
16.902 -9.116 16.902 -8.553 QT
16.902 -7.85 16.504 -7.163 QT
16.105 -6.475 15.527 -6.069 QT
14.527 -5.381 13.059 -5.381 QT
12.043 -5.381 11.199 -5.85 QT
10.355 -6.319 10.355 -7.241 QT
10.355 -7.756 10.66 -8.139 QT
10.965 -8.522 11.48 -8.522 QT
11.777 -8.522 11.988 -8.335 QT
12.199 -8.147 12.199 -7.85 QT
12.199 -7.413 11.879 -7.085 QT
11.559 -6.756 11.121 -6.756 QT
11.027 -6.756 L
cp
f
GR
GS
[0 -0.7507 0.75019 0 62.71599 168.44856] CT
0.149 GC
N
19.137 -3.738 M
19.137 -3.972 19.246 -4.238 QT
20.293 -7.035 L
20.465 -7.519 20.465 -7.816 QT
20.465 -8.206 20.184 -8.206 QT
19.668 -8.206 19.332 -7.675 QT
18.996 -7.144 18.84 -6.488 QT
18.809 -6.41 18.73 -6.41 QT
18.574 -6.41 L
18.465 -6.41 18.465 -6.535 QT
18.465 -6.566 L
18.684 -7.347 19.113 -7.949 QT
19.543 -8.55 20.199 -8.55 QT
20.668 -8.55 20.988 -8.245 QT
21.309 -7.941 21.309 -7.472 QT
21.309 -7.222 21.199 -6.956 QT
20.152 -4.16 L
19.965 -3.738 19.965 -3.378 QT
19.965 -3.003 20.262 -3.003 QT
20.777 -3.003 21.113 -3.542 QT
21.449 -4.081 21.59 -4.706 QT
21.621 -4.785 21.699 -4.785 QT
21.855 -4.785 L
21.902 -4.785 21.934 -4.753 QT
21.965 -4.722 21.965 -4.675 QT
21.965 -4.66 21.949 -4.628 QT
21.777 -3.894 21.34 -3.277 QT
20.902 -2.66 20.246 -2.66 QT
19.777 -2.66 19.457 -2.972 QT
19.137 -3.285 19.137 -3.738 QT
cp
20.605 -10.675 M
20.605 -10.956 20.832 -11.175 QT
21.059 -11.394 21.34 -11.394 QT
21.559 -11.394 21.699 -11.261 QT
21.84 -11.128 21.84 -10.91 QT
21.84 -10.628 21.605 -10.402 QT
21.371 -10.175 21.105 -10.175 QT
20.887 -10.175 20.746 -10.324 QT
20.605 -10.472 20.605 -10.675 QT
cp
f
GR
GS
[0.75019 0 0 0.7507 0 -0.0831] CT
1 0 0 RC
1 LJ
1.733 LW
N
138.78 183.104 M
146.56 172.996 L
154.34 171.313 L
162.12 170.705 L
169.9 170.42 L
177.68 170.264 L
185.46 170.169 L
193.24 170.108 L
201.02 170.066 L
208.8 170.036 L
216.58 170.013 L
224.36 169.996 L
232.14 169.983 L
239.92 169.972 L
247.7 169.964 L
255.48 169.957 L
263.26 169.951 L
271.04 169.947 L
278.82 169.942 L
286.6 169.939 L
294.38 169.936 L
302.16 169.933 L
309.94 169.931 L
317.72 169.929 L
325.5 169.927 L
333.28 169.926 L
341.06 169.924 L
348.84 169.923 L
356.62 169.922 L
364.4 169.921 L
372.18 169.92 L
379.96 169.919 L
387.74 169.918 L
395.52 169.918 L
403.3 169.917 L
411.08 169.917 L
418.86 169.916 L
426.64 169.916 L
434.42 169.915 L
442.2 169.915 L
449.98 169.914 L
457.76 169.914 L
465.54 169.914 L
473.32 169.913 L
481.1 169.913 L
488.88 169.913 L
496.66 169.912 L
504.44 169.912 L
512.22 169.912 L
520 169.912 L
527.78 169.912 L
535.56 169.911 L
543.34 169.911 L
551.12 169.911 L
558.9 169.911 L
566.68 169.911 L
574.46 169.911 L
582.24 169.91 L
590.02 169.91 L
597.8 169.91 L
605.58 169.91 L
613.36 169.91 L
621.14 169.91 L
628.92 169.91 L
636.7 169.91 L
644.48 169.91 L
652.26 169.909 L
660.04 169.909 L
667.82 169.909 L
675.6 169.909 L
683.38 169.909 L
691.16 169.909 L
698.94 169.909 L
706.72 169.909 L
714.5 169.909 L
722.28 169.909 L
730.06 169.909 L
737.84 169.909 L
745.62 169.909 L
753.4 169.909 L
761.18 169.909 L
768.96 169.909 L
776.74 169.909 L
784.52 169.908 L
792.3 169.908 L
800.08 169.908 L
807.86 169.908 L
815.64 169.908 L
823.42 169.908 L
831.2 169.908 L
838.98 169.908 L
846.76 169.908 L
854.54 169.908 L
862.32 169.908 L
870.1 169.908 L
877.88 169.908 L
885.66 169.908 L
893.44 169.908 L
901.22 169.908 L
909 169.908 L
S
GR
GS
[0.75019 0 0 0.7507 0 -0.0831] CT
0 0 1 RC
1 LJ
1.733 LW
N
138.78 232.607 M
146.56 206.081 L
154.34 201.364 L
162.12 199.66 L
169.9 198.861 L
177.68 198.425 L
185.46 198.161 L
193.24 197.989 L
201.02 197.871 L
208.8 197.787 L
216.58 197.724 L
224.36 197.677 L
232.14 197.64 L
239.92 197.61 L
247.7 197.587 L
255.48 197.567 L
263.26 197.551 L
271.04 197.537 L
278.82 197.526 L
286.6 197.516 L
294.38 197.508 L
302.16 197.501 L
309.94 197.494 L
317.72 197.489 L
325.5 197.484 L
333.28 197.479 L
341.06 197.476 L
348.84 197.472 L
356.62 197.469 L
364.4 197.466 L
372.18 197.464 L
379.96 197.461 L
387.74 197.459 L
395.52 197.457 L
403.3 197.455 L
411.08 197.454 L
418.86 197.452 L
426.64 197.451 L
434.42 197.45 L
442.2 197.449 L
449.98 197.448 L
457.76 197.447 L
465.54 197.446 L
473.32 197.445 L
481.1 197.444 L
488.88 197.443 L
496.66 197.442 L
504.44 197.442 L
512.22 197.441 L
520 197.44 L
527.78 197.44 L
535.56 197.439 L
543.34 197.439 L
551.12 197.438 L
558.9 197.438 L
566.68 197.438 L
574.46 197.437 L
582.24 197.437 L
590.02 197.436 L
597.8 197.436 L
605.58 197.436 L
613.36 197.435 L
621.14 197.435 L
628.92 197.435 L
636.7 197.435 L
644.48 197.434 L
652.26 197.434 L
660.04 197.434 L
667.82 197.434 L
675.6 197.433 L
683.38 197.433 L
691.16 197.433 L
698.94 197.433 L
706.72 197.433 L
714.5 197.432 L
722.28 197.432 L
730.06 197.432 L
737.84 197.432 L
745.62 197.432 L
753.4 197.432 L
761.18 197.432 L
768.96 197.431 L
776.74 197.431 L
784.52 197.431 L
792.3 197.431 L
800.08 197.431 L
807.86 197.431 L
815.64 197.431 L
823.42 197.431 L
831.2 197.43 L
838.98 197.43 L
846.76 197.43 L
854.54 197.43 L
862.32 197.43 L
870.1 197.43 L
877.88 197.43 L
885.66 197.43 L
893.44 197.43 L
901.22 197.43 L
909 197.43 L
S
GR
GS
[0.75019 0 0 0.7507 0 -0.0831] CT
0 1 0 RC
1 LJ
1.733 LW
N
138.78 286.154 M
146.56 245.345 L
154.34 237.17 L
162.12 234.21 L
169.9 233.014 L
177.68 232.412 L
185.46 232.048 L
193.24 231.811 L
201.02 231.649 L
208.8 231.532 L
216.58 231.446 L
224.36 231.38 L
232.14 231.329 L
239.92 231.289 L
247.7 231.256 L
255.48 231.229 L
263.26 231.207 L
271.04 231.188 L
278.82 231.173 L
286.6 231.159 L
294.38 231.148 L
302.16 231.137 L
309.94 231.129 L
317.72 231.121 L
325.5 231.114 L
333.28 231.108 L
341.06 231.103 L
348.84 231.098 L
356.62 231.094 L
364.4 231.09 L
372.18 231.086 L
379.96 231.083 L
387.74 231.08 L
395.52 231.078 L
403.3 231.075 L
411.08 231.073 L
418.86 231.071 L
426.64 231.069 L
434.42 231.067 L
442.2 231.066 L
449.98 231.064 L
457.76 231.063 L
465.54 231.061 L
473.32 231.06 L
481.1 231.059 L
488.88 231.058 L
496.66 231.057 L
504.44 231.056 L
512.22 231.055 L
520 231.054 L
527.78 231.054 L
535.56 231.053 L
543.34 231.052 L
551.12 231.052 L
558.9 231.051 L
566.68 231.05 L
574.46 231.05 L
582.24 231.049 L
590.02 231.049 L
597.8 231.048 L
605.58 231.048 L
613.36 231.047 L
621.14 231.047 L
628.92 231.047 L
636.7 231.046 L
644.48 231.046 L
652.26 231.046 L
660.04 231.045 L
667.82 231.045 L
675.6 231.045 L
683.38 231.044 L
691.16 231.044 L
698.94 231.044 L
706.72 231.044 L
714.5 231.043 L
722.28 231.043 L
730.06 231.043 L
737.84 231.043 L
745.62 231.042 L
753.4 231.042 L
761.18 231.042 L
768.96 231.042 L
776.74 231.042 L
784.52 231.042 L
792.3 231.041 L
800.08 231.041 L
807.86 231.041 L
815.64 231.041 L
823.42 231.041 L
831.2 231.041 L
838.98 231.041 L
846.76 231.04 L
854.54 231.04 L
862.32 231.04 L
870.1 231.04 L
877.88 231.04 L
885.66 231.04 L
893.44 231.04 L
901.22 231.04 L
909 231.04 L
S
GR
GS
[0.75019 0 0 0.7507 0 -0.0831] CT
1 0 0 RC
[8 3 2 3] 0 setdash
2 LJ
1.733 LW
N
131 138.073 M
138.78 138.073 L
146.56 138.073 L
154.34 138.073 L
162.12 138.073 L
169.9 138.073 L
177.68 138.073 L
185.46 138.073 L
193.24 138.073 L
201.02 138.073 L
208.8 138.073 L
216.58 138.073 L
224.36 138.073 L
232.14 138.073 L
239.92 138.073 L
247.7 138.073 L
255.48 138.073 L
263.26 138.073 L
271.04 138.073 L
278.82 138.073 L
286.6 138.073 L
294.38 138.073 L
302.16 138.073 L
309.94 138.073 L
317.72 138.073 L
325.5 138.073 L
333.28 138.073 L
341.06 138.073 L
348.84 138.073 L
356.62 138.073 L
364.4 138.073 L
372.18 138.073 L
379.96 138.073 L
387.74 138.073 L
395.52 138.073 L
403.3 138.073 L
411.08 138.073 L
418.86 138.073 L
426.64 138.073 L
434.42 138.073 L
442.2 138.073 L
449.98 138.073 L
457.76 138.073 L
465.54 138.073 L
473.32 138.073 L
481.1 138.073 L
488.88 138.073 L
496.66 138.073 L
504.44 138.073 L
512.22 138.073 L
520 138.073 L
527.78 138.073 L
535.56 138.073 L
543.34 138.073 L
551.12 138.073 L
558.9 138.073 L
566.68 138.073 L
574.46 138.073 L
582.24 138.073 L
590.02 138.073 L
597.8 138.073 L
605.58 138.073 L
613.36 138.073 L
621.14 138.073 L
628.92 138.073 L
636.7 138.073 L
644.48 138.073 L
652.26 138.073 L
660.04 138.073 L
667.82 138.073 L
675.6 138.073 L
683.38 138.073 L
691.16 138.073 L
698.94 138.073 L
706.72 138.073 L
714.5 138.073 L
722.28 138.073 L
730.06 138.073 L
737.84 138.073 L
745.62 138.073 L
753.4 138.073 L
761.18 138.073 L
768.96 138.073 L
776.74 138.073 L
784.52 138.073 L
792.3 138.073 L
800.08 138.073 L
807.86 138.073 L
815.64 138.073 L
823.42 138.073 L
831.2 138.073 L
838.98 138.073 L
846.76 138.073 L
854.54 138.073 L
862.32 138.073 L
870.1 138.073 L
877.88 138.073 L
885.66 138.073 L
893.44 138.073 L
901.22 138.073 L
909 138.073 L
S
GR
GS
[0.75019 0 0 0.7507 0 -0.0831] CT
0 0 1 RC
[8 3 2 3] 0 setdash
2 LJ
1.733 LW
N
131 97.828 M
138.78 97.828 L
146.56 97.828 L
154.34 97.828 L
162.12 97.828 L
169.9 97.828 L
177.68 97.828 L
185.46 97.828 L
193.24 97.828 L
201.02 97.828 L
208.8 97.828 L
216.58 97.828 L
224.36 97.828 L
232.14 97.828 L
239.92 97.828 L
247.7 97.828 L
255.48 97.828 L
263.26 97.828 L
271.04 97.828 L
278.82 97.828 L
286.6 97.828 L
294.38 97.828 L
302.16 97.828 L
309.94 97.828 L
317.72 97.828 L
325.5 97.828 L
333.28 97.828 L
341.06 97.828 L
348.84 97.828 L
356.62 97.828 L
364.4 97.828 L
372.18 97.828 L
379.96 97.828 L
387.74 97.828 L
395.52 97.828 L
403.3 97.828 L
411.08 97.828 L
418.86 97.828 L
426.64 97.828 L
434.42 97.828 L
442.2 97.828 L
449.98 97.828 L
457.76 97.828 L
465.54 97.828 L
473.32 97.828 L
481.1 97.828 L
488.88 97.828 L
496.66 97.828 L
504.44 97.828 L
512.22 97.828 L
520 97.828 L
527.78 97.828 L
535.56 97.828 L
543.34 97.828 L
551.12 97.828 L
558.9 97.828 L
566.68 97.828 L
574.46 97.828 L
582.24 97.828 L
590.02 97.828 L
597.8 97.828 L
605.58 97.828 L
613.36 97.828 L
621.14 97.828 L
628.92 97.828 L
636.7 97.828 L
644.48 97.828 L
652.26 97.828 L
660.04 97.828 L
667.82 97.828 L
675.6 97.828 L
683.38 97.828 L
691.16 97.828 L
698.94 97.828 L
706.72 97.828 L
714.5 97.828 L
722.28 97.828 L
730.06 97.828 L
737.84 97.828 L
745.62 97.828 L
753.4 97.828 L
761.18 97.828 L
768.96 97.828 L
776.74 97.828 L
784.52 97.828 L
792.3 97.828 L
800.08 97.828 L
807.86 97.828 L
815.64 97.828 L
823.42 97.828 L
831.2 97.828 L
838.98 97.828 L
846.76 97.828 L
854.54 97.828 L
862.32 97.828 L
870.1 97.828 L
877.88 97.828 L
885.66 97.828 L
893.44 97.828 L
901.22 97.828 L
909 97.828 L
S
GR
GS
[0.75019 0 0 0.7507 0 -0.0831] CT
0 1 0 RC
[8 3 2 3] 0 setdash
2 LJ
1.733 LW
N
131 59.563 M
138.78 59.563 L
146.56 59.563 L
154.34 59.563 L
162.12 59.563 L
169.9 59.563 L
177.68 59.563 L
185.46 59.563 L
193.24 59.563 L
201.02 59.563 L
208.8 59.563 L
216.58 59.563 L
224.36 59.563 L
232.14 59.563 L
239.92 59.563 L
247.7 59.563 L
255.48 59.563 L
263.26 59.563 L
271.04 59.563 L
278.82 59.563 L
286.6 59.563 L
294.38 59.563 L
302.16 59.563 L
309.94 59.563 L
317.72 59.563 L
325.5 59.563 L
333.28 59.563 L
341.06 59.563 L
348.84 59.563 L
356.62 59.563 L
364.4 59.563 L
372.18 59.563 L
379.96 59.563 L
387.74 59.563 L
395.52 59.563 L
403.3 59.563 L
411.08 59.563 L
418.86 59.563 L
426.64 59.563 L
434.42 59.563 L
442.2 59.563 L
449.98 59.563 L
457.76 59.563 L
465.54 59.563 L
473.32 59.563 L
481.1 59.563 L
488.88 59.563 L
496.66 59.563 L
504.44 59.563 L
512.22 59.563 L
520 59.563 L
527.78 59.563 L
535.56 59.563 L
543.34 59.563 L
551.12 59.563 L
558.9 59.563 L
566.68 59.563 L
574.46 59.563 L
582.24 59.563 L
590.02 59.563 L
597.8 59.563 L
605.58 59.563 L
613.36 59.563 L
621.14 59.563 L
628.92 59.563 L
636.7 59.563 L
644.48 59.563 L
652.26 59.563 L
660.04 59.563 L
667.82 59.563 L
675.6 59.563 L
683.38 59.563 L
691.16 59.563 L
698.94 59.563 L
706.72 59.563 L
714.5 59.563 L
722.28 59.563 L
730.06 59.563 L
737.84 59.563 L
745.62 59.563 L
753.4 59.563 L
761.18 59.563 L
768.96 59.563 L
776.74 59.563 L
784.52 59.563 L
792.3 59.563 L
800.08 59.563 L
807.86 59.563 L
815.64 59.563 L
823.42 59.563 L
831.2 59.563 L
838.98 59.563 L
846.76 59.563 L
854.54 59.563 L
862.32 59.563 L
870.1 59.563 L
877.88 59.563 L
885.66 59.563 L
893.44 59.563 L
901.22 59.563 L
909 59.563 L
S
GR
GS
[0.75019 0 0 0.7507 0 -0.0831] CT
1 GC
N
898 403 M
898 223 L
712 223 L
712 403 L
cp
f
GR
GS
[0.75019 0 0 0.7507 569.28806 179.68215] CT
N
1.219 5.76 M
0.984 5.76 0.984 5.447 QT
1 5.385 1.031 5.244 QT
1.063 5.104 1.125 5.01 QT
1.188 4.916 1.297 4.916 QT
3.594 4.916 3.969 3.447 QT
7.078 -9.084 L
7.125 -9.318 7.125 -9.412 QT
7.125 -9.662 6.844 -9.693 QT
6.391 -9.787 5.109 -9.787 QT
4.875 -9.787 4.875 -10.115 QT
4.891 -10.162 4.922 -10.31 QT
4.953 -10.459 5.023 -10.545 QT
5.094 -10.631 5.188 -10.631 QT
9.406 -10.631 L
9.688 -10.631 9.719 -10.365 QT
11.594 3.385 L
20.328 -10.365 L
20.5 -10.631 20.797 -10.631 QT
24.875 -10.631 L
25.109 -10.631 25.109 -10.318 QT
25.094 -10.256 25.055 -10.115 QT
25.016 -9.974 24.953 -9.881 QT
24.891 -9.787 24.797 -9.787 QT
23.328 -9.787 22.766 -9.631 QT
22.438 -9.521 22.297 -8.974 QT
19.016 4.197 L
18.969 4.432 18.969 4.541 QT
18.969 4.635 18.992 4.697 QT
19.016 4.76 19.07 4.776 QT
19.125 4.791 19.25 4.822 QT
19.703 4.916 20.984 4.916 QT
21.219 4.916 21.219 5.229 QT
21.125 5.572 21.078 5.666 QT
21.031 5.76 20.813 5.76 QT
14.547 5.76 L
14.313 5.76 14.313 5.447 QT
14.328 5.385 14.359 5.236 QT
14.391 5.088 14.453 5.002 QT
14.516 4.916 14.609 4.916 QT
16.078 4.916 16.656 4.744 QT
16.969 4.651 17.109 4.104 QT
20.563 -9.787 L
10.875 5.494 L
10.734 5.76 10.391 5.76 QT
10.094 5.76 10.063 5.494 QT
8.016 -9.599 L
4.719 3.557 L
4.703 3.619 4.688 3.705 QT
4.672 3.791 4.656 3.901 QT
4.656 4.526 5.203 4.721 QT
5.75 4.916 6.531 4.916 QT
6.781 4.916 6.781 5.229 QT
6.688 5.541 6.641 5.651 QT
6.594 5.76 6.359 5.76 QT
1.219 5.76 L
cp
f
GR
GS
[0.75019 0 0 0.7507 569.28806 179.68215] CT
N
34.379 2.572 M
34.176 2.572 34.043 2.416 QT
33.91 2.26 33.91 2.088 QT
33.91 1.885 34.043 1.744 QT
34.176 1.604 34.379 1.604 QT
49.441 1.604 L
49.613 1.604 49.746 1.744 QT
49.879 1.885 49.879 2.088 QT
49.879 2.26 49.746 2.416 QT
49.613 2.572 49.441 2.572 QT
34.379 2.572 L
cp
34.379 -2.099 M
34.176 -2.099 34.043 -2.24 QT
33.91 -2.381 33.91 -2.568 QT
33.91 -2.756 34.043 -2.904 QT
34.176 -3.053 34.379 -3.053 QT
49.441 -3.053 L
49.613 -3.053 49.746 -2.904 QT
49.879 -2.756 49.879 -2.568 QT
49.879 -2.381 49.746 -2.24 QT
49.613 -2.099 49.441 -2.099 QT
34.379 -2.099 L
cp
f
GR
GS
[0.75019 0 0 0.7507 569.28806 179.68215] CT
N
59.103 5.76 M
59.103 5.119 L
59.103 5.057 59.15 4.979 QT
62.868 0.854 L
63.712 -0.053 64.243 -0.678 QT
64.775 -1.303 65.29 -2.107 QT
65.806 -2.912 66.103 -3.748 QT
66.4 -4.584 66.4 -5.521 QT
66.4 -6.506 66.033 -7.404 QT
65.665 -8.303 64.947 -8.842 QT
64.228 -9.381 63.212 -9.381 QT
62.165 -9.381 61.337 -8.756 QT
60.509 -8.131 60.165 -7.131 QT
60.259 -7.162 60.415 -7.162 QT
60.962 -7.162 61.345 -6.795 QT
61.728 -6.428 61.728 -5.849 QT
61.728 -5.303 61.345 -4.92 QT
60.962 -4.537 60.415 -4.537 QT
59.853 -4.537 59.478 -4.935 QT
59.103 -5.334 59.103 -5.849 QT
59.103 -6.756 59.439 -7.545 QT
59.775 -8.334 60.415 -8.951 QT
61.056 -9.568 61.861 -9.896 QT
62.665 -10.224 63.556 -10.224 QT
64.931 -10.224 66.118 -9.646 QT
67.306 -9.068 67.993 -8.006 QT
68.681 -6.943 68.681 -5.521 QT
68.681 -4.49 68.228 -3.553 QT
67.775 -2.615 67.056 -1.842 QT
66.337 -1.068 65.228 -0.099 QT
64.118 0.869 63.759 1.197 QT
61.04 3.807 L
63.353 3.807 L
65.056 3.807 66.197 3.783 QT
67.337 3.76 67.4 3.697 QT
67.681 3.385 67.978 1.479 QT
68.681 1.479 L
68.009 5.76 L
59.103 5.76 L
cp
f
GR
GS
[0.75019 0 0 0.7507 0 -0.0831] CT
1 0 0 RC
1 LJ
1.733 LW
N
715.988 239.464 M
755.866 239.464 L
S
GR
GS
[0.75019 0 0 0.7507 569.28806 201.76348] CT
N
/f-76095220{1.219 5.76 M
0.984 5.76 0.984 5.447 QT
1 5.385 1.031 5.244 QT
1.063 5.104 1.125 5.01 QT
1.188 4.916 1.297 4.916 QT
3.594 4.916 3.969 3.447 QT
7.078 -9.084 L
7.125 -9.318 7.125 -9.412 QT
7.125 -9.662 6.844 -9.693 QT
6.391 -9.787 5.109 -9.787 QT
4.875 -9.787 4.875 -10.115 QT
4.891 -10.162 4.922 -10.31 QT
4.953 -10.459 5.023 -10.545 QT
5.094 -10.631 5.188 -10.631 QT
9.406 -10.631 L
9.688 -10.631 9.719 -10.365 QT
11.594 3.385 L
20.328 -10.365 L
20.5 -10.631 20.797 -10.631 QT
24.875 -10.631 L
25.109 -10.631 25.109 -10.318 QT
25.094 -10.256 25.055 -10.115 QT
25.016 -9.974 24.953 -9.881 QT
24.891 -9.787 24.797 -9.787 QT
23.328 -9.787 22.766 -9.631 QT
22.438 -9.521 22.297 -8.974 QT
19.016 4.197 L
18.969 4.432 18.969 4.541 QT
18.969 4.635 18.992 4.697 QT
19.016 4.76 19.07 4.776 QT
19.125 4.791 19.25 4.822 QT
19.703 4.916 20.984 4.916 QT
21.219 4.916 21.219 5.229 QT
21.125 5.572 21.078 5.666 QT
21.031 5.76 20.813 5.76 QT
14.547 5.76 L
14.313 5.76 14.313 5.447 QT
14.328 5.385 14.359 5.236 QT
14.391 5.088 14.453 5.002 QT
14.516 4.916 14.609 4.916 QT
16.078 4.916 16.656 4.744 QT
16.969 4.651 17.109 4.104 QT
20.563 -9.787 L
10.875 5.494 L
10.734 5.76 10.391 5.76 QT
10.094 5.76 10.063 5.494 QT
8.016 -9.599 L
4.719 3.557 L
4.703 3.619 4.688 3.705 QT
4.672 3.791 4.656 3.901 QT
4.656 4.526 5.203 4.721 QT
5.75 4.916 6.531 4.916 QT
6.781 4.916 6.781 5.229 QT
6.688 5.541 6.641 5.651 QT
6.594 5.76 6.359 5.76 QT
1.219 5.76 L
cp}def
f-76095220
f
GR
GS
[0.75019 0 0 0.7507 569.28806 201.76348] CT
N
/f357850939{34.379 2.572 M
34.176 2.572 34.043 2.416 QT
33.91 2.26 33.91 2.088 QT
33.91 1.885 34.043 1.744 QT
34.176 1.604 34.379 1.604 QT
49.441 1.604 L
49.613 1.604 49.746 1.744 QT
49.879 1.885 49.879 2.088 QT
49.879 2.26 49.746 2.416 QT
49.613 2.572 49.441 2.572 QT
34.379 2.572 L
cp
34.379 -2.099 M
34.176 -2.099 34.043 -2.24 QT
33.91 -2.381 33.91 -2.568 QT
33.91 -2.756 34.043 -2.904 QT
34.176 -3.053 34.379 -3.053 QT
49.441 -3.053 L
49.613 -3.053 49.746 -2.904 QT
49.879 -2.756 49.879 -2.568 QT
49.879 -2.381 49.746 -2.24 QT
49.613 -2.099 49.441 -2.099 QT
34.379 -2.099 L
cp}def
f357850939
f
GR
GS
[0.75019 0 0 0.7507 569.28806 201.76348] CT
N
/f612518834{60.181 3.901 M
60.743 4.729 61.697 5.127 QT
62.65 5.526 63.743 5.526 QT
65.134 5.526 65.72 4.338 QT
66.306 3.151 66.306 1.635 QT
66.306 0.947 66.181 0.268 QT
66.056 -0.412 65.767 -0.998 QT
65.478 -1.584 64.962 -1.935 QT
64.447 -2.287 63.712 -2.287 QT
62.118 -2.287 L
61.915 -2.287 61.915 -2.506 QT
61.915 -2.709 L
61.915 -2.896 62.118 -2.896 QT
63.447 -3.006 L
64.29 -3.006 64.845 -3.639 QT
65.4 -4.271 65.658 -5.178 QT
65.915 -6.084 65.915 -6.912 QT
65.915 -8.053 65.376 -8.795 QT
64.837 -9.537 63.743 -9.537 QT
62.822 -9.537 61.993 -9.193 QT
61.165 -8.849 60.665 -8.146 QT
60.712 -8.146 60.751 -8.154 QT
60.79 -8.162 60.837 -8.162 QT
61.368 -8.162 61.736 -7.787 QT
62.103 -7.412 62.103 -6.881 QT
62.103 -6.365 61.736 -5.99 QT
61.368 -5.615 60.837 -5.615 QT
60.306 -5.615 59.931 -5.99 QT
59.556 -6.365 59.556 -6.881 QT
59.556 -7.912 60.173 -8.678 QT
60.79 -9.443 61.775 -9.834 QT
62.759 -10.224 63.743 -10.224 QT
64.462 -10.224 65.275 -10.006 QT
66.087 -9.787 66.743 -9.389 QT
67.4 -8.99 67.814 -8.357 QT
68.228 -7.724 68.228 -6.912 QT
68.228 -5.896 67.775 -5.045 QT
67.322 -4.193 66.54 -3.568 QT
65.759 -2.943 64.822 -2.646 QT
65.853 -2.443 66.79 -1.857 QT
67.728 -1.271 68.298 -0.357 QT
68.868 0.557 68.868 1.604 QT
68.868 2.932 68.142 4.002 QT
67.415 5.072 66.236 5.682 QT
65.056 6.291 63.743 6.291 QT
62.618 6.291 61.486 5.861 QT
60.353 5.432 59.634 4.572 QT
58.915 3.713 58.915 2.526 QT
58.915 1.932 59.314 1.533 QT
59.712 1.135 60.306 1.135 QT
60.697 1.135 61.017 1.315 QT
61.337 1.494 61.517 1.822 QT
61.697 2.151 61.697 2.526 QT
61.697 3.104 61.29 3.502 QT
60.884 3.901 60.306 3.901 QT
60.181 3.901 L
cp}def
f612518834
f
GR
GS
[0.75019 0 0 0.7507 0 -0.0831] CT
0 0 1 RC
1 LJ
1.733 LW
N
715.988 268.878 M
755.866 268.878 L
S
GR
GS
[0.75019 0 0 0.7507 569.28806 223.84482] CT
N
f-76095220
f
GR
GS
[0.75019 0 0 0.7507 569.28806 223.84482] CT
N
f357850939
f
GR
GS
[0.75019 0 0 0.7507 569.28806 223.84482] CT
N
/f1425294429{58.572 1.791 M
58.572 0.947 L
65.993 -10.115 L
66.072 -10.224 66.228 -10.224 QT
66.587 -10.224 L
66.853 -10.224 66.853 -9.959 QT
66.853 0.947 L
69.212 0.947 L
69.212 1.791 L
66.853 1.791 L
66.853 4.151 L
66.853 4.651 67.556 4.783 QT
68.259 4.916 69.181 4.916 QT
69.181 5.76 L
62.572 5.76 L
62.572 4.916 L
63.509 4.916 64.212 4.783 QT
64.915 4.651 64.915 4.151 QT
64.915 1.791 L
58.572 1.791 L
cp
59.368 0.947 M
65.056 0.947 L
65.056 -7.537 L
59.368 0.947 L
cp}def
f1425294429
f
GR
GS
[0.75019 0 0 0.7507 0 -0.0831] CT
0 1 0 RC
1 LJ
1.733 LW
N
715.988 298.293 M
755.866 298.293 L
S
GR
GS
[0.75019 0 0 0.7507 569.28806 245.92613] CT
N
/f-1730979769{0.734 5.76 M
0.734 4.916 L
3.219 4.916 3.219 4.151 QT
3.219 -9.037 L
3.219 -9.787 0.734 -9.787 QT
0.734 -10.631 L
8.516 -10.631 L
8.516 -9.787 L
5.453 -9.787 5.453 -9.037 QT
5.453 4.151 L
5.453 4.666 5.742 4.791 QT
6.031 4.916 6.672 4.916 QT
8.516 4.916 L
10.313 4.916 11.289 4.26 QT
12.266 3.604 12.664 2.471 QT
13.063 1.338 13.281 -0.537 QT
13.969 -0.537 L
13.297 5.76 L
0.734 5.76 L
cp}def
f-1730979769
f
GR
GS
[0.75019 0 0 0.7507 569.28806 245.92613] CT
N
/f-807136281{15.734 5.76 M
15.734 4.916 L
16.563 4.916 17.086 4.783 QT
17.609 4.651 17.609 4.151 QT
17.609 -2.396 L
17.609 -3.318 17.258 -3.529 QT
16.906 -3.74 15.844 -3.74 QT
15.844 -4.584 L
19.297 -4.849 L
19.297 4.151 L
19.297 4.651 19.758 4.783 QT
20.219 4.916 20.984 4.916 QT
20.984 5.76 L
15.734 5.76 L
cp
16.766 -8.974 M
16.766 -9.506 17.164 -9.904 QT
17.563 -10.303 18.078 -10.303 QT
18.406 -10.303 18.727 -10.123 QT
19.047 -9.943 19.219 -9.631 QT
19.391 -9.318 19.391 -8.974 QT
19.391 -8.459 18.992 -8.06 QT
18.594 -7.662 18.078 -7.662 QT
17.563 -7.662 17.164 -8.06 QT
16.766 -8.459 16.766 -8.974 QT
cp}def
f-807136281
f
GR
GS
[0.75019 0 0 0.7507 569.28806 245.92613] CT
N
/f-839777971{22.385 5.76 M
22.385 4.916 L
23.198 4.916 23.729 4.783 QT
24.26 4.651 24.26 4.151 QT
24.26 -2.396 L
24.26 -3.037 24.065 -3.326 QT
23.87 -3.615 23.51 -3.678 QT
23.151 -3.74 22.385 -3.74 QT
22.385 -4.584 L
25.87 -4.849 L
25.87 -2.506 L
26.339 -3.537 27.284 -4.193 QT
28.229 -4.849 29.339 -4.849 QT
32.104 -4.849 32.589 -2.599 QT
33.073 -3.599 33.995 -4.224 QT
34.917 -4.849 36.026 -4.849 QT
37.12 -4.849 37.862 -4.498 QT
38.604 -4.146 38.979 -3.428 QT
39.354 -2.709 39.354 -1.615 QT
39.354 4.151 L
39.354 4.651 39.885 4.783 QT
40.417 4.916 41.229 4.916 QT
41.229 5.76 L
35.729 5.76 L
35.729 4.916 L
36.557 4.916 37.081 4.783 QT
37.604 4.651 37.604 4.151 QT
37.604 -1.537 L
37.604 -2.756 37.268 -3.49 QT
36.932 -4.224 35.87 -4.224 QT
34.495 -4.224 33.589 -3.115 QT
32.682 -2.006 32.682 -0.584 QT
32.682 4.151 L
32.682 4.651 33.214 4.783 QT
33.745 4.916 34.557 4.916 QT
34.557 5.76 L
29.057 5.76 L
29.057 4.916 L
29.885 4.916 30.409 4.783 QT
30.932 4.651 30.932 4.151 QT
30.932 -1.537 L
30.932 -2.709 30.596 -3.467 QT
30.26 -4.224 29.198 -4.224 QT
27.807 -4.224 26.909 -3.115 QT
26.01 -2.006 26.01 -0.584 QT
26.01 4.151 L
26.01 4.651 26.542 4.783 QT
27.073 4.916 27.885 4.916 QT
27.885 5.76 L
22.385 5.76 L
cp}def
f-839777971
f
GR
GS
[0.75019 0 0 0.7507 569.28806 245.92613] CT
N
/f1805372658{42.401 5.76 M
42.401 4.916 L
43.229 4.916 43.753 4.783 QT
44.276 4.651 44.276 4.151 QT
44.276 -2.396 L
44.276 -3.318 43.925 -3.529 QT
43.573 -3.74 42.511 -3.74 QT
42.511 -4.584 L
45.964 -4.849 L
45.964 4.151 L
45.964 4.651 46.425 4.783 QT
46.886 4.916 47.651 4.916 QT
47.651 5.76 L
42.401 5.76 L
cp
43.432 -8.974 M
43.432 -9.506 43.831 -9.904 QT
44.229 -10.303 44.745 -10.303 QT
45.073 -10.303 45.393 -10.123 QT
45.714 -9.943 45.886 -9.631 QT
46.057 -9.318 46.057 -8.974 QT
46.057 -8.459 45.659 -8.06 QT
45.261 -7.662 44.745 -7.662 QT
44.229 -7.662 43.831 -8.06 QT
43.432 -8.459 43.432 -8.974 QT
cp}def
f1805372658
f
GR
GS
[0.75019 0 0 0.7507 569.28806 245.92613] CT
N
/f-469778390{50.787 2.869 M
50.787 -3.74 L
48.787 -3.74 L
48.787 -4.365 L
50.365 -4.365 51.099 -5.834 QT
51.833 -7.303 51.833 -9.006 QT
52.537 -9.006 L
52.537 -4.584 L
55.912 -4.584 L
55.912 -3.74 L
52.537 -3.74 L
52.537 2.822 L
52.537 3.822 52.865 4.572 QT
53.193 5.322 54.068 5.322 QT
54.88 5.322 55.248 4.533 QT
55.615 3.744 55.615 2.822 QT
55.615 1.416 L
56.302 1.416 L
56.302 2.869 L
56.302 3.619 56.029 4.354 QT
55.755 5.088 55.216 5.557 QT
54.677 6.026 53.896 6.026 QT
52.458 6.026 51.623 5.166 QT
50.787 4.307 50.787 2.869 QT
cp}def
f-469778390
f
GR
GS
[0.75019 0 0 0.7507 569.28806 245.92613] CT
N
/f-1356087863{66.886 5.76 M
66.651 5.76 66.651 5.447 QT
66.667 5.385 66.698 5.244 QT
66.729 5.104 66.792 5.01 QT
66.854 4.916 66.964 4.916 QT
69.261 4.916 69.636 3.447 QT
72.745 -9.084 L
72.792 -9.318 72.792 -9.412 QT
72.792 -9.662 72.511 -9.693 QT
72.057 -9.787 70.776 -9.787 QT
70.542 -9.787 70.542 -10.115 QT
70.557 -10.162 70.589 -10.31 QT
70.62 -10.459 70.69 -10.545 QT
70.761 -10.631 70.854 -10.631 QT
75.073 -10.631 L
75.354 -10.631 75.386 -10.365 QT
77.261 3.385 L
85.995 -10.365 L
86.167 -10.631 86.464 -10.631 QT
90.542 -10.631 L
90.776 -10.631 90.776 -10.318 QT
90.761 -10.256 90.722 -10.115 QT
90.682 -9.974 90.62 -9.881 QT
90.557 -9.787 90.464 -9.787 QT
88.995 -9.787 88.432 -9.631 QT
88.104 -9.521 87.964 -8.974 QT
84.682 4.197 L
84.636 4.432 84.636 4.541 QT
84.636 4.635 84.659 4.697 QT
84.682 4.76 84.737 4.776 QT
84.792 4.791 84.917 4.822 QT
85.37 4.916 86.651 4.916 QT
86.886 4.916 86.886 5.229 QT
86.792 5.572 86.745 5.666 QT
86.698 5.76 86.479 5.76 QT
80.214 5.76 L
79.979 5.76 79.979 5.447 QT
79.995 5.385 80.026 5.236 QT
80.057 5.088 80.12 5.002 QT
80.182 4.916 80.276 4.916 QT
81.745 4.916 82.323 4.744 QT
82.636 4.651 82.776 4.104 QT
86.229 -9.787 L
76.542 5.494 L
76.401 5.76 76.057 5.76 QT
75.761 5.76 75.729 5.494 QT
73.682 -9.599 L
70.386 3.557 L
70.37 3.619 70.354 3.705 QT
70.339 3.791 70.323 3.901 QT
70.323 4.526 70.87 4.721 QT
71.417 4.916 72.198 4.916 QT
72.448 4.916 72.448 5.229 QT
72.354 5.541 72.307 5.651 QT
72.261 5.76 72.026 5.76 QT
66.886 5.76 L
cp}def
f-1356087863
f
GR
GS
[0.75019 0 0 0.7507 569.28806 245.92613] CT
N
/f-839484811{100.046 2.572 M
99.843 2.572 99.71 2.416 QT
99.577 2.26 99.577 2.088 QT
99.577 1.885 99.71 1.744 QT
99.843 1.604 100.046 1.604 QT
115.108 1.604 L
115.28 1.604 115.413 1.744 QT
115.546 1.885 115.546 2.088 QT
115.546 2.26 115.413 2.416 QT
115.28 2.572 115.108 2.572 QT
100.046 2.572 L
cp
100.046 -2.099 M
99.843 -2.099 99.71 -2.24 QT
99.577 -2.381 99.577 -2.568 QT
99.577 -2.756 99.71 -2.904 QT
99.843 -3.053 100.046 -3.053 QT
115.108 -3.053 L
115.28 -3.053 115.413 -2.904 QT
115.546 -2.756 115.546 -2.568 QT
115.546 -2.381 115.413 -2.24 QT
115.28 -2.099 115.108 -2.099 QT
100.046 -2.099 L
cp}def
f-839484811
f
GR
GS
[0.75019 0 0 0.7507 569.28806 245.92613] CT
N
/f-256680445{124.77 5.76 M
124.77 5.119 L
124.77 5.057 124.817 4.979 QT
128.535 0.854 L
129.379 -0.053 129.91 -0.678 QT
130.442 -1.303 130.957 -2.107 QT
131.473 -2.912 131.77 -3.748 QT
132.067 -4.584 132.067 -5.521 QT
132.067 -6.506 131.699 -7.404 QT
131.332 -8.303 130.613 -8.842 QT
129.895 -9.381 128.879 -9.381 QT
127.832 -9.381 127.004 -8.756 QT
126.176 -8.131 125.832 -7.131 QT
125.926 -7.162 126.082 -7.162 QT
126.629 -7.162 127.012 -6.795 QT
127.395 -6.428 127.395 -5.849 QT
127.395 -5.303 127.012 -4.92 QT
126.629 -4.537 126.082 -4.537 QT
125.52 -4.537 125.145 -4.935 QT
124.77 -5.334 124.77 -5.849 QT
124.77 -6.756 125.106 -7.545 QT
125.442 -8.334 126.082 -8.951 QT
126.723 -9.568 127.527 -9.896 QT
128.332 -10.224 129.223 -10.224 QT
130.598 -10.224 131.785 -9.646 QT
132.973 -9.068 133.66 -8.006 QT
134.348 -6.943 134.348 -5.521 QT
134.348 -4.49 133.895 -3.553 QT
133.442 -2.615 132.723 -1.842 QT
132.004 -1.068 130.895 -0.099 QT
129.785 0.869 129.426 1.197 QT
126.707 3.807 L
129.02 3.807 L
130.723 3.807 131.863 3.783 QT
133.004 3.76 133.067 3.697 QT
133.348 3.385 133.645 1.479 QT
134.348 1.479 L
133.676 5.76 L
124.77 5.76 L
cp}def
f-256680445
f
GR
GS
[0.75019 0 0 0.7507 0 -0.0831] CT
1 0 0 RC
[8 3 2 3] 0 setdash
2 LJ
1.733 LW
N
715.988 327.707 M
755.866 327.707 L
S
GR
GS
[0.75019 0 0 0.7507 569.28806 268.00747] CT
N
f-1730979769
f
GR
GS
[0.75019 0 0 0.7507 569.28806 268.00747] CT
N
f-807136281
f
GR
GS
[0.75019 0 0 0.7507 569.28806 268.00747] CT
N
f-839777971
f
GR
GS
[0.75019 0 0 0.7507 569.28806 268.00747] CT
N
f1805372658
f
GR
GS
[0.75019 0 0 0.7507 569.28806 268.00747] CT
N
f-469778390
f
GR
GS
[0.75019 0 0 0.7507 569.28806 268.00747] CT
N
f-1356087863
f
GR
GS
[0.75019 0 0 0.7507 569.28806 268.00747] CT
N
f-839484811
f
GR
GS
[0.75019 0 0 0.7507 569.28806 268.00747] CT
N
/f-1463797146{125.848 3.901 M
126.41 4.729 127.363 5.127 QT
128.317 5.526 129.41 5.526 QT
130.801 5.526 131.387 4.338 QT
131.973 3.151 131.973 1.635 QT
131.973 0.947 131.848 0.268 QT
131.723 -0.412 131.434 -0.998 QT
131.145 -1.584 130.629 -1.935 QT
130.113 -2.287 129.379 -2.287 QT
127.785 -2.287 L
127.582 -2.287 127.582 -2.506 QT
127.582 -2.709 L
127.582 -2.896 127.785 -2.896 QT
129.113 -3.006 L
129.957 -3.006 130.512 -3.639 QT
131.067 -4.271 131.324 -5.178 QT
131.582 -6.084 131.582 -6.912 QT
131.582 -8.053 131.043 -8.795 QT
130.504 -9.537 129.41 -9.537 QT
128.488 -9.537 127.66 -9.193 QT
126.832 -8.849 126.332 -8.146 QT
126.379 -8.146 126.418 -8.154 QT
126.457 -8.162 126.504 -8.162 QT
127.035 -8.162 127.402 -7.787 QT
127.77 -7.412 127.77 -6.881 QT
127.77 -6.365 127.402 -5.99 QT
127.035 -5.615 126.504 -5.615 QT
125.973 -5.615 125.598 -5.99 QT
125.223 -6.365 125.223 -6.881 QT
125.223 -7.912 125.84 -8.678 QT
126.457 -9.443 127.442 -9.834 QT
128.426 -10.224 129.41 -10.224 QT
130.129 -10.224 130.942 -10.006 QT
131.754 -9.787 132.41 -9.389 QT
133.067 -8.99 133.481 -8.357 QT
133.895 -7.724 133.895 -6.912 QT
133.895 -5.896 133.442 -5.045 QT
132.988 -4.193 132.207 -3.568 QT
131.426 -2.943 130.488 -2.646 QT
131.52 -2.443 132.457 -1.857 QT
133.395 -1.271 133.965 -0.357 QT
134.535 0.557 134.535 1.604 QT
134.535 2.932 133.809 4.002 QT
133.082 5.072 131.902 5.682 QT
130.723 6.291 129.41 6.291 QT
128.285 6.291 127.152 5.861 QT
126.02 5.432 125.301 4.572 QT
124.582 3.713 124.582 2.526 QT
124.582 1.932 124.981 1.533 QT
125.379 1.135 125.973 1.135 QT
126.363 1.135 126.684 1.315 QT
127.004 1.494 127.184 1.822 QT
127.363 2.151 127.363 2.526 QT
127.363 3.104 126.957 3.502 QT
126.551 3.901 125.973 3.901 QT
125.848 3.901 L
cp}def
f-1463797146
f
GR
GS
[0.75019 0 0 0.7507 0 -0.0831] CT
0 0 1 RC
[8 3 2 3] 0 setdash
2 LJ
1.733 LW
N
715.988 357.122 M
755.866 357.122 L
S
GR
GS
[0.75019 0 0 0.7507 569.28806 290.08881] CT
N
f-1730979769
f
GR
GS
[0.75019 0 0 0.7507 569.28806 290.08881] CT
N
f-807136281
f
GR
GS
[0.75019 0 0 0.7507 569.28806 290.08881] CT
N
f-839777971
f
GR
GS
[0.75019 0 0 0.7507 569.28806 290.08881] CT
N
f1805372658
f
GR
GS
[0.75019 0 0 0.7507 569.28806 290.08881] CT
N
f-469778390
f
GR
GS
[0.75019 0 0 0.7507 569.28806 290.08881] CT
N
f-1356087863
f
GR
GS
[0.75019 0 0 0.7507 569.28806 290.08881] CT
N
f-839484811
f
GR
GS
[0.75019 0 0 0.7507 569.28806 290.08881] CT
N
/f-1864200828{124.238 1.791 M
124.238 0.947 L
131.66 -10.115 L
131.738 -10.224 131.895 -10.224 QT
132.254 -10.224 L
132.52 -10.224 132.52 -9.959 QT
132.52 0.947 L
134.879 0.947 L
134.879 1.791 L
132.52 1.791 L
132.52 4.151 L
132.52 4.651 133.223 4.783 QT
133.926 4.916 134.848 4.916 QT
134.848 5.76 L
128.238 5.76 L
128.238 4.916 L
129.176 4.916 129.879 4.783 QT
130.582 4.651 130.582 4.151 QT
130.582 1.791 L
124.238 1.791 L
cp
125.035 0.947 M
130.723 0.947 L
130.723 -7.537 L
125.035 0.947 L
cp}def
f-1864200828
f
GR
GS
[0.75019 0 0 0.7507 0 -0.0831] CT
0 1 0 RC
[8 3 2 3] 0 setdash
2 LJ
1.733 LW
N
715.988 386.536 M
755.866 386.536 L
S
GR
GS
[0.75019 0 0 0.7507 0 -0.0831] CT
0.149 GC
10.0 ML
1.333 LW
N
712 403 M
712 223 L
898 223 L
898 403 L
cp
S
GR
%%Trailer
%%Pages: 1
%%EOF
