%!PS-Adobe-3.0 EPSF-3.0
%%Creator: (MATLAB, The Mathworks, Inc. Version 9.6.0.1072779 \(R2019a\). Operating System: Windows 8.1)
%%Title: ./plot_time_diver.eps
%%CreationDate: 2019-04-19T11:50:19
%%Pages: (atend)
%%BoundingBox:    41     6   691   338
%%LanguageLevel: 3
%%EndComments
%%BeginProlog
%%BeginResource: procset (Apache XML Graphics Std ProcSet) 1.2 0
%%Version: 1.2 0
%%Copyright: (Copyright 2001-2003,2010 The Apache Software Foundation. License terms: http://www.apache.org/licenses/LICENSE-2.0)
/bd{bind def}bind def
/ld{load def}bd
/GR/grestore ld
/GS/gsave ld
/RM/rmoveto ld
/C/curveto ld
/t/show ld
/L/lineto ld
/ML/setmiterlimit ld
/CT/concat ld
/f/fill ld
/N/newpath ld
/S/stroke ld
/CC/setcmykcolor ld
/A/ashow ld
/cp/closepath ld
/RC/setrgbcolor ld
/LJ/setlinejoin ld
/GC/setgray ld
/LW/setlinewidth ld
/M/moveto ld
/re {4 2 roll M
1 index 0 rlineto
0 exch rlineto
neg 0 rlineto
cp } bd
/_ctm matrix def
/_tm matrix def
/BT { _ctm currentmatrix pop matrix _tm copy pop 0 0 moveto } bd
/ET { _ctm setmatrix } bd
/iTm { _ctm setmatrix _tm concat } bd
/Tm { _tm astore pop iTm 0 0 moveto } bd
/ux 0.0 def
/uy 0.0 def
/F {
  /Tp exch def
  /Tf exch def
  Tf findfont Tp scalefont setfont
  /cf Tf def  /cs Tp def
} bd
/ULS {currentpoint /uy exch def /ux exch def} bd
/ULE {
  /Tcx currentpoint pop def
  gsave
  newpath
  cf findfont cs scalefont dup
  /FontMatrix get 0 get /Ts exch def /FontInfo get dup
  /UnderlinePosition get Ts mul /To exch def
  /UnderlineThickness get Ts mul /Tt exch def
  ux uy To add moveto  Tcx uy To add lineto
  Tt setlinewidth stroke
  grestore
} bd
/OLE {
  /Tcx currentpoint pop def
  gsave
  newpath
  cf findfont cs scalefont dup
  /FontMatrix get 0 get /Ts exch def /FontInfo get dup
  /UnderlinePosition get Ts mul /To exch def
  /UnderlineThickness get Ts mul /Tt exch def
  ux uy To add cs add moveto Tcx uy To add cs add lineto
  Tt setlinewidth stroke
  grestore
} bd
/SOE {
  /Tcx currentpoint pop def
  gsave
  newpath
  cf findfont cs scalefont dup
  /FontMatrix get 0 get /Ts exch def /FontInfo get dup
  /UnderlinePosition get Ts mul /To exch def
  /UnderlineThickness get Ts mul /Tt exch def
  ux uy To add cs 10 mul 26 idiv add moveto Tcx uy To add cs 10 mul 26 idiv add lineto
  Tt setlinewidth stroke
  grestore
} bd
/QT {
/Y22 exch store
/X22 exch store
/Y21 exch store
/X21 exch store
currentpoint
/Y21 load 2 mul add 3 div exch
/X21 load 2 mul add 3 div exch
/X21 load 2 mul /X22 load add 3 div
/Y21 load 2 mul /Y22 load add 3 div
/X22 load /Y22 load curveto
} bd
/SSPD {
dup length /d exch dict def
{
/v exch def
/k exch def
currentpagedevice k known {
/cpdv currentpagedevice k get def
v cpdv ne {
/upd false def
/nullv v type /nulltype eq def
/nullcpdv cpdv type /nulltype eq def
nullv nullcpdv or
{
/upd true def
} {
/sametype v type cpdv type eq def
sametype {
v type /arraytype eq {
/vlen v length def
/cpdvlen cpdv length def
vlen cpdvlen eq {
0 1 vlen 1 sub {
/i exch def
/obj v i get def
/cpdobj cpdv i get def
obj cpdobj ne {
/upd true def
exit
} if
} for
} {
/upd true def
} ifelse
} {
v type /dicttype eq {
v {
/dv exch def
/dk exch def
/cpddv cpdv dk get def
dv cpddv ne {
/upd true def
exit
} if
} forall
} {
/upd true def
} ifelse
} ifelse
} if
} ifelse
upd true eq {
d k v put
} if
} if
} if
} forall
d length 0 gt {
d setpagedevice
} if
} bd
/RE { % /NewFontName [NewEncodingArray] /FontName RE -
  findfont dup length dict begin
  {
    1 index /FID ne
    {def} {pop pop} ifelse
  } forall
  /Encoding exch def
  /FontName 1 index def
  currentdict definefont pop
  end
} bind def
%%EndResource
%%BeginResource: procset (Apache XML Graphics EPS ProcSet) 1.0 0
%%Version: 1.0 0
%%Copyright: (Copyright 2002-2003 The Apache Software Foundation. License terms: http://www.apache.org/licenses/LICENSE-2.0)
/BeginEPSF { %def
/b4_Inc_state save def         % Save state for cleanup
/dict_count countdictstack def % Count objects on dict stack
/op_count count 1 sub def      % Count objects on operand stack
userdict begin                 % Push userdict on dict stack
/showpage { } def              % Redefine showpage, { } = null proc
0 setgray 0 setlinecap         % Prepare graphics state
1 setlinewidth 0 setlinejoin
10 setmiterlimit [ ] 0 setdash newpath
/languagelevel where           % If level not equal to 1 then
{pop languagelevel             % set strokeadjust and
1 ne                           % overprint to their defaults.
{false setstrokeadjust false setoverprint
} if
} if
} bd
/EndEPSF { %def
count op_count sub {pop} repeat            % Clean up stacks
countdictstack dict_count sub {end} repeat
b4_Inc_state restore
} bd
%%EndResource
%FOPBeginFontDict
%%IncludeResource: font Courier-Oblique
%%IncludeResource: font Courier-BoldOblique
%%IncludeResource: font Courier-Bold
%%IncludeResource: font ZapfDingbats
%%IncludeResource: font Symbol
%%IncludeResource: font Helvetica
%%IncludeResource: font Helvetica-Oblique
%%IncludeResource: font Helvetica-Bold
%%IncludeResource: font Helvetica-BoldOblique
%%IncludeResource: font Times-Roman
%%IncludeResource: font Times-Italic
%%IncludeResource: font Times-Bold
%%IncludeResource: font Times-BoldItalic
%%IncludeResource: font Courier
%FOPEndFontDict
%%BeginResource: encoding WinAnsiEncoding
/WinAnsiEncoding [
/.notdef /.notdef /.notdef /.notdef /.notdef
/.notdef /.notdef /.notdef /.notdef /.notdef
/.notdef /.notdef /.notdef /.notdef /.notdef
/.notdef /.notdef /.notdef /.notdef /.notdef
/.notdef /.notdef /.notdef /.notdef /.notdef
/.notdef /.notdef /.notdef /.notdef /.notdef
/.notdef /.notdef /space /exclam /quotedbl
/numbersign /dollar /percent /ampersand /quotesingle
/parenleft /parenright /asterisk /plus /comma
/hyphen /period /slash /zero /one
/two /three /four /five /six
/seven /eight /nine /colon /semicolon
/less /equal /greater /question /at
/A /B /C /D /E
/F /G /H /I /J
/K /L /M /N /O
/P /Q /R /S /T
/U /V /W /X /Y
/Z /bracketleft /backslash /bracketright /asciicircum
/underscore /quoteleft /a /b /c
/d /e /f /g /h
/i /j /k /l /m
/n /o /p /q /r
/s /t /u /v /w
/x /y /z /braceleft /bar
/braceright /asciitilde /bullet /Euro /bullet
/quotesinglbase /florin /quotedblbase /ellipsis /dagger
/daggerdbl /circumflex /perthousand /Scaron /guilsinglleft
/OE /bullet /Zcaron /bullet /bullet
/quoteleft /quoteright /quotedblleft /quotedblright /bullet
/endash /emdash /asciitilde /trademark /scaron
/guilsinglright /oe /bullet /zcaron /Ydieresis
/space /exclamdown /cent /sterling /currency
/yen /brokenbar /section /dieresis /copyright
/ordfeminine /guillemotleft /logicalnot /sfthyphen /registered
/macron /degree /plusminus /twosuperior /threesuperior
/acute /mu /paragraph /middot /cedilla
/onesuperior /ordmasculine /guillemotright /onequarter /onehalf
/threequarters /questiondown /Agrave /Aacute /Acircumflex
/Atilde /Adieresis /Aring /AE /Ccedilla
/Egrave /Eacute /Ecircumflex /Edieresis /Igrave
/Iacute /Icircumflex /Idieresis /Eth /Ntilde
/Ograve /Oacute /Ocircumflex /Otilde /Odieresis
/multiply /Oslash /Ugrave /Uacute /Ucircumflex
/Udieresis /Yacute /Thorn /germandbls /agrave
/aacute /acircumflex /atilde /adieresis /aring
/ae /ccedilla /egrave /eacute /ecircumflex
/edieresis /igrave /iacute /icircumflex /idieresis
/eth /ntilde /ograve /oacute /ocircumflex
/otilde /odieresis /divide /oslash /ugrave
/uacute /ucircumflex /udieresis /yacute /thorn
/ydieresis
] def
%%EndResource
%FOPBeginFontReencode
/Courier-Oblique findfont
dup length dict begin
  {1 index /FID ne {def} {pop pop} ifelse} forall
  /Encoding WinAnsiEncoding def
  currentdict
end
/Courier-Oblique exch definefont pop
/Courier-BoldOblique findfont
dup length dict begin
  {1 index /FID ne {def} {pop pop} ifelse} forall
  /Encoding WinAnsiEncoding def
  currentdict
end
/Courier-BoldOblique exch definefont pop
/Courier-Bold findfont
dup length dict begin
  {1 index /FID ne {def} {pop pop} ifelse} forall
  /Encoding WinAnsiEncoding def
  currentdict
end
/Courier-Bold exch definefont pop
/Helvetica findfont
dup length dict begin
  {1 index /FID ne {def} {pop pop} ifelse} forall
  /Encoding WinAnsiEncoding def
  currentdict
end
/Helvetica exch definefont pop
/Helvetica-Oblique findfont
dup length dict begin
  {1 index /FID ne {def} {pop pop} ifelse} forall
  /Encoding WinAnsiEncoding def
  currentdict
end
/Helvetica-Oblique exch definefont pop
/Helvetica-Bold findfont
dup length dict begin
  {1 index /FID ne {def} {pop pop} ifelse} forall
  /Encoding WinAnsiEncoding def
  currentdict
end
/Helvetica-Bold exch definefont pop
/Helvetica-BoldOblique findfont
dup length dict begin
  {1 index /FID ne {def} {pop pop} ifelse} forall
  /Encoding WinAnsiEncoding def
  currentdict
end
/Helvetica-BoldOblique exch definefont pop
/Times-Roman findfont
dup length dict begin
  {1 index /FID ne {def} {pop pop} ifelse} forall
  /Encoding WinAnsiEncoding def
  currentdict
end
/Times-Roman exch definefont pop
/Times-Italic findfont
dup length dict begin
  {1 index /FID ne {def} {pop pop} ifelse} forall
  /Encoding WinAnsiEncoding def
  currentdict
end
/Times-Italic exch definefont pop
/Times-Bold findfont
dup length dict begin
  {1 index /FID ne {def} {pop pop} ifelse} forall
  /Encoding WinAnsiEncoding def
  currentdict
end
/Times-Bold exch definefont pop
/Times-BoldItalic findfont
dup length dict begin
  {1 index /FID ne {def} {pop pop} ifelse} forall
  /Encoding WinAnsiEncoding def
  currentdict
end
/Times-BoldItalic exch definefont pop
/Courier findfont
dup length dict begin
  {1 index /FID ne {def} {pop pop} ifelse} forall
  /Encoding WinAnsiEncoding def
  currentdict
end
/Courier exch definefont pop
%FOPEndFontReencode
%%EndProlog
%%Page: 1 1
%%PageBoundingBox: 0 0 753 358
%%BeginPageSetup
[1 0 0 -1 0 358] CT
%%EndPageSetup
GS
[0.50013 0 0 0.50082 0 -0.0831] CT
N
0 0 M
1506 0 L
1506 715 L
0 715 L
0 0 L
cp
clip
1 GC
N
0 0 1506 715 re
f
GR
GS
[0.50013 0 0 0.50082 0 -0.0831] CT
1 GC
N
0 0 1506 715 re
f
GR
GS
[0.50013 0 0 0.50082 0 -0.0831] CT
1 GC
N
196 565 M
1363 565 L
1363 54 L
196 54 L
cp
f
GR
GS
[0.50013 0 0 0.50082 0 -0.0831] CT
0.873 GC
[4 4] 0 setdash
2 LJ
4 LW
N
196 565 M
196 54 L
S
GR
GS
[0.50013 0 0 0.50082 0 -0.0831] CT
0.873 GC
[4 4] 0 setdash
2 LJ
4 LW
N
390.5 565 M
390.5 54 L
S
GR
GS
[0.50013 0 0 0.50082 0 -0.0831] CT
0.873 GC
[4 4] 0 setdash
2 LJ
4 LW
N
585 565 M
585 54 L
S
GR
GS
[0.50013 0 0 0.50082 0 -0.0831] CT
0.873 GC
[4 4] 0 setdash
2 LJ
4 LW
N
779.5 565 M
779.5 54 L
S
GR
GS
[0.50013 0 0 0.50082 0 -0.0831] CT
0.873 GC
[4 4] 0 setdash
2 LJ
4 LW
N
974 565 M
974 54 L
S
GR
GS
[0.50013 0 0 0.50082 0 -0.0831] CT
0.873 GC
[4 4] 0 setdash
2 LJ
4 LW
N
1168.5 565 M
1168.5 54 L
S
GR
GS
[0.50013 0 0 0.50082 0 -0.0831] CT
0.873 GC
[4 4] 0 setdash
2 LJ
4 LW
N
1363 565 M
1363 54 L
S
GR
GS
[0.50013 0 0 0.50082 0 -0.0831] CT
0.873 GC
[4 4] 0 setdash
2 LJ
4 LW
N
1363 565 M
196 565 L
S
GR
GS
[0.50013 0 0 0.50082 0 -0.0831] CT
0.873 GC
[4 4] 0 setdash
2 LJ
4 LW
N
1363 437.25 M
196 437.25 L
S
GR
GS
[0.50013 0 0 0.50082 0 -0.0831] CT
0.873 GC
[4 4] 0 setdash
2 LJ
4 LW
N
1363 309.5 M
196 309.5 L
S
GR
GS
[0.50013 0 0 0.50082 0 -0.0831] CT
0.873 GC
[4 4] 0 setdash
2 LJ
4 LW
N
1363 181.75 M
196 181.75 L
S
GR
GS
[0.50013 0 0 0.50082 0 -0.0831] CT
0.873 GC
[4 4] 0 setdash
2 LJ
4 LW
N
1363 54 M
196 54 L
S
GR
GS
[0.50013 0 0 0.50082 0 -0.0831] CT
0.149 GC
2 setlinecap
1 LJ
4 LW
N
196 565 M
1363 565 L
S
GR
GS
[0.50013 0 0 0.50082 0 -0.0831] CT
0.149 GC
2 setlinecap
1 LJ
4 LW
N
196 54 M
1363 54 L
S
GR
GS
[0.50013 0 0 0.50082 0 -0.0831] CT
0.149 GC
2 setlinecap
1 LJ
4 LW
N
196 565 M
196 553.33 L
S
GR
GS
[0.50013 0 0 0.50082 0 -0.0831] CT
0.149 GC
2 setlinecap
1 LJ
4 LW
N
390.5 565 M
390.5 553.33 L
S
GR
GS
[0.50013 0 0 0.50082 0 -0.0831] CT
0.149 GC
2 setlinecap
1 LJ
4 LW
N
585 565 M
585 553.33 L
S
GR
GS
[0.50013 0 0 0.50082 0 -0.0831] CT
0.149 GC
2 setlinecap
1 LJ
4 LW
N
779.5 565 M
779.5 553.33 L
S
GR
GS
[0.50013 0 0 0.50082 0 -0.0831] CT
0.149 GC
2 setlinecap
1 LJ
4 LW
N
974 565 M
974 553.33 L
S
GR
GS
[0.50013 0 0 0.50082 0 -0.0831] CT
0.149 GC
2 setlinecap
1 LJ
4 LW
N
1168.5 565 M
1168.5 553.33 L
S
GR
GS
[0.50013 0 0 0.50082 0 -0.0831] CT
0.149 GC
2 setlinecap
1 LJ
4 LW
N
1363 565 M
1363 553.33 L
S
GR
GS
[0.50013 0 0 0.50082 0 -0.0831] CT
0.149 GC
2 setlinecap
1 LJ
4 LW
N
196 54 M
196 65.67 L
S
GR
GS
[0.50013 0 0 0.50082 0 -0.0831] CT
0.149 GC
2 setlinecap
1 LJ
4 LW
N
390.5 54 M
390.5 65.67 L
S
GR
GS
[0.50013 0 0 0.50082 0 -0.0831] CT
0.149 GC
2 setlinecap
1 LJ
4 LW
N
585 54 M
585 65.67 L
S
GR
GS
[0.50013 0 0 0.50082 0 -0.0831] CT
0.149 GC
2 setlinecap
1 LJ
4 LW
N
779.5 54 M
779.5 65.67 L
S
GR
GS
[0.50013 0 0 0.50082 0 -0.0831] CT
0.149 GC
2 setlinecap
1 LJ
4 LW
N
974 54 M
974 65.67 L
S
GR
GS
[0.50013 0 0 0.50082 0 -0.0831] CT
0.149 GC
2 setlinecap
1 LJ
4 LW
N
1168.5 54 M
1168.5 65.67 L
S
GR
GS
[0.50013 0 0 0.50082 0 -0.0831] CT
0.149 GC
2 setlinecap
1 LJ
4 LW
N
1363 54 M
1363 65.67 L
S
GR
GS
[0.35364 -0.35413 0.35364 0.35413 98.02499 287.68552] CT
0.149 GC
/Helvetica 28 F
GS
[1 0 0 1 0 0] CT
-47 29 moveto 
1 -1 scale
(221) t 
GR
GR
GS
[0.35364 -0.35413 0.35364 0.35413 195.29979 287.68552] CT
0.149 GC
/Helvetica 28 F
GS
[1 0 0 1 0 0] CT
-63 29 moveto 
1 -1 scale
(2221) t 
GR
GR
GS
[0.35364 -0.35413 0.35364 0.35413 292.57459 287.68552] CT
0.149 GC
/Helvetica 28 F
GS
[1 0 0 1 0 0] CT
-63 29 moveto 
1 -1 scale
(3311) t 
GR
GR
GS
[0.35364 -0.35413 0.35364 0.35413 389.84939 287.68552] CT
0.149 GC
/Helvetica 28 F
GS
[1 0 0 1 0 0] CT
-63 29 moveto 
1 -1 scale
(3321) t 
GR
GR
GS
[0.35364 -0.35413 0.35364 0.35413 487.12419 287.68552] CT
0.149 GC
/Helvetica 28 F
GS
[1 0 0 1 0 0] CT
-63 29 moveto 
1 -1 scale
(3221) t 
GR
GR
GS
[0.35364 -0.35413 0.35364 0.35413 584.39898 287.68552] CT
0.149 GC
/Helvetica 28 F
GS
[1 0 0 1 0 0] CT
-78 29 moveto 
1 -1 scale
(44211) t 
GR
GR
GS
[0.35364 -0.35413 0.35364 0.35413 681.67378 287.68552] CT
0.149 GC
/Helvetica 28 F
GS
[1 0 0 1 0 0] CT
-94 29 moveto 
1 -1 scale
(422121) t 
GR
GR
GS
[0.50013 0 0 0.50082 389.84966 334.22318] CT
0.149 GC
N
-71.139 34.162 M
-71.139 24.834 L
-71.139 24.522 -70.795 24.522 QT
-70.295 24.522 L
-70.186 24.522 -70.084 24.615 QT
-69.983 24.709 -69.983 24.834 QT
-69.983 28.756 -67.553 30.912 QT
-65.123 33.069 -61.186 33.069 QT
-59.795 33.069 -58.623 32.272 QT
-57.452 31.475 -56.795 30.17 QT
-56.139 28.865 -56.139 27.49 QT
-56.139 26.272 -56.631 25.131 QT
-57.123 23.99 -58.037 23.147 QT
-58.952 22.303 -60.108 22.037 QT
-65.295 20.772 L
-67.873 20.084 -69.506 17.967 QT
-71.139 15.85 -71.139 13.209 QT
-71.139 11.131 -70.084 9.319 QT
-69.03 7.506 -67.241 6.451 QT
-65.452 5.397 -63.389 5.397 QT
-59.389 5.397 -57.014 8.115 QT
-55.373 5.506 L
-55.264 5.397 -55.108 5.397 QT
-54.827 5.397 L
-54.717 5.397 -54.608 5.483 QT
-54.498 5.569 -54.498 5.725 QT
-54.498 15.006 L
-54.498 15.35 -54.827 15.35 QT
-55.295 15.35 L
-55.67 15.35 -55.67 15.006 QT
-55.67 13.99 -56.014 12.78 QT
-56.358 11.569 -56.959 10.451 QT
-57.561 9.334 -58.264 8.631 QT
-60.202 6.678 -63.389 6.678 QT
-64.748 6.678 -65.905 7.373 QT
-67.061 8.069 -67.741 9.264 QT
-68.42 10.459 -68.42 11.756 QT
-68.42 13.475 -67.358 14.873 QT
-66.295 16.272 -64.577 16.725 QT
-59.389 17.99 L
-58.092 18.303 -56.952 19.115 QT
-55.811 19.928 -55.045 20.998 QT
-54.28 22.069 -53.85 23.389 QT
-53.42 24.709 -53.42 26.115 QT
-53.42 28.287 -54.42 30.209 QT
-55.42 32.131 -57.225 33.303 QT
-59.03 34.475 -61.186 34.475 QT
-62.514 34.475 -63.897 34.186 QT
-65.28 33.897 -66.452 33.287 QT
-67.623 32.678 -68.577 31.725 QT
-70.264 34.365 L
-70.373 34.475 -70.561 34.475 QT
-70.795 34.475 L
-71.139 34.475 -71.139 34.162 QT
cp
f
GR
GS
[0.50013 0 0 0.50082 389.84966 334.22318] CT
0.149 GC
N
-41.198 34.053 M
-43.62 34.053 -45.596 32.787 QT
-47.573 31.522 -48.706 29.428 QT
-49.839 27.334 -49.839 24.959 QT
-49.839 22.6 -48.714 20.436 QT
-47.589 18.272 -45.604 16.967 QT
-43.62 15.662 -41.198 15.662 QT
-38.854 15.662 -36.932 16.584 QT
-35.01 17.506 -35.01 19.6 QT
-35.01 20.381 -35.565 20.951 QT
-36.12 21.522 -36.932 21.522 QT
-37.729 21.522 -38.284 20.951 QT
-38.839 20.381 -38.839 19.6 QT
-38.839 18.897 -38.393 18.373 QT
-37.948 17.85 -37.276 17.725 QT
-38.667 16.834 -41.167 16.834 QT
-43.073 16.834 -44.245 18.108 QT
-45.417 19.381 -45.885 21.256 QT
-46.354 23.131 -46.354 24.959 QT
-46.354 26.897 -45.784 28.701 QT
-45.214 30.506 -43.932 31.694 QT
-42.651 32.881 -40.714 32.881 QT
-38.823 32.881 -37.495 31.717 QT
-36.167 30.553 -35.682 28.678 QT
-35.682 28.444 -35.37 28.444 QT
-34.87 28.444 L
-34.76 28.444 -34.659 28.553 QT
-34.557 28.662 -34.557 28.787 QT
-34.557 28.912 L
-35.167 31.272 -36.964 32.662 QT
-38.76 34.053 -41.198 34.053 QT
cp
f
GR
GS
[0.50013 0 0 0.50082 389.84966 334.22318] CT
0.149 GC
N
-23.42 34.053 M
-25.873 34.053 -27.912 32.772 QT
-29.951 31.49 -31.116 29.35 QT
-32.28 27.209 -32.28 24.834 QT
-32.28 22.49 -31.209 20.381 QT
-30.139 18.272 -28.241 16.967 QT
-26.342 15.662 -23.998 15.662 QT
-22.155 15.662 -20.795 16.28 QT
-19.436 16.897 -18.561 17.99 QT
-17.686 19.084 -17.233 20.569 QT
-16.78 22.053 -16.78 23.834 QT
-16.78 24.365 -17.201 24.365 QT
-28.78 24.365 L
-28.78 24.787 L
-28.78 28.115 -27.444 30.498 QT
-26.108 32.881 -23.076 32.881 QT
-21.842 32.881 -20.795 32.334 QT
-19.748 31.787 -18.983 30.811 QT
-18.217 29.834 -17.936 28.709 QT
-17.905 28.584 -17.795 28.475 QT
-17.686 28.365 -17.545 28.365 QT
-17.201 28.365 L
-16.78 28.365 -16.78 28.865 QT
-17.358 31.131 -19.233 32.592 QT
-21.108 34.053 -23.42 34.053 QT
cp
-28.733 23.365 M
-19.623 23.365 L
-19.623 21.865 -20.037 20.319 QT
-20.451 18.772 -21.428 17.748 QT
-22.405 16.725 -23.998 16.725 QT
-26.264 16.725 -27.498 18.842 QT
-28.733 20.959 -28.733 23.365 QT
cp
f
GR
GS
[0.50013 0 0 0.50082 389.84966 334.22318] CT
0.149 GC
N
-14.424 33.6 M
-14.424 32.194 L
-13.049 32.194 -12.174 31.975 QT
-11.299 31.756 -11.299 30.928 QT
-11.299 20.006 L
-11.299 18.928 -11.619 18.451 QT
-11.939 17.975 -12.541 17.865 QT
-13.142 17.756 -14.424 17.756 QT
-14.424 16.35 L
-8.611 15.928 L
-8.611 19.834 L
-7.814 18.115 -6.244 17.022 QT
-4.674 15.928 -2.814 15.928 QT
-0.049 15.928 1.35 17.256 QT
2.748 18.584 2.748 21.319 QT
2.748 30.928 L
2.748 31.756 3.631 31.975 QT
4.514 32.194 5.873 32.194 QT
5.873 33.6 L
-3.283 33.6 L
-3.283 32.194 L
-1.924 32.194 -1.041 31.975 QT
-0.158 31.756 -0.158 30.928 QT
-0.158 21.428 L
-0.158 19.475 -0.728 18.217 QT
-1.299 16.959 -3.049 16.959 QT
-5.377 16.959 -6.869 18.811 QT
-8.361 20.662 -8.361 23.037 QT
-8.361 30.928 L
-8.361 31.756 -7.486 31.975 QT
-6.611 32.194 -5.252 32.194 QT
-5.252 33.6 L
-14.424 33.6 L
cp
f
GR
GS
[0.50013 0 0 0.50082 389.84966 334.22318] CT
0.149 GC
N
8.22 29.678 M
8.22 27.287 10.095 25.795 QT
11.97 24.303 14.595 23.686 QT
17.22 23.069 19.58 23.069 QT
19.58 21.428 L
19.58 20.272 19.072 19.194 QT
18.564 18.115 17.611 17.42 QT
16.658 16.725 15.502 16.725 QT
12.845 16.725 11.455 17.912 QT
12.22 17.912 12.72 18.49 QT
13.22 19.069 13.22 19.834 QT
13.22 20.631 12.65 21.194 QT
12.08 21.756 11.299 21.756 QT
10.502 21.756 9.931 21.194 QT
9.361 20.631 9.361 19.834 QT
9.361 17.725 11.275 16.694 QT
13.189 15.662 15.502 15.662 QT
17.127 15.662 18.767 16.358 QT
20.408 17.053 21.447 18.342 QT
22.486 19.631 22.486 21.35 QT
22.486 30.35 L
22.486 31.131 22.822 31.787 QT
23.158 32.444 23.861 32.444 QT
24.517 32.444 24.845 31.78 QT
25.174 31.115 25.174 30.35 QT
25.174 27.803 L
26.345 27.803 L
26.345 30.35 L
26.345 31.256 25.877 32.069 QT
25.408 32.881 24.611 33.358 QT
23.814 33.834 22.908 33.834 QT
21.736 33.834 20.885 32.928 QT
20.033 32.022 19.939 30.772 QT
19.189 32.272 17.744 33.162 QT
16.299 34.053 14.658 34.053 QT
13.142 34.053 11.666 33.6 QT
10.189 33.147 9.205 32.178 QT
8.22 31.209 8.22 29.678 QT
cp
11.455 29.678 M
11.455 31.084 12.494 32.037 QT
13.533 32.99 14.939 32.99 QT
16.22 32.99 17.275 32.35 QT
18.33 31.709 18.955 30.592 QT
19.58 29.475 19.58 28.24 QT
19.58 24.084 L
17.767 24.084 15.861 24.678 QT
13.955 25.272 12.705 26.545 QT
11.455 27.819 11.455 29.678 QT
cp
f
GR
GS
[0.50013 0 0 0.50082 389.84966 334.22318] CT
0.149 GC
N
27.642 33.6 M
27.642 32.194 L
29.017 32.194 29.892 31.975 QT
30.767 31.756 30.767 30.928 QT
30.767 20.006 L
30.767 18.928 30.447 18.451 QT
30.127 17.975 29.525 17.865 QT
28.924 17.756 27.642 17.756 QT
27.642 16.35 L
33.377 15.928 L
33.377 19.834 L
34.017 18.084 35.205 17.006 QT
36.392 15.928 38.096 15.928 QT
39.283 15.928 40.221 16.631 QT
41.158 17.334 41.158 18.475 QT
41.158 19.209 40.642 19.74 QT
40.127 20.272 39.361 20.272 QT
38.627 20.272 38.096 19.748 QT
37.564 19.225 37.564 18.475 QT
37.564 17.412 38.33 16.959 QT
38.096 16.959 L
36.471 16.959 35.447 18.131 QT
34.424 19.303 33.994 21.037 QT
33.564 22.772 33.564 24.365 QT
33.564 30.928 L
33.564 32.194 37.455 32.194 QT
37.455 33.6 L
27.642 33.6 L
cp
f
GR
GS
[0.50013 0 0 0.50082 389.84966 334.22318] CT
0.149 GC
N
43.512 33.6 M
43.512 32.194 L
44.872 32.194 45.754 31.975 QT
46.637 31.756 46.637 30.928 QT
46.637 20.006 L
46.637 18.459 46.043 18.108 QT
45.45 17.756 43.684 17.756 QT
43.684 16.35 L
49.45 15.928 L
49.45 30.928 L
49.45 31.756 50.208 31.975 QT
50.965 32.194 52.247 32.194 QT
52.247 33.6 L
43.512 33.6 L
cp
45.215 9.053 M
45.215 8.162 45.879 7.498 QT
46.543 6.834 47.403 6.834 QT
47.965 6.834 48.489 7.131 QT
49.012 7.428 49.309 7.951 QT
49.606 8.475 49.606 9.053 QT
49.606 9.912 48.942 10.576 QT
48.278 11.24 47.403 11.24 QT
46.543 11.24 45.879 10.576 QT
45.215 9.912 45.215 9.053 QT
cp
f
GR
GS
[0.50013 0 0 0.50082 389.84966 334.22318] CT
0.149 GC
N
63.389 34.053 M
60.983 34.053 58.936 32.826 QT
56.889 31.6 55.694 29.553 QT
54.498 27.506 54.498 25.084 QT
54.498 23.24 55.155 21.545 QT
55.811 19.85 57.03 18.514 QT
58.248 17.178 59.873 16.42 QT
61.498 15.662 63.389 15.662 QT
65.858 15.662 67.873 16.967 QT
69.889 18.272 71.061 20.444 QT
72.233 22.615 72.233 25.084 QT
72.233 27.49 71.045 29.545 QT
69.858 31.6 67.819 32.826 QT
65.78 34.053 63.389 34.053 QT
cp
63.389 32.881 M
66.592 32.881 67.67 30.553 QT
68.748 28.225 68.748 24.631 QT
68.748 22.615 68.53 21.303 QT
68.311 19.99 67.592 18.912 QT
67.139 18.24 66.444 17.748 QT
65.748 17.256 64.983 16.99 QT
64.217 16.725 63.389 16.725 QT
62.139 16.725 61.014 17.287 QT
59.889 17.85 59.155 18.912 QT
58.405 20.037 58.201 21.397 QT
57.998 22.756 57.998 24.631 QT
57.998 26.881 58.389 28.67 QT
58.78 30.459 59.959 31.67 QT
61.139 32.881 63.389 32.881 QT
cp
f
GR
GS
[0.50013 0 0 0.50082 0 -0.0831] CT
0.149 GC
2 setlinecap
1 LJ
4 LW
N
196 565 M
196 54 L
S
GR
GS
[0.50013 0 0 0.50082 0 -0.0831] CT
0.149 GC
2 setlinecap
1 LJ
4 LW
N
1363 565 M
1363 54 L
S
GR
GS
[0.50013 0 0 0.50082 0 -0.0831] CT
0.149 GC
2 setlinecap
1 LJ
4 LW
N
196 565 M
207.67 565 L
S
GR
GS
[0.50013 0 0 0.50082 0 -0.0831] CT
0.149 GC
2 setlinecap
1 LJ
4 LW
N
196 437.25 M
207.67 437.25 L
S
GR
GS
[0.50013 0 0 0.50082 0 -0.0831] CT
0.149 GC
2 setlinecap
1 LJ
4 LW
N
196 309.5 M
207.67 309.5 L
S
GR
GS
[0.50013 0 0 0.50082 0 -0.0831] CT
0.149 GC
2 setlinecap
1 LJ
4 LW
N
196 181.75 M
207.67 181.75 L
S
GR
GS
[0.50013 0 0 0.50082 0 -0.0831] CT
0.149 GC
2 setlinecap
1 LJ
4 LW
N
196 54 M
207.67 54 L
S
GR
GS
[0.50013 0 0 0.50082 0 -0.0831] CT
0.149 GC
2 setlinecap
1 LJ
4 LW
N
1363 565 M
1351.33 565 L
S
GR
GS
[0.50013 0 0 0.50082 0 -0.0831] CT
0.149 GC
2 setlinecap
1 LJ
4 LW
N
1363 437.25 M
1351.33 437.25 L
S
GR
GS
[0.50013 0 0 0.50082 0 -0.0831] CT
0.149 GC
2 setlinecap
1 LJ
4 LW
N
1363 309.5 M
1351.33 309.5 L
S
GR
GS
[0.50013 0 0 0.50082 0 -0.0831] CT
0.149 GC
2 setlinecap
1 LJ
4 LW
N
1363 181.75 M
1351.33 181.75 L
S
GR
GS
[0.50013 0 0 0.50082 0 -0.0831] CT
0.149 GC
2 setlinecap
1 LJ
4 LW
N
1363 54 M
1351.33 54 L
S
GR
GS
[0.50013 0 0 0.50082 93.22376 282.87767] CT
0.149 GC
/Helvetica 28 F
GS
[1 0 0 1 0 0] CT
-39 11 moveto 
1 -1 scale
(0.8) t 
GR
GR
GS
[0.50013 0 0 0.50082 93.22376 218.89846] CT
0.149 GC
/Helvetica 28 F
GS
[1 0 0 1 0 0] CT
-55 11 moveto 
1 -1 scale
(0.85) t 
GR
GR
GS
[0.50013 0 0 0.50082 93.22376 154.91934] CT
0.149 GC
/Helvetica 28 F
GS
[1 0 0 1 0 0] CT
-39 11 moveto 
1 -1 scale
(0.9) t 
GR
GR
GS
[0.50013 0 0 0.50082 93.22376 90.94014] CT
0.149 GC
/Helvetica 28 F
GS
[1 0 0 1 0 0] CT
-55 11 moveto 
1 -1 scale
(0.95) t 
GR
GR
GS
[0.50013 0 0 0.50082 93.22376 26.96094] CT
0.149 GC
/Helvetica 28 F
GS
[1 0 0 1 0 0] CT
-16 11 moveto 
1 -1 scale
(1) t 
GR
GR
GS
[0 -0.50082 0.50013 0 62.71599 154.91918] CT
0.149 GC
N
-36.119 -14.4 M
-36.509 -14.4 -36.509 -14.931 QT
-36.494 -15.025 -36.431 -15.267 QT
-36.369 -15.51 -36.259 -15.658 QT
-36.15 -15.806 -35.994 -15.806 QT
-33.556 -15.806 -32.587 -16.088 QT
-32.072 -16.26 -31.837 -17.15 QT
-26.353 -39.135 L
-26.275 -39.525 -26.275 -39.681 QT
-26.275 -40.103 -26.744 -40.166 QT
-27.509 -40.322 -29.634 -40.322 QT
-30.025 -40.322 -30.025 -40.853 QT
-30.009 -40.947 -29.947 -41.189 QT
-29.884 -41.431 -29.775 -41.58 QT
-29.666 -41.728 -29.509 -41.728 QT
-15.712 -41.728 L
-13.806 -41.728 -12.033 -41.056 QT
-10.259 -40.385 -9.126 -38.994 QT
-7.994 -37.603 -7.994 -35.635 QT
-7.994 -33.088 -9.783 -31.095 QT
-11.572 -29.103 -14.236 -27.994 QT
-16.9 -26.885 -19.4 -26.885 QT
-25.9 -26.885 L
-28.337 -16.994 L
-28.416 -16.603 -28.416 -16.431 QT
-28.416 -16.275 -28.369 -16.166 QT
-28.322 -16.056 -28.236 -16.033 QT
-28.15 -16.01 -27.947 -15.963 QT
-27.197 -15.806 -25.056 -15.806 QT
-24.666 -15.806 -24.666 -15.275 QT
-24.806 -14.713 -24.884 -14.556 QT
-24.962 -14.4 -25.353 -14.4 QT
-36.119 -14.4 L
cp
-25.712 -28.072 M
-20.103 -28.072 L
-16.212 -28.072 -14.181 -30.166 QT
-13.15 -31.197 -12.494 -33.15 QT
-11.837 -35.103 -11.837 -36.681 QT
-11.837 -38.666 -13.345 -39.494 QT
-14.853 -40.322 -17.072 -40.322 QT
-20.9 -40.322 L
-21.994 -40.322 -22.345 -40.135 QT
-22.697 -39.947 -22.994 -38.947 QT
-25.712 -28.072 L
cp
f
GR
GS
[0 -0.50082 0.50013 0 62.71599 154.91918] CT
0.149 GC
N
-10.235 -8.885 M
-10.235 -9.041 -10.204 -9.119 QT
-8.11 -17.478 L
-7.907 -18.26 -7.907 -18.853 QT
-7.907 -20.056 -8.719 -20.056 QT
-9.594 -20.056 -10.024 -19.01 QT
-10.454 -17.963 -10.844 -16.353 QT
-10.844 -16.275 -10.93 -16.228 QT
-11.016 -16.181 -11.079 -16.181 QT
-11.407 -16.181 L
-11.501 -16.181 -11.571 -16.283 QT
-11.641 -16.385 -11.641 -16.463 QT
-11.344 -17.681 -11.063 -18.533 QT
-10.782 -19.385 -10.188 -20.08 QT
-9.594 -20.775 -8.704 -20.775 QT
-7.735 -20.775 -7.001 -20.213 QT
-6.266 -19.65 -6.094 -18.744 QT
-5.376 -19.666 -4.469 -20.221 QT
-3.563 -20.775 -2.485 -20.775 QT
-1.594 -20.775 -0.915 -20.252 QT
-0.235 -19.728 -0.235 -18.853 QT
-0.235 -18.135 -0.68 -17.611 QT
-1.126 -17.088 -1.86 -17.088 QT
-2.313 -17.088 -2.618 -17.369 QT
-2.922 -17.65 -2.922 -18.088 QT
-2.922 -18.713 -2.477 -19.197 QT
-2.032 -19.681 -1.438 -19.681 QT
-1.891 -20.056 -2.532 -20.056 QT
-3.735 -20.056 -4.626 -19.197 QT
-5.516 -18.338 -6.219 -17.025 QT
-8.219 -9.01 L
-8.313 -8.635 -8.649 -8.361 QT
-8.985 -8.088 -9.391 -8.088 QT
-9.735 -8.088 -9.985 -8.306 QT
-10.235 -8.525 -10.235 -8.885 QT
cp
f
GR
GS
[0 -0.50082 0.50013 0 62.71599 154.91918] CT
0.149 GC
N
6.66 -8.088 M
5.316 -8.088 4.308 -8.783 QT
3.3 -9.478 2.777 -10.666 QT
2.253 -11.853 2.253 -13.166 QT
2.253 -15.15 3.253 -16.908 QT
4.253 -18.666 5.98 -19.721 QT
7.706 -20.775 9.675 -20.775 QT
10.878 -20.775 11.777 -20.15 QT
12.675 -19.525 12.675 -18.369 QT
12.675 -16.76 11.386 -15.971 QT
10.097 -15.181 8.488 -14.994 QT
6.878 -14.806 4.91 -14.806 QT
4.831 -14.806 L
4.378 -13.15 4.378 -11.963 QT
4.378 -10.713 4.956 -9.767 QT
5.535 -8.822 6.706 -8.822 QT
8.378 -8.822 9.917 -9.588 QT
11.456 -10.353 12.425 -11.713 QT
12.503 -11.791 12.644 -11.791 QT
12.785 -11.791 12.925 -11.635 QT
13.066 -11.478 13.066 -11.338 QT
13.066 -11.228 13.003 -11.181 QT
11.988 -9.744 10.253 -8.916 QT
8.519 -8.088 6.66 -8.088 QT
cp
5.003 -15.541 M
6.628 -15.541 8.011 -15.689 QT
9.394 -15.838 10.511 -16.447 QT
11.628 -17.056 11.628 -18.338 QT
11.628 -18.853 11.339 -19.244 QT
11.05 -19.635 10.597 -19.846 QT
10.144 -20.056 9.644 -20.056 QT
8.456 -20.056 7.503 -19.408 QT
6.55 -18.76 5.941 -17.728 QT
5.331 -16.697 5.003 -15.541 QT
cp
f
GR
GS
[0 -0.50082 0.50013 0 62.71599 154.91918] CT
0.149 GC
N
16.494 -10.103 M
17.244 -8.822 19.51 -8.822 QT
20.494 -8.822 21.385 -9.158 QT
22.275 -9.494 22.853 -10.166 QT
23.432 -10.838 23.432 -11.791 QT
23.432 -12.51 22.916 -12.978 QT
22.4 -13.447 21.65 -13.603 QT
20.135 -13.916 L
19.088 -14.166 18.416 -14.877 QT
17.744 -15.588 17.744 -16.603 QT
17.744 -17.853 18.424 -18.806 QT
19.103 -19.76 20.213 -20.267 QT
21.322 -20.775 22.51 -20.775 QT
23.775 -20.775 24.783 -20.166 QT
25.791 -19.556 25.791 -18.369 QT
25.791 -17.728 25.424 -17.236 QT
25.057 -16.744 24.416 -16.744 QT
24.057 -16.744 23.791 -16.978 QT
23.525 -17.213 23.525 -17.588 QT
23.525 -17.916 23.705 -18.221 QT
23.885 -18.525 24.197 -18.713 QT
24.51 -18.9 24.838 -18.9 QT
24.588 -19.51 23.908 -19.783 QT
23.228 -20.056 22.447 -20.056 QT
21.744 -20.056 21.033 -19.767 QT
20.322 -19.478 19.892 -18.924 QT
19.463 -18.369 19.463 -17.619 QT
19.463 -17.103 19.814 -16.721 QT
20.166 -16.338 20.682 -16.181 QT
22.322 -15.853 L
23.088 -15.681 23.744 -15.267 QT
24.4 -14.853 24.775 -14.221 QT
25.15 -13.588 25.15 -12.76 QT
25.15 -11.728 24.564 -10.713 QT
23.978 -9.697 23.135 -9.103 QT
21.65 -8.088 19.478 -8.088 QT
17.994 -8.088 16.752 -8.767 QT
15.51 -9.447 15.51 -10.806 QT
15.51 -11.572 15.955 -12.142 QT
16.4 -12.713 17.166 -12.713 QT
17.619 -12.713 17.924 -12.439 QT
18.228 -12.166 18.228 -11.713 QT
18.228 -11.072 17.752 -10.588 QT
17.275 -10.103 16.635 -10.103 QT
16.494 -10.103 L
cp
f
GR
GS
[0 -0.50082 0.50013 0 62.71599 154.91918] CT
0.149 GC
N
28.744 -5.638 M
28.744 -6.013 28.9 -6.419 QT
30.525 -10.732 L
30.791 -11.45 30.791 -11.919 QT
30.791 -12.528 30.353 -12.528 QT
29.557 -12.528 29.041 -11.708 QT
28.525 -10.888 28.291 -9.888 QT
28.244 -9.763 28.119 -9.763 QT
27.885 -9.763 L
27.713 -9.763 27.713 -9.95 QT
27.713 -9.997 L
28.041 -11.2 28.705 -12.122 QT
29.369 -13.044 30.385 -13.044 QT
31.103 -13.044 31.596 -12.575 QT
32.088 -12.107 32.088 -11.372 QT
32.088 -11.013 31.916 -10.591 QT
30.291 -6.294 L
30.025 -5.638 30.025 -5.107 QT
30.025 -4.497 30.478 -4.497 QT
31.26 -4.497 31.783 -5.333 QT
32.307 -6.169 32.525 -7.138 QT
32.557 -7.263 32.682 -7.263 QT
32.932 -7.263 L
33.01 -7.263 33.057 -7.208 QT
33.103 -7.153 33.103 -7.075 QT
33.103 -7.06 33.088 -7.028 QT
32.807 -5.888 32.127 -4.935 QT
31.447 -3.982 30.447 -3.982 QT
29.744 -3.982 29.244 -4.466 QT
28.744 -4.95 28.744 -5.638 QT
cp
30.994 -16.325 M
30.994 -16.747 31.346 -17.083 QT
31.697 -17.419 32.119 -17.419 QT
32.463 -17.419 32.682 -17.208 QT
32.9 -16.997 32.9 -16.685 QT
32.9 -16.232 32.549 -15.896 QT
32.197 -15.56 31.76 -15.56 QT
31.447 -15.56 31.221 -15.778 QT
30.994 -15.997 30.994 -16.325 QT
cp
f
GR
GS
[0.50013 0 0 0.50082 98.02499 52.55259] CT
0 0 1 RC
10.0 ML
2.6 LW
N
12 0 M
12 -6.627 6.627 -12 0 -12 C
-6.627 -12 -12 -6.627 -12 0 C
-12 6.627 -6.627 12 0 12 C
6.627 12 12 6.627 12 0 C
cp
S
GR
GS
[0.50013 0 0 0.50082 195.29979 26.96094] CT
0 0 1 RC
10.0 ML
2.6 LW
N
12 0 M
12 -6.627 6.627 -12 0 -12 C
-6.627 -12 -12 -6.627 -12 0 C
-12 6.627 -6.627 12 0 12 C
6.627 12 12 6.627 12 0 C
cp
S
GR
GS
[0.50013 0 0 0.50082 292.57459 52.55259] CT
0 0 1 RC
10.0 ML
2.6 LW
N
12 0 M
12 -6.627 6.627 -12 0 -12 C
-6.627 -12 -12 -6.627 -12 0 C
-12 6.627 -6.627 12 0 12 C
6.627 12 12 6.627 12 0 C
cp
S
GR
GS
[0.50013 0 0 0.50082 389.84939 154.91934] CT
0 0 1 RC
10.0 ML
2.6 LW
N
12 0 M
12 -6.627 6.627 -12 0 -12 C
-6.627 -12 -12 -6.627 -12 0 C
-12 6.627 -6.627 12 0 12 C
6.627 12 12 6.627 12 0 C
cp
S
GR
GS
[0.50013 0 0 0.50082 487.12419 257.28601] CT
0 0 1 RC
10.0 ML
2.6 LW
N
12 0 M
12 -6.627 6.627 -12 0 -12 C
-6.627 -12 -12 -6.627 -12 0 C
-12 6.627 -6.627 12 0 12 C
6.627 12 12 6.627 12 0 C
cp
S
GR
GS
[0.50013 0 0 0.50082 584.39898 231.69436] CT
0 0 1 RC
10.0 ML
2.6 LW
N
12 0 M
12 -6.627 6.627 -12 0 -12 C
-6.627 -12 -12 -6.627 -12 0 C
-12 6.627 -6.627 12 0 12 C
6.627 12 12 6.627 12 0 C
cp
S
GR
GS
[0.50013 0 0 0.50082 681.67378 180.51098] CT
0 0 1 RC
10.0 ML
2.6 LW
N
12 0 M
12 -6.627 6.627 -12 0 -12 C
-6.627 -12 -12 -6.627 -12 0 C
-12 6.627 -6.627 12 0 12 C
6.627 12 12 6.627 12 0 C
cp
S
GR
GS
[0.50013 0 0 0.50082 98.02499 39.75676] CT
1 0 0 RC
10.0 ML
2.6 LW
N
-8.485 -8.485 M
8.485 8.485 L
-8.485 8.485 M
8.485 -8.485 L
S
GR
GS
[0.50013 0 0 0.50082 195.29979 28.24051] CT
1 0 0 RC
10.0 ML
2.6 LW
N
-8.485 -8.485 M
8.485 8.485 L
-8.485 8.485 M
8.485 -8.485 L
S
GR
GS
[0.50013 0 0 0.50082 292.57459 48.58591] CT
1 0 0 RC
10.0 ML
2.6 LW
N
-8.485 -8.485 M
8.485 8.485 L
-8.485 8.485 M
8.485 -8.485 L
S
GR
GS
[0.50013 0 0 0.50082 389.84939 193.30681] CT
1 0 0 RC
10.0 ML
2.6 LW
N
-8.485 -8.485 M
8.485 8.485 L
-8.485 8.485 M
8.485 -8.485 L
S
GR
GS
[0.50013 0 0 0.50082 487.12419 267.77859] CT
1 0 0 RC
10.0 ML
2.6 LW
N
-8.485 -8.485 M
8.485 8.485 L
-8.485 8.485 M
8.485 -8.485 L
S
GR
GS
[0.50013 0 0 0.50082 584.39898 251.7838] CT
1 0 0 RC
10.0 ML
2.6 LW
N
-8.485 -8.485 M
8.485 8.485 L
-8.485 8.485 M
8.485 -8.485 L
S
GR
GS
[0.50013 0 0 0.50082 681.67378 166.43559] CT
1 0 0 RC
10.0 ML
2.6 LW
N
-8.485 -8.485 M
8.485 8.485 L
-8.485 8.485 M
8.485 -8.485 L
S
GR
GS
[0.50013 0 0 0.50082 0 -0.0831] CT
1 GC
N
1347 163 M
1347 70 L
1155 70 L
1155 163 L
cp
f
GR
GS
[0.50013 0 0 0.50082 612.90619 47.27421] CT
N
1.266 8.64 M
1.266 7.374 L
4.969 7.374 4.969 5.249 QT
4.969 -13.548 L
4.969 -14.688 1.266 -14.688 QT
1.266 -15.954 L
8.063 -15.954 L
8.516 -15.954 8.656 -15.548 QT
16.484 4.827 L
24.328 -15.548 L
24.469 -15.954 24.906 -15.954 QT
31.719 -15.954 L
31.719 -14.688 L
28 -14.688 28 -13.548 QT
28 6.234 L
28 7.374 31.719 7.374 QT
31.719 8.64 L
21.234 8.64 L
21.234 7.374 L
24.938 7.374 24.938 6.234 QT
24.938 -14.72 L
16.078 8.234 L
15.922 8.64 15.484 8.64 QT
15.031 8.64 14.875 8.234 QT
6.125 -14.438 L
6.125 5.249 L
6.125 7.374 9.828 7.374 QT
9.828 8.64 L
1.266 8.64 L
cp
f
GR
GS
[0.50013 0 0 0.50082 612.90619 47.27421] CT
N
41.969 9.046 M
39.766 9.046 37.93 7.89 QT
36.094 6.734 35.047 4.812 QT
34 2.89 34 0.749 QT
34 -1.36 34.961 -3.259 QT
35.922 -5.157 37.633 -6.329 QT
39.344 -7.501 41.453 -7.501 QT
43.109 -7.501 44.328 -6.946 QT
45.547 -6.391 46.344 -5.407 QT
47.141 -4.423 47.539 -3.087 QT
47.938 -1.751 47.938 -0.157 QT
47.938 0.327 47.578 0.327 QT
37.156 0.327 L
37.156 0.718 L
37.156 3.702 38.359 5.843 QT
39.563 7.984 42.281 7.984 QT
43.391 7.984 44.328 7.491 QT
45.266 6.999 45.961 6.124 QT
46.656 5.249 46.906 4.249 QT
46.938 4.124 47.039 4.023 QT
47.141 3.921 47.25 3.921 QT
47.578 3.921 L
47.938 3.921 47.938 4.39 QT
47.438 6.421 45.75 7.734 QT
44.063 9.046 41.969 9.046 QT
cp
37.188 -0.579 M
45.391 -0.579 L
45.391 -1.923 45.016 -3.313 QT
44.641 -4.704 43.758 -5.626 QT
42.875 -6.548 41.453 -6.548 QT
39.422 -6.548 38.305 -4.641 QT
37.188 -2.735 37.188 -0.579 QT
cp
f
GR
GS
[0.50013 0 0 0.50082 612.90619 47.27421] CT
N
50.438 5.109 M
50.438 2.968 52.125 1.616 QT
53.813 0.265 56.18 -0.282 QT
58.547 -0.829 60.672 -0.829 QT
60.672 -2.313 L
60.672 -3.345 60.219 -4.321 QT
59.766 -5.298 58.899 -5.923 QT
58.031 -6.548 57 -6.548 QT
54.609 -6.548 53.359 -5.47 QT
54.047 -5.47 54.492 -4.954 QT
54.938 -4.438 54.938 -3.751 QT
54.938 -3.032 54.43 -2.524 QT
53.922 -2.016 53.219 -2.016 QT
52.5 -2.016 51.992 -2.524 QT
51.484 -3.032 51.484 -3.751 QT
51.484 -5.657 53.203 -6.579 QT
54.922 -7.501 57 -7.501 QT
58.453 -7.501 59.93 -6.876 QT
61.406 -6.251 62.352 -5.087 QT
63.297 -3.923 63.297 -2.376 QT
63.297 5.718 L
63.297 6.421 63.594 7.015 QT
63.891 7.609 64.516 7.609 QT
65.125 7.609 65.414 7.007 QT
65.703 6.405 65.703 5.718 QT
65.703 3.421 L
66.75 3.421 L
66.75 5.718 L
66.75 6.53 66.328 7.257 QT
65.906 7.984 65.195 8.421 QT
64.484 8.859 63.656 8.859 QT
62.609 8.859 61.844 8.038 QT
61.078 7.218 60.984 6.093 QT
60.328 7.437 59.024 8.241 QT
57.719 9.046 56.25 9.046 QT
54.875 9.046 53.547 8.64 QT
52.219 8.234 51.328 7.366 QT
50.438 6.499 50.438 5.109 QT
cp
53.359 5.109 M
53.359 6.374 54.289 7.234 QT
55.219 8.093 56.484 8.093 QT
57.656 8.093 58.602 7.515 QT
59.547 6.937 60.109 5.937 QT
60.672 4.937 60.672 3.827 QT
60.672 0.077 L
59.031 0.077 57.32 0.616 QT
55.609 1.155 54.484 2.296 QT
53.359 3.437 53.359 5.109 QT
cp
f
GR
GS
[0.50013 0 0 0.50082 612.90619 47.27421] CT
N
68.203 8.749 M
68.203 2.874 L
68.203 2.593 68.516 2.593 QT
68.953 2.593 L
69.156 2.593 69.234 2.874 QT
70.234 8.093 74.078 8.093 QT
75.797 8.093 76.945 7.32 QT
78.094 6.546 78.094 4.937 QT
78.094 3.765 77.195 2.952 QT
76.297 2.14 75.063 1.843 QT
72.656 1.359 L
71.453 1.093 70.461 0.554 QT
69.469 0.015 68.836 -0.891 QT
68.203 -1.798 68.203 -3.001 QT
68.203 -4.579 69.031 -5.587 QT
69.859 -6.595 71.195 -7.048 QT
72.531 -7.501 74.078 -7.501 QT
75.938 -7.501 77.297 -6.516 QT
78.344 -7.407 L
78.344 -7.501 78.516 -7.501 QT
78.781 -7.501 L
78.891 -7.501 78.977 -7.399 QT
79.063 -7.298 79.063 -7.204 QT
79.063 -2.485 L
79.063 -2.157 78.781 -2.157 QT
78.344 -2.157 L
78.016 -2.157 78.016 -2.485 QT
78.016 -4.376 76.977 -5.516 QT
75.938 -6.657 74.047 -6.657 QT
72.438 -6.657 71.25 -6.055 QT
70.063 -5.454 70.063 -4.001 QT
70.063 -3.001 70.914 -2.36 QT
71.766 -1.72 72.906 -1.438 QT
75.344 -0.97 L
76.578 -0.688 77.641 -0.024 QT
78.703 0.64 79.328 1.663 QT
79.953 2.687 79.953 3.968 QT
79.953 5.265 79.508 6.226 QT
79.063 7.187 78.258 7.82 QT
77.453 8.452 76.367 8.749 QT
75.281 9.046 74.078 9.046 QT
71.828 9.046 70.234 7.53 QT
68.922 8.952 L
68.922 9.046 68.719 9.046 QT
68.516 9.046 L
68.203 9.046 68.203 8.749 QT
cp
f
GR
GS
[0.50013 0 0 0.50082 612.90619 47.27421] CT
N
84.231 6.655 M
84.231 5.843 84.825 5.265 QT
85.419 4.687 86.216 4.687 QT
86.7 4.687 87.177 4.952 QT
87.653 5.218 87.919 5.687 QT
88.184 6.155 88.184 6.655 QT
88.184 7.437 87.599 8.038 QT
87.013 8.64 86.216 8.64 QT
85.419 8.64 84.825 8.038 QT
84.231 7.437 84.231 6.655 QT
cp
f
GR
GS
[0.50013 0 0 0.50082 595.65185 47.27421] CT
0 0 1 RC
10.0 ML
2.6 LW
N
12 0 M
12 -6.627 6.627 -12 0 -12 C
-6.627 -12 -12 -6.627 -12 0 C
-12 6.627 -6.627 12 0 12 C
6.627 12 12 6.627 12 0 C
cp
S
GR
GS
[0.50013 0 0 0.50082 612.90619 69.2496] CT
N
1.109 8.64 M
1.109 7.374 L
4.813 7.374 4.813 6.234 QT
4.813 -13.548 L
4.813 -14.688 1.109 -14.688 QT
1.109 -15.954 L
21.469 -15.954 L
22.469 -7.704 L
21.422 -7.704 L
21.047 -10.813 20.352 -12.22 QT
19.656 -13.626 18.125 -14.157 QT
16.594 -14.688 13.531 -14.688 QT
10 -14.688 L
9.359 -14.688 8.992 -14.634 QT
8.625 -14.579 8.398 -14.329 QT
8.172 -14.079 8.172 -13.548 QT
8.172 -4.751 L
10.828 -4.751 L
12.656 -4.751 13.563 -5.063 QT
14.469 -5.376 14.813 -6.243 QT
15.156 -7.11 15.156 -8.954 QT
16.203 -8.954 L
16.203 0.718 L
15.156 0.718 L
15.156 -1.11 14.813 -1.993 QT
14.469 -2.876 13.563 -3.18 QT
12.656 -3.485 10.828 -3.485 QT
8.172 -3.485 L
8.172 6.234 L
8.172 6.999 8.609 7.187 QT
9.047 7.374 10 7.374 QT
13.813 7.374 L
16.313 7.374 17.852 6.976 QT
19.391 6.577 20.242 5.655 QT
21.094 4.734 21.563 3.265 QT
22.031 1.796 22.438 -0.798 QT
23.469 -0.798 L
21.953 8.64 L
1.109 8.64 L
cp
f
GR
GS
[0.50013 0 0 0.50082 612.90619 69.2496] CT
N
35.297 15.624 M
35.297 14.374 L
36.531 14.374 37.32 14.163 QT
38.109 13.952 38.109 13.218 QT
38.109 6.546 L
37.266 7.671 35.984 8.359 QT
34.703 9.046 33.297 9.046 QT
31.672 9.046 30.281 8.374 QT
28.891 7.702 27.867 6.562 QT
26.844 5.421 26.273 3.921 QT
25.703 2.421 25.703 0.874 QT
25.703 -1.282 26.758 -3.165 QT
27.813 -5.048 29.648 -6.157 QT
31.484 -7.266 33.609 -7.266 QT
35.141 -7.266 36.438 -6.407 QT
37.734 -5.548 38.516 -4.11 QT
39.797 -7.266 L
40.75 -7.266 L
40.75 13.218 L
40.75 13.952 41.539 14.163 QT
42.328 14.374 43.531 14.374 QT
43.531 15.624 L
35.297 15.624 L
cp
33.5 8.093 M
35.094 8.093 36.352 7.03 QT
37.609 5.968 38.219 4.343 QT
38.219 -1.985 L
37.844 -3.704 36.68 -4.97 QT
35.516 -6.235 33.906 -6.235 QT
32.672 -6.235 31.703 -5.587 QT
30.734 -4.938 30.094 -3.845 QT
29.453 -2.751 29.141 -1.485 QT
28.828 -0.22 28.828 0.905 QT
28.828 2.343 29.336 4.038 QT
29.844 5.734 30.898 6.913 QT
31.953 8.093 33.5 8.093 QT
cp
f
GR
GS
[0.50013 0 0 0.50082 612.90619 69.2496] CT
N
46.531 6.655 M
46.531 5.843 47.125 5.265 QT
47.719 4.687 48.516 4.687 QT
49 4.687 49.477 4.952 QT
49.953 5.218 50.219 5.687 QT
50.484 6.155 50.484 6.655 QT
50.484 7.437 49.899 8.038 QT
49.313 8.64 48.516 8.64 QT
47.719 8.64 47.125 8.038 QT
46.531 7.437 46.531 6.655 QT
cp
f
GR
GS
[0.50013 0 0 0.50082 612.90619 69.2496] CT
N
80.656 17.577 M
78.656 15.984 77.211 13.937 QT
75.766 11.89 74.836 9.57 QT
73.906 7.249 73.453 4.718 QT
73 2.187 73 -0.36 QT
73 -2.938 73.453 -5.47 QT
73.906 -8.001 74.852 -10.345 QT
75.797 -12.688 77.258 -14.727 QT
78.719 -16.766 80.656 -18.298 QT
80.656 -18.36 80.844 -18.36 QT
81.172 -18.36 L
81.281 -18.36 81.367 -18.266 QT
81.453 -18.173 81.453 -18.048 QT
81.453 -17.891 81.391 -17.813 QT
79.625 -16.095 78.453 -14.126 QT
77.281 -12.157 76.57 -9.93 QT
75.859 -7.704 75.547 -5.321 QT
75.234 -2.938 75.234 -0.36 QT
75.234 11.077 81.344 17.03 QT
81.453 17.124 81.453 17.327 QT
81.453 17.405 81.359 17.523 QT
81.266 17.64 81.172 17.64 QT
80.844 17.64 L
80.656 17.64 80.656 17.577 QT
cp
f
GR
GS
[0.50013 0 0 0.50082 612.90619 69.2496] CT
N
85.016 3.171 M
85.016 1.015 86.438 -0.649 QT
87.86 -2.313 90.094 -3.423 QT
88.75 -4.282 L
87.531 -5.095 86.758 -6.438 QT
85.985 -7.782 85.985 -9.251 QT
85.985 -10.985 86.891 -12.368 QT
87.797 -13.751 89.297 -14.548 QT
90.797 -15.345 92.5 -15.345 QT
94.094 -15.345 95.586 -14.688 QT
97.078 -14.032 98.031 -12.821 QT
98.985 -11.61 98.985 -9.938 QT
98.985 -8.735 98.414 -7.696 QT
97.844 -6.657 96.852 -5.829 QT
95.86 -5.001 94.735 -4.423 QT
96.797 -3.11 L
98.219 -2.173 99.086 -0.657 QT
99.953 0.859 99.953 2.515 QT
99.953 4.468 98.906 6.07 QT
97.86 7.671 96.141 8.554 QT
94.422 9.437 92.5 9.437 QT
90.641 9.437 88.906 8.679 QT
87.172 7.921 86.094 6.484 QT
85.016 5.046 85.016 3.171 QT
cp
86.969 3.171 M
86.969 4.593 87.75 5.773 QT
88.531 6.952 89.813 7.616 QT
91.094 8.28 92.5 8.28 QT
94.594 8.28 96.297 7.062 QT
98 5.843 98 3.827 QT
98 3.14 97.727 2.46 QT
97.453 1.78 96.969 1.226 QT
96.485 0.671 95.891 0.327 QT
91.063 -2.798 L
89.938 -2.204 88.992 -1.29 QT
88.047 -0.376 87.508 0.765 QT
86.969 1.905 86.969 3.171 QT
cp
89.438 -7.813 M
93.797 -5.001 L
95.313 -5.876 96.281 -7.126 QT
97.25 -8.376 97.25 -9.938 QT
97.25 -11.157 96.57 -12.165 QT
95.891 -13.173 94.805 -13.735 QT
93.719 -14.298 92.469 -14.298 QT
91.375 -14.298 90.266 -13.876 QT
89.156 -13.454 88.438 -12.618 QT
87.719 -11.782 87.719 -10.657 QT
87.719 -8.97 89.438 -7.813 QT
cp
f
GR
GS
[0.50013 0 0 0.50082 612.90619 69.2496] CT
N
103.844 17.64 M
103.516 17.64 103.516 17.327 QT
103.516 17.171 103.594 17.093 QT
109.75 11.077 109.75 -0.36 QT
109.75 -11.798 103.656 -17.751 QT
103.516 -17.829 103.516 -18.048 QT
103.516 -18.173 103.617 -18.266 QT
103.719 -18.36 103.844 -18.36 QT
104.172 -18.36 L
104.281 -18.36 104.344 -18.298 QT
106.938 -16.251 108.656 -13.337 QT
110.375 -10.423 111.18 -7.118 QT
111.985 -3.813 111.985 -0.36 QT
111.985 2.187 111.547 4.655 QT
111.11 7.124 110.172 9.523 QT
109.235 11.921 107.797 13.952 QT
106.36 15.984 104.344 17.577 QT
104.281 17.64 104.172 17.64 QT
103.844 17.64 L
cp
f
GR
GS
[0.50013 0 0 0.50082 595.65185 69.24961] CT
1 0 0 RC
10.0 ML
2.6 LW
N
-8.485 -8.485 M
8.485 8.485 L
-8.485 8.485 M
8.485 -8.485 L
S
GR
GS
[0.50013 0 0 0.50082 0 -0.0831] CT
0.149 GC
10.0 ML
2 LW
N
1155 163 M
1155 70 L
1347 70 L
1347 163 L
cp
S
GR
%%Trailer
%%Pages: 1
%%EOF
