%!PS-Adobe-3.0 EPSF-3.0
%%Creator: (MATLAB, The Mathworks, Inc. Version 9.6.0.1072779 \(R2019a\). Operating System: Windows 8.1)
%%Title: C:/Users/Murat/git/hardware_estimation/matlab/plot_sweep_chan_gain_2.eps
%%CreationDate: 2019-04-17T15:38:14
%%Pages: (atend)
%%BoundingBox: 0 0 753 358
%%LanguageLevel: 3
%%EndComments
%%BeginProlog
%%BeginResource: procset (Apache XML Graphics Std ProcSet) 1.2 0
%%Version: 1.2 0
%%Copyright: (Copyright 2001-2003,2010 The Apache Software Foundation. License terms: http://www.apache.org/licenses/LICENSE-2.0)
/bd{bind def}bind def
/ld{load def}bd
/GR/grestore ld
/GS/gsave ld
/RM/rmoveto ld
/C/curveto ld
/t/show ld
/L/lineto ld
/ML/setmiterlimit ld
/CT/concat ld
/f/fill ld
/N/newpath ld
/S/stroke ld
/CC/setcmykcolor ld
/A/ashow ld
/cp/closepath ld
/RC/setrgbcolor ld
/LJ/setlinejoin ld
/GC/setgray ld
/LW/setlinewidth ld
/M/moveto ld
/re {4 2 roll M
1 index 0 rlineto
0 exch rlineto
neg 0 rlineto
cp } bd
/_ctm matrix def
/_tm matrix def
/BT { _ctm currentmatrix pop matrix _tm copy pop 0 0 moveto } bd
/ET { _ctm setmatrix } bd
/iTm { _ctm setmatrix _tm concat } bd
/Tm { _tm astore pop iTm 0 0 moveto } bd
/ux 0.0 def
/uy 0.0 def
/F {
  /Tp exch def
  /Tf exch def
  Tf findfont Tp scalefont setfont
  /cf Tf def  /cs Tp def
} bd
/ULS {currentpoint /uy exch def /ux exch def} bd
/ULE {
  /Tcx currentpoint pop def
  gsave
  newpath
  cf findfont cs scalefont dup
  /FontMatrix get 0 get /Ts exch def /FontInfo get dup
  /UnderlinePosition get Ts mul /To exch def
  /UnderlineThickness get Ts mul /Tt exch def
  ux uy To add moveto  Tcx uy To add lineto
  Tt setlinewidth stroke
  grestore
} bd
/OLE {
  /Tcx currentpoint pop def
  gsave
  newpath
  cf findfont cs scalefont dup
  /FontMatrix get 0 get /Ts exch def /FontInfo get dup
  /UnderlinePosition get Ts mul /To exch def
  /UnderlineThickness get Ts mul /Tt exch def
  ux uy To add cs add moveto Tcx uy To add cs add lineto
  Tt setlinewidth stroke
  grestore
} bd
/SOE {
  /Tcx currentpoint pop def
  gsave
  newpath
  cf findfont cs scalefont dup
  /FontMatrix get 0 get /Ts exch def /FontInfo get dup
  /UnderlinePosition get Ts mul /To exch def
  /UnderlineThickness get Ts mul /Tt exch def
  ux uy To add cs 10 mul 26 idiv add moveto Tcx uy To add cs 10 mul 26 idiv add lineto
  Tt setlinewidth stroke
  grestore
} bd
/QT {
/Y22 exch store
/X22 exch store
/Y21 exch store
/X21 exch store
currentpoint
/Y21 load 2 mul add 3 div exch
/X21 load 2 mul add 3 div exch
/X21 load 2 mul /X22 load add 3 div
/Y21 load 2 mul /Y22 load add 3 div
/X22 load /Y22 load curveto
} bd
/SSPD {
dup length /d exch dict def
{
/v exch def
/k exch def
currentpagedevice k known {
/cpdv currentpagedevice k get def
v cpdv ne {
/upd false def
/nullv v type /nulltype eq def
/nullcpdv cpdv type /nulltype eq def
nullv nullcpdv or
{
/upd true def
} {
/sametype v type cpdv type eq def
sametype {
v type /arraytype eq {
/vlen v length def
/cpdvlen cpdv length def
vlen cpdvlen eq {
0 1 vlen 1 sub {
/i exch def
/obj v i get def
/cpdobj cpdv i get def
obj cpdobj ne {
/upd true def
exit
} if
} for
} {
/upd true def
} ifelse
} {
v type /dicttype eq {
v {
/dv exch def
/dk exch def
/cpddv cpdv dk get def
dv cpddv ne {
/upd true def
exit
} if
} forall
} {
/upd true def
} ifelse
} ifelse
} if
} ifelse
upd true eq {
d k v put
} if
} if
} if
} forall
d length 0 gt {
d setpagedevice
} if
} bd
/RE { % /NewFontName [NewEncodingArray] /FontName RE -
  findfont dup length dict begin
  {
    1 index /FID ne
    {def} {pop pop} ifelse
  } forall
  /Encoding exch def
  /FontName 1 index def
  currentdict definefont pop
  end
} bind def
%%EndResource
%%BeginResource: procset (Apache XML Graphics EPS ProcSet) 1.0 0
%%Version: 1.0 0
%%Copyright: (Copyright 2002-2003 The Apache Software Foundation. License terms: http://www.apache.org/licenses/LICENSE-2.0)
/BeginEPSF { %def
/b4_Inc_state save def         % Save state for cleanup
/dict_count countdictstack def % Count objects on dict stack
/op_count count 1 sub def      % Count objects on operand stack
userdict begin                 % Push userdict on dict stack
/showpage { } def              % Redefine showpage, { } = null proc
0 setgray 0 setlinecap         % Prepare graphics state
1 setlinewidth 0 setlinejoin
10 setmiterlimit [ ] 0 setdash newpath
/languagelevel where           % If level not equal to 1 then
{pop languagelevel             % set strokeadjust and
1 ne                           % overprint to their defaults.
{false setstrokeadjust false setoverprint
} if
} if
} bd
/EndEPSF { %def
count op_count sub {pop} repeat            % Clean up stacks
countdictstack dict_count sub {end} repeat
b4_Inc_state restore
} bd
%%EndResource
%FOPBeginFontDict
%%IncludeResource: font Courier-Oblique
%%IncludeResource: font Courier-BoldOblique
%%IncludeResource: font Courier-Bold
%%IncludeResource: font ZapfDingbats
%%IncludeResource: font Symbol
%%IncludeResource: font Helvetica
%%IncludeResource: font Helvetica-Oblique
%%IncludeResource: font Helvetica-Bold
%%IncludeResource: font Helvetica-BoldOblique
%%IncludeResource: font Times-Roman
%%IncludeResource: font Times-Italic
%%IncludeResource: font Times-Bold
%%IncludeResource: font Times-BoldItalic
%%IncludeResource: font Courier
%FOPEndFontDict
%%BeginResource: encoding WinAnsiEncoding
/WinAnsiEncoding [
/.notdef /.notdef /.notdef /.notdef /.notdef
/.notdef /.notdef /.notdef /.notdef /.notdef
/.notdef /.notdef /.notdef /.notdef /.notdef
/.notdef /.notdef /.notdef /.notdef /.notdef
/.notdef /.notdef /.notdef /.notdef /.notdef
/.notdef /.notdef /.notdef /.notdef /.notdef
/.notdef /.notdef /space /exclam /quotedbl
/numbersign /dollar /percent /ampersand /quotesingle
/parenleft /parenright /asterisk /plus /comma
/hyphen /period /slash /zero /one
/two /three /four /five /six
/seven /eight /nine /colon /semicolon
/less /equal /greater /question /at
/A /B /C /D /E
/F /G /H /I /J
/K /L /M /N /O
/P /Q /R /S /T
/U /V /W /X /Y
/Z /bracketleft /backslash /bracketright /asciicircum
/underscore /quoteleft /a /b /c
/d /e /f /g /h
/i /j /k /l /m
/n /o /p /q /r
/s /t /u /v /w
/x /y /z /braceleft /bar
/braceright /asciitilde /bullet /Euro /bullet
/quotesinglbase /florin /quotedblbase /ellipsis /dagger
/daggerdbl /circumflex /perthousand /Scaron /guilsinglleft
/OE /bullet /Zcaron /bullet /bullet
/quoteleft /quoteright /quotedblleft /quotedblright /bullet
/endash /emdash /asciitilde /trademark /scaron
/guilsinglright /oe /bullet /zcaron /Ydieresis
/space /exclamdown /cent /sterling /currency
/yen /brokenbar /section /dieresis /copyright
/ordfeminine /guillemotleft /logicalnot /sfthyphen /registered
/macron /degree /plusminus /twosuperior /threesuperior
/acute /mu /paragraph /middot /cedilla
/onesuperior /ordmasculine /guillemotright /onequarter /onehalf
/threequarters /questiondown /Agrave /Aacute /Acircumflex
/Atilde /Adieresis /Aring /AE /Ccedilla
/Egrave /Eacute /Ecircumflex /Edieresis /Igrave
/Iacute /Icircumflex /Idieresis /Eth /Ntilde
/Ograve /Oacute /Ocircumflex /Otilde /Odieresis
/multiply /Oslash /Ugrave /Uacute /Ucircumflex
/Udieresis /Yacute /Thorn /germandbls /agrave
/aacute /acircumflex /atilde /adieresis /aring
/ae /ccedilla /egrave /eacute /ecircumflex
/edieresis /igrave /iacute /icircumflex /idieresis
/eth /ntilde /ograve /oacute /ocircumflex
/otilde /odieresis /divide /oslash /ugrave
/uacute /ucircumflex /udieresis /yacute /thorn
/ydieresis
] def
%%EndResource
%FOPBeginFontReencode
/Courier-Oblique findfont
dup length dict begin
  {1 index /FID ne {def} {pop pop} ifelse} forall
  /Encoding WinAnsiEncoding def
  currentdict
end
/Courier-Oblique exch definefont pop
/Courier-BoldOblique findfont
dup length dict begin
  {1 index /FID ne {def} {pop pop} ifelse} forall
  /Encoding WinAnsiEncoding def
  currentdict
end
/Courier-BoldOblique exch definefont pop
/Courier-Bold findfont
dup length dict begin
  {1 index /FID ne {def} {pop pop} ifelse} forall
  /Encoding WinAnsiEncoding def
  currentdict
end
/Courier-Bold exch definefont pop
/Helvetica findfont
dup length dict begin
  {1 index /FID ne {def} {pop pop} ifelse} forall
  /Encoding WinAnsiEncoding def
  currentdict
end
/Helvetica exch definefont pop
/Helvetica-Oblique findfont
dup length dict begin
  {1 index /FID ne {def} {pop pop} ifelse} forall
  /Encoding WinAnsiEncoding def
  currentdict
end
/Helvetica-Oblique exch definefont pop
/Helvetica-Bold findfont
dup length dict begin
  {1 index /FID ne {def} {pop pop} ifelse} forall
  /Encoding WinAnsiEncoding def
  currentdict
end
/Helvetica-Bold exch definefont pop
/Helvetica-BoldOblique findfont
dup length dict begin
  {1 index /FID ne {def} {pop pop} ifelse} forall
  /Encoding WinAnsiEncoding def
  currentdict
end
/Helvetica-BoldOblique exch definefont pop
/Times-Roman findfont
dup length dict begin
  {1 index /FID ne {def} {pop pop} ifelse} forall
  /Encoding WinAnsiEncoding def
  currentdict
end
/Times-Roman exch definefont pop
/Times-Italic findfont
dup length dict begin
  {1 index /FID ne {def} {pop pop} ifelse} forall
  /Encoding WinAnsiEncoding def
  currentdict
end
/Times-Italic exch definefont pop
/Times-Bold findfont
dup length dict begin
  {1 index /FID ne {def} {pop pop} ifelse} forall
  /Encoding WinAnsiEncoding def
  currentdict
end
/Times-Bold exch definefont pop
/Times-BoldItalic findfont
dup length dict begin
  {1 index /FID ne {def} {pop pop} ifelse} forall
  /Encoding WinAnsiEncoding def
  currentdict
end
/Times-BoldItalic exch definefont pop
/Courier findfont
dup length dict begin
  {1 index /FID ne {def} {pop pop} ifelse} forall
  /Encoding WinAnsiEncoding def
  currentdict
end
/Courier exch definefont pop
%FOPEndFontReencode
%%EndProlog
%%Page: 1 1
%%PageBoundingBox: 0 0 753 358
%%BeginPageSetup
[1 0 0 -1 0 358] CT
%%EndPageSetup
GS
[0.75 0 0 0.75 0 0.25] CT
1 GC
N
0 0 1004 477 re
f
GR
GS
[0.75 0 0 0.75 0 0.25] CT
1 GC
N
0 0 1004 477 re
f
GR
GS
[0.75 0 0 0.75 0 0.25] CT
1 GC
N
131 413 M
909 413 L
909 36 L
131 36 L
cp
f
GR
GS
[0.75 0 0 0.75 0 0.25] CT
0.149 GC
2 setlinecap
1 LJ
2.667 LW
N
131 413 M
909 413 L
S
GR
GS
[0.75 0 0 0.75 0 0.25] CT
0.149 GC
2 setlinecap
1 LJ
2.667 LW
N
131 36 M
909 36 L
S
GR
GS
[0.75 0 0 0.75 0 0.25] CT
0.149 GC
2 setlinecap
1 LJ
2.667 LW
N
131 413 M
131 405.22 L
S
GR
GS
[0.75 0 0 0.75 0 0.25] CT
0.149 GC
2 setlinecap
1 LJ
2.667 LW
N
242.143 413 M
242.143 405.22 L
S
GR
GS
[0.75 0 0 0.75 0 0.25] CT
0.149 GC
2 setlinecap
1 LJ
2.667 LW
N
353.286 413 M
353.286 405.22 L
S
GR
GS
[0.75 0 0 0.75 0 0.25] CT
0.149 GC
2 setlinecap
1 LJ
2.667 LW
N
464.429 413 M
464.429 405.22 L
S
GR
GS
[0.75 0 0 0.75 0 0.25] CT
0.149 GC
2 setlinecap
1 LJ
2.667 LW
N
575.571 413 M
575.571 405.22 L
S
GR
GS
[0.75 0 0 0.75 0 0.25] CT
0.149 GC
2 setlinecap
1 LJ
2.667 LW
N
686.714 413 M
686.714 405.22 L
S
GR
GS
[0.75 0 0 0.75 0 0.25] CT
0.149 GC
2 setlinecap
1 LJ
2.667 LW
N
797.857 413 M
797.857 405.22 L
S
GR
GS
[0.75 0 0 0.75 0 0.25] CT
0.149 GC
2 setlinecap
1 LJ
2.667 LW
N
909 413 M
909 405.22 L
S
GR
GS
[0.75 0 0 0.75 0 0.25] CT
0.149 GC
2 setlinecap
1 LJ
2.667 LW
N
131 36 M
131 43.78 L
S
GR
GS
[0.75 0 0 0.75 0 0.25] CT
0.149 GC
2 setlinecap
1 LJ
2.667 LW
N
242.143 36 M
242.143 43.78 L
S
GR
GS
[0.75 0 0 0.75 0 0.25] CT
0.149 GC
2 setlinecap
1 LJ
2.667 LW
N
353.286 36 M
353.286 43.78 L
S
GR
GS
[0.75 0 0 0.75 0 0.25] CT
0.149 GC
2 setlinecap
1 LJ
2.667 LW
N
464.429 36 M
464.429 43.78 L
S
GR
GS
[0.75 0 0 0.75 0 0.25] CT
0.149 GC
2 setlinecap
1 LJ
2.667 LW
N
575.571 36 M
575.571 43.78 L
S
GR
GS
[0.75 0 0 0.75 0 0.25] CT
0.149 GC
2 setlinecap
1 LJ
2.667 LW
N
686.714 36 M
686.714 43.78 L
S
GR
GS
[0.75 0 0 0.75 0 0.25] CT
0.149 GC
2 setlinecap
1 LJ
2.667 LW
N
797.857 36 M
797.857 43.78 L
S
GR
GS
[0.75 0 0 0.75 0 0.25] CT
0.149 GC
2 setlinecap
1 LJ
2.667 LW
N
909 36 M
909 43.78 L
S
GR
GS
[0.75 0 0 0.75 98.25 314.8] CT
0.149 GC
/Helvetica 18.667 F
GS
[1 0 0 1 0 0] CT
-5.5 19 moveto 
1 -1 scale
(0) t 
GR
GR
GS
[0.75 0 0 0.75 181.60714 314.8] CT
0.149 GC
/Helvetica 18.667 F
GS
[1 0 0 1 0 0] CT
-18.5 19 moveto 
1 -1 scale
(0.01) t 
GR
GR
GS
[0.75 0 0 0.75 264.96428 314.8] CT
0.149 GC
/Helvetica 18.667 F
GS
[1 0 0 1 0 0] CT
-18.5 19 moveto 
1 -1 scale
(0.02) t 
GR
GR
GS
[0.75 0 0 0.75 348.32142 314.8] CT
0.149 GC
/Helvetica 18.667 F
GS
[1 0 0 1 0 0] CT
-18.5 19 moveto 
1 -1 scale
(0.03) t 
GR
GR
GS
[0.75 0 0 0.75 431.67856 314.8] CT
0.149 GC
/Helvetica 18.667 F
GS
[1 0 0 1 0 0] CT
-18.5 19 moveto 
1 -1 scale
(0.04) t 
GR
GR
GS
[0.75 0 0 0.75 515.03572 314.8] CT
0.149 GC
/Helvetica 18.667 F
GS
[1 0 0 1 0 0] CT
-18.5 19 moveto 
1 -1 scale
(0.05) t 
GR
GR
GS
[0.75 0 0 0.75 598.39284 314.8] CT
0.149 GC
/Helvetica 18.667 F
GS
[1 0 0 1 0 0] CT
-18.5 19 moveto 
1 -1 scale
(0.06) t 
GR
GR
GS
[0.75 0 0 0.75 681.75 314.8] CT
0.149 GC
/Helvetica 18.667 F
GS
[1 0 0 1 0 0] CT
-18.5 19 moveto 
1 -1 scale
(0.07) t 
GR
GR
GS
[0.75 0 0 0.75 390.00027 333.8] CT
0.149 GC
N
-11.871 28.666 M
-11.871 2.634 L
-11.871 2.431 -11.715 2.291 QT
-11.558 2.15 -11.34 2.15 QT
-11.136 2.15 -10.965 2.291 QT
-10.793 2.431 -10.793 2.634 QT
-10.793 28.666 L
-10.793 28.869 -10.965 29.009 QT
-11.136 29.15 -11.34 29.15 QT
-11.558 29.15 -11.715 29.009 QT
-11.871 28.869 -11.871 28.666 QT
cp
f
GR
GS
[0.75 0 0 0.75 390.00027 333.8] CT
0.149 GC
N
-6.245 21.916 M
-6.245 21.759 -6.213 21.681 QT
-2.307 6.072 L
-2.198 5.603 -2.166 5.337 QT
-2.166 4.9 -3.932 4.9 QT
-4.198 4.9 -4.198 4.556 QT
-4.182 4.478 -4.135 4.306 QT
-4.088 4.134 -4.018 4.048 QT
-3.948 3.962 -3.823 3.962 QT
-0.182 3.666 L
-0.104 3.666 L
-0.104 3.697 -0.01 3.744 QT
0.084 3.791 0.099 3.791 QT
0.146 3.931 0.146 4.009 QT
-1.963 12.431 L
-0.291 10.462 1.974 10.462 QT
2.927 10.462 3.623 10.798 QT
4.318 11.134 4.709 11.798 QT
5.099 12.462 5.099 13.384 QT
5.099 14.494 4.599 16.064 QT
4.099 17.634 3.365 19.572 QT
2.99 20.447 2.99 21.181 QT
2.99 21.994 3.599 21.994 QT
4.662 21.994 5.365 20.869 QT
6.068 19.744 6.365 18.431 QT
6.412 18.275 6.568 18.275 QT
6.896 18.275 L
7.005 18.275 7.068 18.345 QT
7.13 18.416 7.13 18.509 QT
7.13 18.541 7.115 18.587 QT
6.88 19.572 6.412 20.509 QT
5.943 21.447 5.224 22.072 QT
4.505 22.697 3.552 22.697 QT
2.599 22.697 1.927 22.048 QT
1.255 21.4 1.255 20.462 QT
1.255 19.962 1.474 19.4 QT
2.24 17.384 2.74 15.783 QT
3.24 14.181 3.24 12.978 QT
3.24 12.197 2.943 11.681 QT
2.646 11.166 1.927 11.166 QT
0.474 11.166 -0.604 12.056 QT
-1.682 12.947 -2.479 14.416 QT
-4.307 21.775 L
-4.416 22.181 -4.721 22.439 QT
-5.026 22.697 -5.416 22.697 QT
-5.76 22.697 -6.002 22.47 QT
-6.245 22.244 -6.245 21.916 QT
cp
f
GR
GS
[0.75 0 0 0.75 390.00027 333.8] CT
0.149 GC
N
10.901 28.666 M
10.901 2.634 L
10.901 2.431 11.057 2.291 QT
11.213 2.15 11.432 2.15 QT
11.635 2.15 11.807 2.291 QT
11.979 2.431 11.979 2.634 QT
11.979 28.666 L
11.979 28.869 11.807 29.009 QT
11.635 29.15 11.432 29.15 QT
11.213 29.15 11.057 29.009 QT
10.901 28.869 10.901 28.666 QT
cp
f
GR
GS
[0.75 0 0 0.75 0 0.25] CT
0.149 GC
2 setlinecap
1 LJ
2.667 LW
N
131 413 M
131 36 L
S
GR
GS
[0.75 0 0 0.75 0 0.25] CT
0.149 GC
2 setlinecap
1 LJ
2.667 LW
N
909 413 M
909 36 L
S
GR
GS
[0.75 0 0 0.75 0 0.25] CT
0.149 GC
2 setlinecap
1 LJ
2.667 LW
N
131 413 M
138.78 413 L
S
GR
GS
[0.75 0 0 0.75 0 0.25] CT
0.149 GC
2 setlinecap
1 LJ
2.667 LW
N
131 365.875 M
138.78 365.875 L
S
GR
GS
[0.75 0 0 0.75 0 0.25] CT
0.149 GC
2 setlinecap
1 LJ
2.667 LW
N
131 318.75 M
138.78 318.75 L
S
GR
GS
[0.75 0 0 0.75 0 0.25] CT
0.149 GC
2 setlinecap
1 LJ
2.667 LW
N
131 271.625 M
138.78 271.625 L
S
GR
GS
[0.75 0 0 0.75 0 0.25] CT
0.149 GC
2 setlinecap
1 LJ
2.667 LW
N
131 224.5 M
138.78 224.5 L
S
GR
GS
[0.75 0 0 0.75 0 0.25] CT
0.149 GC
2 setlinecap
1 LJ
2.667 LW
N
131 177.375 M
138.78 177.375 L
S
GR
GS
[0.75 0 0 0.75 0 0.25] CT
0.149 GC
2 setlinecap
1 LJ
2.667 LW
N
131 130.25 M
138.78 130.25 L
S
GR
GS
[0.75 0 0 0.75 0 0.25] CT
0.149 GC
2 setlinecap
1 LJ
2.667 LW
N
131 83.125 M
138.78 83.125 L
S
GR
GS
[0.75 0 0 0.75 0 0.25] CT
0.149 GC
2 setlinecap
1 LJ
2.667 LW
N
131 36 M
138.78 36 L
S
GR
GS
[0.75 0 0 0.75 0 0.25] CT
0.149 GC
2 setlinecap
1 LJ
2.667 LW
N
909 413 M
901.22 413 L
S
GR
GS
[0.75 0 0 0.75 0 0.25] CT
0.149 GC
2 setlinecap
1 LJ
2.667 LW
N
909 365.875 M
901.22 365.875 L
S
GR
GS
[0.75 0 0 0.75 0 0.25] CT
0.149 GC
2 setlinecap
1 LJ
2.667 LW
N
909 318.75 M
901.22 318.75 L
S
GR
GS
[0.75 0 0 0.75 0 0.25] CT
0.149 GC
2 setlinecap
1 LJ
2.667 LW
N
909 271.625 M
901.22 271.625 L
S
GR
GS
[0.75 0 0 0.75 0 0.25] CT
0.149 GC
2 setlinecap
1 LJ
2.667 LW
N
909 224.5 M
901.22 224.5 L
S
GR
GS
[0.75 0 0 0.75 0 0.25] CT
0.149 GC
2 setlinecap
1 LJ
2.667 LW
N
909 177.375 M
901.22 177.375 L
S
GR
GS
[0.75 0 0 0.75 0 0.25] CT
0.149 GC
2 setlinecap
1 LJ
2.667 LW
N
909 130.25 M
901.22 130.25 L
S
GR
GS
[0.75 0 0 0.75 0 0.25] CT
0.149 GC
2 setlinecap
1 LJ
2.667 LW
N
909 83.125 M
901.22 83.125 L
S
GR
GS
[0.75 0 0 0.75 0 0.25] CT
0.149 GC
2 setlinecap
1 LJ
2.667 LW
N
909 36 M
901.22 36 L
S
GR
GS
[0.75 0 0 0.75 93.45 310] CT
0.149 GC
/Helvetica 18.667 F
GS
[1 0 0 1 0 0] CT
-26 7 moveto 
1 -1 scale
(0.2) t 
GR
GR
GS
[0.75 0 0 0.75 93.45 274.65625] CT
0.149 GC
/Helvetica 18.667 F
GS
[1 0 0 1 0 0] CT
-26 7 moveto 
1 -1 scale
(0.3) t 
GR
GR
GS
[0.75 0 0 0.75 93.45 239.3125] CT
0.149 GC
/Helvetica 18.667 F
GS
[1 0 0 1 0 0] CT
-26 7 moveto 
1 -1 scale
(0.4) t 
GR
GR
GS
[0.75 0 0 0.75 93.45 203.96875] CT
0.149 GC
/Helvetica 18.667 F
GS
[1 0 0 1 0 0] CT
-26 7 moveto 
1 -1 scale
(0.5) t 
GR
GR
GS
[0.75 0 0 0.75 93.45 168.62499] CT
0.149 GC
/Helvetica 18.667 F
GS
[1 0 0 1 0 0] CT
-26 7 moveto 
1 -1 scale
(0.6) t 
GR
GR
GS
[0.75 0 0 0.75 93.45 133.28125] CT
0.149 GC
/Helvetica 18.667 F
GS
[1 0 0 1 0 0] CT
-26 7 moveto 
1 -1 scale
(0.7) t 
GR
GR
GS
[0.75 0 0 0.75 93.45 97.9375] CT
0.149 GC
/Helvetica 18.667 F
GS
[1 0 0 1 0 0] CT
-26 7 moveto 
1 -1 scale
(0.8) t 
GR
GR
GS
[0.75 0 0 0.75 93.45 62.59376] CT
0.149 GC
/Helvetica 18.667 F
GS
[1 0 0 1 0 0] CT
-26 7 moveto 
1 -1 scale
(0.9) t 
GR
GR
GS
[0.75 0 0 0.75 93.45 27.25] CT
0.149 GC
/Helvetica 18.667 F
GS
[1 0 0 1 0 0] CT
-11 7 moveto 
1 -1 scale
(1) t 
GR
GR
GS
[0 -0.75 0.75 0 70.95 168.62486] CT
0.149 GC
N
-24.069 -9.6 M
-24.319 -9.6 -24.319 -9.959 QT
-24.319 -10.022 -24.28 -10.186 QT
-24.241 -10.35 -24.162 -10.452 QT
-24.084 -10.553 -23.991 -10.553 QT
-22.334 -10.553 -21.678 -10.741 QT
-21.334 -10.85 -21.178 -11.459 QT
-17.475 -26.288 L
-17.412 -26.553 -17.412 -26.663 QT
-17.412 -26.944 -17.741 -26.991 QT
-18.256 -27.1 -19.678 -27.1 QT
-19.944 -27.1 -19.944 -27.444 QT
-19.944 -27.522 -19.897 -27.686 QT
-19.85 -27.85 -19.78 -27.944 QT
-19.709 -28.038 -19.6 -28.038 QT
-10.287 -28.038 L
-9.006 -28.038 -7.803 -27.584 QT
-6.6 -27.131 -5.842 -26.194 QT
-5.084 -25.256 -5.084 -23.928 QT
-5.084 -22.209 -6.287 -20.866 QT
-7.491 -19.522 -9.287 -18.772 QT
-11.084 -18.022 -12.772 -18.022 QT
-17.162 -18.022 L
-18.819 -11.35 L
-18.866 -11.084 -18.866 -10.975 QT
-18.866 -10.866 -18.834 -10.795 QT
-18.803 -10.725 -18.741 -10.702 QT
-18.678 -10.678 -18.553 -10.663 QT
-18.037 -10.553 -16.6 -10.553 QT
-16.334 -10.553 -16.334 -10.194 QT
-16.428 -9.819 -16.483 -9.709 QT
-16.537 -9.6 -16.803 -9.6 QT
-24.069 -9.6 L
cp
-17.037 -18.834 M
-13.256 -18.834 L
-10.631 -18.834 -9.256 -20.241 QT
-8.553 -20.944 -8.116 -22.256 QT
-7.678 -23.569 -7.678 -24.647 QT
-7.678 -25.975 -8.694 -26.538 QT
-9.709 -27.1 -11.209 -27.1 QT
-13.787 -27.1 L
-14.537 -27.1 -14.772 -26.975 QT
-15.006 -26.85 -15.209 -26.178 QT
-17.037 -18.834 L
cp
f
GR
GS
[0 -0.75 0.75 0 70.95 168.62486] CT
0.149 GC
N
-6.792 -5.928 M
-6.792 -6.038 -6.776 -6.085 QT
-5.355 -11.756 L
-5.214 -12.288 -5.214 -12.694 QT
-5.214 -13.506 -5.776 -13.506 QT
-6.37 -13.506 -6.659 -12.795 QT
-6.948 -12.085 -7.214 -11.006 QT
-7.214 -10.944 -7.269 -10.913 QT
-7.323 -10.881 -7.37 -10.881 QT
-7.589 -10.881 L
-7.651 -10.881 -7.698 -10.952 QT
-7.745 -11.022 -7.745 -11.069 QT
-7.542 -11.897 -7.355 -12.475 QT
-7.167 -13.053 -6.761 -13.522 QT
-6.355 -13.991 -5.761 -13.991 QT
-5.105 -13.991 -4.605 -13.616 QT
-4.105 -13.241 -3.98 -12.616 QT
-3.495 -13.241 -2.878 -13.616 QT
-2.261 -13.991 -1.542 -13.991 QT
-0.933 -13.991 -0.472 -13.639 QT
-0.011 -13.288 -0.011 -12.694 QT
-0.011 -12.21 -0.316 -11.85 QT
-0.62 -11.491 -1.12 -11.491 QT
-1.417 -11.491 -1.628 -11.678 QT
-1.839 -11.866 -1.839 -12.178 QT
-1.839 -12.6 -1.534 -12.928 QT
-1.23 -13.256 -0.823 -13.256 QT
-1.136 -13.506 -1.573 -13.506 QT
-2.386 -13.506 -2.987 -12.928 QT
-3.589 -12.35 -4.073 -11.46 QT
-5.433 -6.022 L
-5.495 -5.756 -5.722 -5.569 QT
-5.948 -5.381 -6.23 -5.381 QT
-6.464 -5.381 -6.628 -5.53 QT
-6.792 -5.678 -6.792 -5.928 QT
cp
f
GR
GS
[0 -0.75 0.75 0 70.95 168.62486] CT
0.149 GC
N
4.507 -5.381 M
3.586 -5.381 2.906 -5.858 QT
2.226 -6.335 1.867 -7.139 QT
1.507 -7.944 1.507 -8.835 QT
1.507 -10.178 2.195 -11.374 QT
2.882 -12.569 4.047 -13.28 QT
5.211 -13.991 6.554 -13.991 QT
7.367 -13.991 7.976 -13.569 QT
8.586 -13.147 8.586 -12.366 QT
8.586 -11.272 7.711 -10.741 QT
6.836 -10.21 5.742 -10.077 QT
4.648 -9.944 3.32 -9.944 QT
3.273 -9.944 L
2.961 -8.819 2.961 -8.006 QT
2.961 -7.163 3.351 -6.522 QT
3.742 -5.881 4.539 -5.881 QT
5.664 -5.881 6.711 -6.405 QT
7.757 -6.928 8.414 -7.85 QT
8.476 -7.897 8.57 -7.897 QT
8.664 -7.897 8.757 -7.795 QT
8.851 -7.694 8.851 -7.6 QT
8.851 -7.522 8.82 -7.491 QT
8.117 -6.506 6.937 -5.944 QT
5.757 -5.381 4.507 -5.381 QT
cp
3.382 -10.444 M
4.476 -10.444 5.414 -10.545 QT
6.351 -10.647 7.117 -11.061 QT
7.882 -11.475 7.882 -12.35 QT
7.882 -12.694 7.687 -12.96 QT
7.492 -13.225 7.179 -13.366 QT
6.867 -13.506 6.539 -13.506 QT
5.726 -13.506 5.078 -13.069 QT
4.429 -12.631 4.015 -11.928 QT
3.601 -11.225 3.382 -10.444 QT
cp
f
GR
GS
[0 -0.75 0.75 0 70.95 168.62486] CT
0.149 GC
N
11.027 -6.756 M
11.527 -5.881 13.074 -5.881 QT
13.746 -5.881 14.348 -6.116 QT
14.949 -6.35 15.34 -6.803 QT
15.73 -7.256 15.73 -7.897 QT
15.73 -8.397 15.379 -8.71 QT
15.027 -9.022 14.527 -9.131 QT
13.496 -9.335 L
12.793 -9.522 12.332 -9.999 QT
11.871 -10.475 11.871 -11.163 QT
11.871 -12.006 12.332 -12.655 QT
12.793 -13.303 13.543 -13.647 QT
14.293 -13.991 15.105 -13.991 QT
15.965 -13.991 16.644 -13.585 QT
17.324 -13.178 17.324 -12.366 QT
17.324 -11.928 17.082 -11.592 QT
16.84 -11.256 16.402 -11.256 QT
16.152 -11.256 15.973 -11.42 QT
15.793 -11.585 15.793 -11.835 QT
15.793 -12.053 15.918 -12.264 QT
16.043 -12.475 16.254 -12.6 QT
16.465 -12.725 16.684 -12.725 QT
16.512 -13.131 16.051 -13.319 QT
15.59 -13.506 15.074 -13.506 QT
14.59 -13.506 14.105 -13.311 QT
13.621 -13.116 13.332 -12.741 QT
13.043 -12.366 13.043 -11.85 QT
13.043 -11.506 13.277 -11.249 QT
13.512 -10.991 13.871 -10.881 QT
14.98 -10.663 L
15.496 -10.538 15.941 -10.256 QT
16.387 -9.975 16.644 -9.545 QT
16.902 -9.116 16.902 -8.553 QT
16.902 -7.85 16.504 -7.163 QT
16.105 -6.475 15.527 -6.069 QT
14.527 -5.381 13.059 -5.381 QT
12.043 -5.381 11.199 -5.85 QT
10.355 -6.319 10.355 -7.241 QT
10.355 -7.756 10.66 -8.139 QT
10.965 -8.522 11.48 -8.522 QT
11.777 -8.522 11.988 -8.335 QT
12.199 -8.147 12.199 -7.85 QT
12.199 -7.413 11.879 -7.085 QT
11.559 -6.756 11.121 -6.756 QT
11.027 -6.756 L
cp
f
GR
GS
[0 -0.75 0.75 0 70.95 168.62486] CT
0.149 GC
N
19.137 -3.738 M
19.137 -3.972 19.246 -4.238 QT
20.293 -7.035 L
20.465 -7.519 20.465 -7.816 QT
20.465 -8.206 20.184 -8.206 QT
19.668 -8.206 19.332 -7.675 QT
18.996 -7.144 18.84 -6.488 QT
18.809 -6.41 18.73 -6.41 QT
18.574 -6.41 L
18.465 -6.41 18.465 -6.535 QT
18.465 -6.566 L
18.684 -7.347 19.113 -7.949 QT
19.543 -8.55 20.199 -8.55 QT
20.668 -8.55 20.988 -8.245 QT
21.309 -7.941 21.309 -7.472 QT
21.309 -7.222 21.199 -6.956 QT
20.152 -4.16 L
19.965 -3.738 19.965 -3.378 QT
19.965 -3.003 20.262 -3.003 QT
20.777 -3.003 21.113 -3.542 QT
21.449 -4.081 21.59 -4.706 QT
21.621 -4.785 21.699 -4.785 QT
21.855 -4.785 L
21.902 -4.785 21.934 -4.753 QT
21.965 -4.722 21.965 -4.675 QT
21.965 -4.66 21.949 -4.628 QT
21.777 -3.894 21.34 -3.277 QT
20.902 -2.66 20.246 -2.66 QT
19.777 -2.66 19.457 -2.972 QT
19.137 -3.285 19.137 -3.738 QT
cp
20.605 -10.675 M
20.605 -10.956 20.832 -11.175 QT
21.059 -11.394 21.34 -11.394 QT
21.559 -11.394 21.699 -11.261 QT
21.84 -11.128 21.84 -10.91 QT
21.84 -10.628 21.605 -10.402 QT
21.371 -10.175 21.105 -10.175 QT
20.887 -10.175 20.746 -10.324 QT
20.605 -10.472 20.605 -10.675 QT
cp
f
GR
GS
[0.75 0 0 0.75 0 0.25] CT
1 0 0 RC
[8 3 2 3] 0 setdash
2 LJ
1.733 LW
N
177.25 413.045 M
186.571 318.91 L
197.686 250.813 L
208.8 210.722 L
219.914 188.269 L
231.029 174.402 L
242.143 165.165 L
253.257 158.983 L
264.371 154.517 L
275.486 151.085 L
286.6 148.404 L
297.714 146.471 L
308.829 144.788 L
319.943 143.523 L
331.057 142.404 L
342.171 141.537 L
353.286 140.734 L
364.4 140.129 L
375.514 139.552 L
386.629 139.084 L
397.743 138.674 L
408.857 138.28 L
419.971 137.982 L
431.086 137.698 L
442.2 137.424 L
453.314 137.212 L
464.429 137.012 L
475.543 136.819 L
486.657 136.651 L
497.771 136.508 L
508.886 136.37 L
520 136.236 L
531.114 136.123 L
542.229 136.023 L
553.343 135.926 L
564.457 135.831 L
575.571 135.745 L
586.686 135.674 L
597.8 135.605 L
608.914 135.538 L
620.029 135.472 L
631.143 135.413 L
642.257 135.363 L
653.371 135.315 L
664.486 135.267 L
675.6 135.22 L
686.714 135.174 L
697.829 135.139 L
708.943 135.104 L
720.057 135.07 L
731.171 135.036 L
742.286 135.004 L
753.4 134.971 L
764.514 134.945 L
775.629 134.921 L
786.743 134.897 L
797.857 134.873 L
808.971 134.849 L
820.086 134.826 L
831.2 134.804 L
842.314 134.786 L
853.429 134.769 L
864.543 134.752 L
875.657 134.735 L
886.771 134.718 L
897.886 134.702 L
909 134.686 L
909.093 134.686 L
S
GR
GS
[0.75 0 0 0.75 181.60714 124.12383] CT
1 0 0 RC
10.0 ML
1.733 LW
N
-6 -6 M
-6 6 L
6 6 L
6 -6 L
cp
S
GR
GS
[0.75 0 0 0.75 264.96428 105.8008] CT
1 0 0 RC
10.0 ML
1.733 LW
N
-6 -6 M
-6 6 L
6 6 L
6 -6 L
cp
S
GR
GS
[0.75 0 0 0.75 348.32142 103.00916] CT
1 0 0 RC
10.0 ML
1.733 LW
N
-6 -6 M
-6 6 L
6 6 L
6 -6 L
cp
S
GR
GS
[0.75 0 0 0.75 431.67856 102.05883] CT
1 0 0 RC
10.0 ML
1.733 LW
N
-6 -6 M
-6 6 L
6 6 L
6 -6 L
cp
S
GR
GS
[0.75 0 0 0.75 515.03572 101.63075] CT
1 0 0 RC
10.0 ML
1.733 LW
N
-6 -6 M
-6 6 L
6 6 L
6 -6 L
cp
S
GR
GS
[0.75 0 0 0.75 598.39284 101.40465] CT
1 0 0 RC
10.0 ML
1.733 LW
N
-6 -6 M
-6 6 L
6 6 L
6 -6 L
cp
S
GR
GS
[0.75 0 0 0.75 681.75 101.26432] CT
1 0 0 RC
10.0 ML
1.733 LW
N
-6 -6 M
-6 6 L
6 6 L
6 -6 L
cp
S
GR
GS
[0.75 0 0 0.75 0 0.25] CT
0 0 1 RC
[8 3 2 3] 0 setdash
2 LJ
1.733 LW
N
190.565 413.045 M
197.686 362.268 L
208.8 294.309 L
219.914 247.492 L
231.029 215.303 L
242.143 192.893 L
253.257 177.009 L
264.371 165.715 L
275.486 157.227 L
286.6 150.417 L
297.714 145.328 L
308.829 141.169 L
319.943 137.773 L
331.057 135.043 L
342.171 132.72 L
353.286 130.772 L
364.4 129.157 L
375.514 127.687 L
386.629 126.52 L
397.743 125.426 L
408.857 124.486 L
419.971 123.701 L
431.086 122.946 L
442.2 122.296 L
453.314 121.744 L
464.429 121.215 L
475.543 120.729 L
486.657 120.325 L
497.771 119.948 L
508.886 119.583 L
520 119.26 L
531.114 118.981 L
542.229 118.718 L
553.343 118.462 L
564.457 118.226 L
575.571 118.025 L
586.686 117.838 L
597.8 117.655 L
608.914 117.477 L
620.029 117.321 L
631.143 117.181 L
642.257 117.05 L
653.371 116.921 L
664.486 116.796 L
675.6 116.679 L
686.714 116.577 L
697.829 116.484 L
708.943 116.392 L
720.057 116.302 L
731.171 116.214 L
742.286 116.133 L
753.4 116.061 L
764.514 115.995 L
775.629 115.93 L
786.743 115.866 L
797.857 115.804 L
808.971 115.742 L
820.086 115.688 L
831.2 115.637 L
842.314 115.591 L
853.429 115.545 L
864.543 115.501 L
875.657 115.456 L
886.771 115.413 L
897.886 115.371 L
909 115.335 L
909.093 115.335 L
S
GR
GS
[0.75 0 0 0.75 181.60714 144.92012] CT
0 0 1 RC
10.0 ML
1.733 LW
N
-8 0 M
0 10.64 L
8 0 L
0 -10.64 L
cp
S
GR
GS
[0.75 0 0 0.75 264.96428 98.32893] CT
0 0 1 RC
10.0 ML
1.733 LW
N
-8 0 M
0 10.64 L
8 0 L
0 -10.64 L
cp
S
GR
GS
[0.75 0 0 0.75 348.32142 91.16103] CT
0 0 1 RC
10.0 ML
1.733 LW
N
-8 0 M
0 10.64 L
8 0 L
0 -10.64 L
cp
S
GR
GS
[0.75 0 0 0.75 431.67856 88.76842] CT
0 0 1 RC
10.0 ML
1.733 LW
N
-8 0 M
0 10.64 L
8 0 L
0 -10.64 L
cp
S
GR
GS
[0.75 0 0 0.75 515.03572 87.68278] CT
0 0 1 RC
10.0 ML
1.733 LW
N
-8 0 M
0 10.64 L
8 0 L
0 -10.64 L
cp
S
GR
GS
[0.75 0 0 0.75 598.39284 87.10275] CT
0 0 1 RC
10.0 ML
1.733 LW
N
-8 0 M
0 10.64 L
8 0 L
0 -10.64 L
cp
S
GR
GS
[0.75 0 0 0.75 681.75 86.75124] CT
0 0 1 RC
10.0 ML
1.733 LW
N
-8 0 M
0 10.64 L
8 0 L
0 -10.64 L
cp
S
GR
GS
[0.75 0 0 0.75 0 0.25] CT
0 1 0 RC
[8 3 2 3] 0 setdash
2 LJ
1.733 LW
N
200.024 413.045 M
208.8 356.563 L
219.914 296.616 L
231.029 251.602 L
242.143 218.323 L
253.257 194.768 L
264.371 177.227 L
275.486 163.534 L
286.6 152.704 L
297.714 144.818 L
308.829 137.971 L
319.943 132.784 L
331.057 128.238 L
342.171 124.68 L
353.286 121.422 L
364.4 118.947 L
375.514 116.596 L
386.629 114.698 L
397.743 113.019 L
408.857 111.439 L
419.971 110.22 L
431.086 109.06 L
442.2 107.966 L
453.314 107.102 L
464.429 106.289 L
475.543 105.51 L
486.657 104.835 L
497.771 104.258 L
508.886 103.697 L
520 103.162 L
531.114 102.707 L
542.229 102.303 L
553.343 101.909 L
564.457 101.53 L
575.571 101.187 L
586.686 100.9 L
597.8 100.621 L
608.914 100.347 L
620.029 100.086 L
631.143 99.853 L
642.257 99.651 L
653.371 99.455 L
664.486 99.262 L
675.6 99.075 L
686.714 98.896 L
697.829 98.752 L
708.943 98.612 L
720.057 98.474 L
731.171 98.339 L
742.286 98.208 L
753.4 98.082 L
764.514 97.977 L
775.629 97.878 L
786.743 97.781 L
797.857 97.685 L
808.971 97.59 L
820.086 97.5 L
831.2 97.411 L
842.314 97.34 L
853.429 97.27 L
864.543 97.201 L
875.657 97.133 L
886.771 97.066 L
897.886 97 L
909 96.938 L
909.093 96.937 L
S
GR
GS
[0.75 0 0 0.75 181.60714 163.99209] CT
0 1 0 RC
10.0 ML
1.733 LW
N
8 0 M
8 -4.418 4.418 -8 0 -8 C
-4.418 -8 -8 -4.418 -8 0 C
-8 4.418 -4.418 8 0 8 C
4.418 8 8 4.418 8 0 C
cp
S
GR
GS
[0.75 0 0 0.75 264.96428 91.31643] CT
0 1 0 RC
10.0 ML
1.733 LW
N
8 0 M
8 -4.418 4.418 -8 0 -8 C
-4.418 -8 -8 -4.418 -8 0 C
-8 4.418 -4.418 8 0 8 C
4.418 8 8 4.418 8 0 C
cp
S
GR
GS
[0.75 0 0 0.75 348.32142 79.96652] CT
0 1 0 RC
10.0 ML
1.733 LW
N
8 0 M
8 -4.418 4.418 -8 0 -8 C
-4.418 -8 -8 -4.418 -8 0 C
-8 4.418 -4.418 8 0 8 C
4.418 8 8 4.418 8 0 C
cp
S
GR
GS
[0.75 0 0 0.75 431.67856 76.14022] CT
0 1 0 RC
10.0 ML
1.733 LW
N
8 0 M
8 -4.418 4.418 -8 0 -8 C
-4.418 -8 -8 -4.418 -8 0 C
-8 4.418 -4.418 8 0 8 C
4.418 8 8 4.418 8 0 C
cp
S
GR
GS
[0.75 0 0 0.75 515.03572 74.42229] CT
0 1 0 RC
10.0 ML
1.733 LW
N
8 0 M
8 -4.418 4.418 -8 0 -8 C
-4.418 -8 -8 -4.418 -8 0 C
-8 4.418 -4.418 8 0 8 C
4.418 8 8 4.418 8 0 C
cp
S
GR
GS
[0.75 0 0 0.75 598.39284 73.51348] CT
0 1 0 RC
10.0 ML
1.733 LW
N
8 0 M
8 -4.418 4.418 -8 0 -8 C
-4.418 -8 -8 -4.418 -8 0 C
-8 4.418 -4.418 8 0 8 C
4.418 8 8 4.418 8 0 C
cp
S
GR
GS
[0.75 0 0 0.75 681.75 72.95324] CT
0 1 0 RC
10.0 ML
1.733 LW
N
8 0 M
8 -4.418 4.418 -8 0 -8 C
-4.418 -8 -8 -4.418 -8 0 C
-8 4.418 -4.418 8 0 8 C
4.418 8 8 4.418 8 0 C
cp
S
GR
GS
[0.75 0 0 0.75 0 0.25] CT
1 0 0 RC
1 LJ
1.733 LW
N
131 134.161 M
142.114 134.161 L
153.229 134.161 L
164.343 134.161 L
175.457 134.161 L
186.571 134.161 L
197.686 134.161 L
208.8 134.161 L
219.914 134.161 L
231.029 134.161 L
242.143 134.161 L
253.257 134.161 L
264.371 134.161 L
275.486 134.161 L
286.6 134.161 L
297.714 134.161 L
308.829 134.161 L
319.943 134.161 L
331.057 134.161 L
342.171 134.161 L
353.286 134.161 L
364.4 134.161 L
375.514 134.161 L
386.629 134.161 L
397.743 134.161 L
408.857 134.161 L
419.971 134.161 L
431.086 134.161 L
442.2 134.161 L
453.314 134.161 L
464.429 134.161 L
475.543 134.161 L
486.657 134.161 L
497.771 134.161 L
508.886 134.161 L
520 134.161 L
531.114 134.161 L
542.229 134.161 L
553.343 134.161 L
564.457 134.161 L
575.571 134.161 L
586.686 134.161 L
597.8 134.161 L
608.914 134.161 L
620.029 134.161 L
631.143 134.161 L
642.257 134.161 L
653.371 134.161 L
664.486 134.161 L
675.6 134.161 L
686.714 134.161 L
697.829 134.161 L
708.943 134.161 L
720.057 134.161 L
731.171 134.161 L
742.286 134.161 L
753.4 134.161 L
764.514 134.161 L
775.629 134.161 L
786.743 134.161 L
797.857 134.161 L
808.971 134.161 L
820.086 134.161 L
831.2 134.161 L
842.314 134.161 L
853.429 134.161 L
864.543 134.161 L
875.657 134.161 L
886.771 134.161 L
897.886 134.161 L
909 134.161 L
909.093 134.161 L
S
GR
GS
[0.75 0 0 0.75 98.25 100.87103] CT
1 0 0 RC
10.0 ML
1.733 LW
N
-6 -6 M
-6 6 L
6 6 L
6 -6 L
cp
S
GR
GS
[0.75 0 0 0.75 181.60714 100.87103] CT
1 0 0 RC
10.0 ML
1.733 LW
N
-6 -6 M
-6 6 L
6 6 L
6 -6 L
cp
S
GR
GS
[0.75 0 0 0.75 264.96428 100.87103] CT
1 0 0 RC
10.0 ML
1.733 LW
N
-6 -6 M
-6 6 L
6 6 L
6 -6 L
cp
S
GR
GS
[0.75 0 0 0.75 348.32142 100.87103] CT
1 0 0 RC
10.0 ML
1.733 LW
N
-6 -6 M
-6 6 L
6 6 L
6 -6 L
cp
S
GR
GS
[0.75 0 0 0.75 431.67856 100.87103] CT
1 0 0 RC
10.0 ML
1.733 LW
N
-6 -6 M
-6 6 L
6 6 L
6 -6 L
cp
S
GR
GS
[0.75 0 0 0.75 515.03572 100.87103] CT
1 0 0 RC
10.0 ML
1.733 LW
N
-6 -6 M
-6 6 L
6 6 L
6 -6 L
cp
S
GR
GS
[0.75 0 0 0.75 598.39284 100.87103] CT
1 0 0 RC
10.0 ML
1.733 LW
N
-6 -6 M
-6 6 L
6 6 L
6 -6 L
cp
S
GR
GS
[0.75 0 0 0.75 681.75 100.87103] CT
1 0 0 RC
10.0 ML
1.733 LW
N
-6 -6 M
-6 6 L
6 6 L
6 -6 L
cp
S
GR
GS
[0.75 0 0 0.75 0 0.25] CT
0 0 1 RC
1 LJ
1.733 LW
N
131 114.039 M
142.114 114.039 L
153.229 114.039 L
164.343 114.039 L
175.457 114.039 L
186.571 114.039 L
197.686 114.039 L
208.8 114.039 L
219.914 114.039 L
231.029 114.039 L
242.143 114.039 L
253.257 114.039 L
264.371 114.039 L
275.486 114.039 L
286.6 114.039 L
297.714 114.039 L
308.829 114.039 L
319.943 114.039 L
331.057 114.039 L
342.171 114.039 L
353.286 114.039 L
364.4 114.039 L
375.514 114.039 L
386.629 114.039 L
397.743 114.039 L
408.857 114.039 L
419.971 114.039 L
431.086 114.039 L
442.2 114.039 L
453.314 114.039 L
464.429 114.039 L
475.543 114.039 L
486.657 114.039 L
497.771 114.039 L
508.886 114.039 L
520 114.039 L
531.114 114.039 L
542.229 114.039 L
553.343 114.039 L
564.457 114.039 L
575.571 114.039 L
586.686 114.039 L
597.8 114.039 L
608.914 114.039 L
620.029 114.039 L
631.143 114.039 L
642.257 114.039 L
653.371 114.039 L
664.486 114.039 L
675.6 114.039 L
686.714 114.039 L
697.829 114.039 L
708.943 114.039 L
720.057 114.039 L
731.171 114.039 L
742.286 114.039 L
753.4 114.039 L
764.514 114.039 L
775.629 114.039 L
786.743 114.039 L
797.857 114.039 L
808.971 114.039 L
820.086 114.039 L
831.2 114.039 L
842.314 114.039 L
853.429 114.039 L
864.543 114.039 L
875.657 114.039 L
886.771 114.039 L
897.886 114.039 L
909 114.039 L
909.093 114.039 L
S
GR
GS
[0.75 0 0 0.75 98.25 85.77925] CT
0 0 1 RC
10.0 ML
1.733 LW
N
-8 0 M
0 10.64 L
8 0 L
0 -10.64 L
cp
S
GR
GS
[0.75 0 0 0.75 181.60714 85.77925] CT
0 0 1 RC
10.0 ML
1.733 LW
N
-8 0 M
0 10.64 L
8 0 L
0 -10.64 L
cp
S
GR
GS
[0.75 0 0 0.75 264.96428 85.77925] CT
0 0 1 RC
10.0 ML
1.733 LW
N
-8 0 M
0 10.64 L
8 0 L
0 -10.64 L
cp
S
GR
GS
[0.75 0 0 0.75 348.32142 85.77925] CT
0 0 1 RC
10.0 ML
1.733 LW
N
-8 0 M
0 10.64 L
8 0 L
0 -10.64 L
cp
S
GR
GS
[0.75 0 0 0.75 431.67856 85.77925] CT
0 0 1 RC
10.0 ML
1.733 LW
N
-8 0 M
0 10.64 L
8 0 L
0 -10.64 L
cp
S
GR
GS
[0.75 0 0 0.75 515.03572 85.77925] CT
0 0 1 RC
10.0 ML
1.733 LW
N
-8 0 M
0 10.64 L
8 0 L
0 -10.64 L
cp
S
GR
GS
[0.75 0 0 0.75 598.39284 85.77925] CT
0 0 1 RC
10.0 ML
1.733 LW
N
-8 0 M
0 10.64 L
8 0 L
0 -10.64 L
cp
S
GR
GS
[0.75 0 0 0.75 681.75 85.77925] CT
0 0 1 RC
10.0 ML
1.733 LW
N
-8 0 M
0 10.64 L
8 0 L
0 -10.64 L
cp
S
GR
GS
[0.75 0 0 0.75 0 0.25] CT
0 1 0 RC
1 LJ
1.733 LW
N
131 94.906 M
142.114 94.906 L
153.229 94.906 L
164.343 94.906 L
175.457 94.906 L
186.571 94.906 L
197.686 94.906 L
208.8 94.906 L
219.914 94.906 L
231.029 94.906 L
242.143 94.906 L
253.257 94.906 L
264.371 94.906 L
275.486 94.906 L
286.6 94.906 L
297.714 94.906 L
308.829 94.906 L
319.943 94.906 L
331.057 94.906 L
342.171 94.906 L
353.286 94.906 L
364.4 94.906 L
375.514 94.906 L
386.629 94.906 L
397.743 94.906 L
408.857 94.906 L
419.971 94.906 L
431.086 94.906 L
442.2 94.906 L
453.314 94.906 L
464.429 94.906 L
475.543 94.906 L
486.657 94.906 L
497.771 94.906 L
508.886 94.906 L
520 94.906 L
531.114 94.906 L
542.229 94.906 L
553.343 94.906 L
564.457 94.906 L
575.571 94.906 L
586.686 94.906 L
597.8 94.906 L
608.914 94.906 L
620.029 94.906 L
631.143 94.906 L
642.257 94.906 L
653.371 94.906 L
664.486 94.906 L
675.6 94.906 L
686.714 94.906 L
697.829 94.906 L
708.943 94.906 L
720.057 94.906 L
731.171 94.906 L
742.286 94.906 L
753.4 94.906 L
764.514 94.906 L
775.629 94.906 L
786.743 94.906 L
797.857 94.906 L
808.971 94.906 L
820.086 94.906 L
831.2 94.906 L
842.314 94.906 L
853.429 94.906 L
864.543 94.906 L
875.657 94.906 L
886.771 94.906 L
897.886 94.906 L
909 94.906 L
909.093 94.906 L
S
GR
GS
[0.75 0 0 0.75 98.25 71.42969] CT
0 1 0 RC
10.0 ML
1.733 LW
N
8 0 M
8 -4.418 4.418 -8 0 -8 C
-4.418 -8 -8 -4.418 -8 0 C
-8 4.418 -4.418 8 0 8 C
4.418 8 8 4.418 8 0 C
cp
S
GR
GS
[0.75 0 0 0.75 181.60714 71.42969] CT
0 1 0 RC
10.0 ML
1.733 LW
N
8 0 M
8 -4.418 4.418 -8 0 -8 C
-4.418 -8 -8 -4.418 -8 0 C
-8 4.418 -4.418 8 0 8 C
4.418 8 8 4.418 8 0 C
cp
S
GR
GS
[0.75 0 0 0.75 264.96428 71.42969] CT
0 1 0 RC
10.0 ML
1.733 LW
N
8 0 M
8 -4.418 4.418 -8 0 -8 C
-4.418 -8 -8 -4.418 -8 0 C
-8 4.418 -4.418 8 0 8 C
4.418 8 8 4.418 8 0 C
cp
S
GR
GS
[0.75 0 0 0.75 348.32142 71.42969] CT
0 1 0 RC
10.0 ML
1.733 LW
N
8 0 M
8 -4.418 4.418 -8 0 -8 C
-4.418 -8 -8 -4.418 -8 0 C
-8 4.418 -4.418 8 0 8 C
4.418 8 8 4.418 8 0 C
cp
S
GR
GS
[0.75 0 0 0.75 431.67856 71.42969] CT
0 1 0 RC
10.0 ML
1.733 LW
N
8 0 M
8 -4.418 4.418 -8 0 -8 C
-4.418 -8 -8 -4.418 -8 0 C
-8 4.418 -4.418 8 0 8 C
4.418 8 8 4.418 8 0 C
cp
S
GR
GS
[0.75 0 0 0.75 515.03572 71.42969] CT
0 1 0 RC
10.0 ML
1.733 LW
N
8 0 M
8 -4.418 4.418 -8 0 -8 C
-4.418 -8 -8 -4.418 -8 0 C
-8 4.418 -4.418 8 0 8 C
4.418 8 8 4.418 8 0 C
cp
S
GR
GS
[0.75 0 0 0.75 598.39284 71.42969] CT
0 1 0 RC
10.0 ML
1.733 LW
N
8 0 M
8 -4.418 4.418 -8 0 -8 C
-4.418 -8 -8 -4.418 -8 0 C
-8 4.418 -4.418 8 0 8 C
4.418 8 8 4.418 8 0 C
cp
S
GR
GS
[0.75 0 0 0.75 681.75 71.42969] CT
0 1 0 RC
10.0 ML
1.733 LW
N
8 0 M
8 -4.418 4.418 -8 0 -8 C
-4.418 -8 -8 -4.418 -8 0 C
-8 4.418 -4.418 8 0 8 C
4.418 8 8 4.418 8 0 C
cp
S
GR
GS
[0.75 0 0 0.75 0 0.25] CT
1 0 0 RC
[1 3] 0 setdash
2 LJ
1.733 LW
N
152.311 413.045 M
153.229 404.568 L
164.343 251.046 L
175.457 200.19 L
186.571 179.855 L
197.686 169.925 L
208.8 164.109 L
219.914 160.736 L
231.029 158.186 L
242.143 156.677 L
253.257 155.552 L
264.371 154.658 L
275.486 153.938 L
286.6 153.349 L
297.714 152.864 L
308.829 152.458 L
319.943 152.181 L
331.057 151.966 L
342.171 151.782 L
353.286 151.623 L
364.4 151.485 L
375.514 151.364 L
386.629 151.259 L
397.743 151.165 L
408.857 151.082 L
419.971 151.009 L
431.086 150.943 L
442.2 150.883 L
453.314 150.83 L
464.429 150.782 L
475.543 150.738 L
486.657 150.698 L
497.771 150.662 L
508.886 150.628 L
520 150.598 L
531.114 150.57 L
542.229 150.544 L
553.343 150.52 L
564.457 150.498 L
575.571 150.477 L
586.686 150.458 L
597.8 150.441 L
608.914 150.424 L
620.029 150.409 L
631.143 150.394 L
642.257 150.381 L
653.371 150.368 L
664.486 150.356 L
675.6 150.345 L
686.714 150.335 L
697.829 150.325 L
708.943 150.316 L
720.057 150.307 L
731.171 150.298 L
742.286 150.291 L
753.4 150.283 L
764.514 150.276 L
775.629 150.269 L
786.743 150.263 L
797.857 150.257 L
808.971 150.251 L
820.086 150.246 L
831.2 150.24 L
842.314 150.235 L
853.429 150.231 L
864.543 150.226 L
875.657 150.222 L
886.771 150.217 L
897.886 150.213 L
909 150.21 L
909.093 150.21 L
S
GR
GS
[0.75 0 0 0.75 181.60714 117.75759] CT
1 0 0 RC
10.0 ML
1.733 LW
N
-6 -6 M
-6 6 L
6 6 L
6 -6 L
cp
S
GR
GS
[0.75 0 0 0.75 264.96428 113.96711] CT
1 0 0 RC
10.0 ML
1.733 LW
N
-6 -6 M
-6 6 L
6 6 L
6 -6 L
cp
S
GR
GS
[0.75 0 0 0.75 348.32142 113.33628] CT
1 0 0 RC
10.0 ML
1.733 LW
N
-6 -6 M
-6 6 L
6 6 L
6 -6 L
cp
S
GR
GS
[0.75 0 0 0.75 431.67856 113.10809] CT
1 0 0 RC
10.0 ML
1.733 LW
N
-6 -6 M
-6 6 L
6 6 L
6 -6 L
cp
S
GR
GS
[0.75 0 0 0.75 515.03572 113.00111] CT
1 0 0 RC
10.0 ML
1.733 LW
N
-6 -6 M
-6 6 L
6 6 L
6 -6 L
cp
S
GR
GS
[0.75 0 0 0.75 598.39284 112.94263] CT
1 0 0 RC
10.0 ML
1.733 LW
N
-6 -6 M
-6 6 L
6 6 L
6 -6 L
cp
S
GR
GS
[0.75 0 0 0.75 681.75 112.90724] CT
1 0 0 RC
10.0 ML
1.733 LW
N
-6 -6 M
-6 6 L
6 6 L
6 -6 L
cp
S
GR
GS
[0.75 0 0 0.75 0 0.25] CT
0 0 1 RC
[1 3] 0 setdash
2 LJ
1.733 LW
N
160.466 413.045 M
164.343 372.551 L
175.457 283.717 L
186.571 239.016 L
197.686 214.682 L
208.8 200.529 L
219.914 191.494 L
231.029 185.649 L
242.143 181.428 L
253.257 178.155 L
264.371 175.549 L
275.486 173.807 L
286.6 172.476 L
297.714 171.378 L
308.829 170.462 L
319.943 169.734 L
331.057 169.129 L
342.171 168.611 L
353.286 168.165 L
364.4 167.778 L
375.514 167.44 L
386.629 167.144 L
397.743 166.882 L
408.857 166.65 L
419.971 166.443 L
431.086 166.258 L
442.2 166.092 L
453.314 165.942 L
464.429 165.807 L
475.543 165.684 L
486.657 165.573 L
497.771 165.471 L
508.886 165.377 L
520 165.292 L
531.114 165.213 L
542.229 165.141 L
553.343 165.074 L
564.457 165.012 L
575.571 164.955 L
586.686 164.902 L
597.8 164.852 L
608.914 164.806 L
620.029 164.763 L
631.143 164.722 L
642.257 164.685 L
653.371 164.649 L
664.486 164.616 L
675.6 164.585 L
686.714 164.556 L
697.829 164.528 L
708.943 164.502 L
720.057 164.477 L
731.171 164.454 L
742.286 164.432 L
753.4 164.411 L
764.514 164.391 L
775.629 164.372 L
786.743 164.354 L
797.857 164.337 L
808.971 164.321 L
820.086 164.306 L
831.2 164.291 L
842.314 164.277 L
853.429 164.264 L
864.543 164.251 L
875.657 164.239 L
886.771 164.227 L
897.886 164.216 L
909 164.205 L
909.093 164.205 L
S
GR
GS
[0.75 0 0 0.75 181.60714 136.32136] CT
0 0 1 RC
10.0 ML
1.733 LW
N
-8 0 M
0 10.64 L
8 0 L
0 -10.64 L
cp
S
GR
GS
[0.75 0 0 0.75 264.96428 126.37399] CT
0 0 1 RC
10.0 ML
1.733 LW
N
-8 0 M
0 10.64 L
8 0 L
0 -10.64 L
cp
S
GR
GS
[0.75 0 0 0.75 348.32142 124.6052] CT
0 0 1 RC
10.0 ML
1.733 LW
N
-8 0 M
0 10.64 L
8 0 L
0 -10.64 L
cp
S
GR
GS
[0.75 0 0 0.75 431.67856 123.96615] CT
0 0 1 RC
10.0 ML
1.733 LW
N
-8 0 M
0 10.64 L
8 0 L
0 -10.64 L
cp
S
GR
GS
[0.75 0 0 0.75 515.03572 123.6667] CT
0 0 1 RC
10.0 ML
1.733 LW
N
-8 0 M
0 10.64 L
8 0 L
0 -10.64 L
cp
S
GR
GS
[0.75 0 0 0.75 598.39284 123.50306] CT
0 0 1 RC
10.0 ML
1.733 LW
N
-8 0 M
0 10.64 L
8 0 L
0 -10.64 L
cp
S
GR
GS
[0.75 0 0 0.75 681.75 123.40405] CT
0 0 1 RC
10.0 ML
1.733 LW
N
-8 0 M
0 10.64 L
8 0 L
0 -10.64 L
cp
S
GR
GS
[0.75 0 0 0.75 0 0.25] CT
0 1 0 RC
[1 3] 0 setdash
2 LJ
1.733 LW
N
167.525 413.045 M
175.457 349.348 L
186.571 291.682 L
197.686 259.098 L
208.8 237.952 L
219.914 224.82 L
231.029 214.912 L
242.143 208.202 L
253.257 203.753 L
264.371 200.199 L
275.486 197.421 L
286.6 195.172 L
297.714 193.311 L
308.829 191.757 L
319.943 190.507 L
331.057 189.463 L
342.171 188.569 L
353.286 187.797 L
364.4 187.128 L
375.514 186.543 L
386.629 186.029 L
397.743 185.575 L
408.857 185.172 L
419.971 184.814 L
431.086 184.493 L
442.2 184.205 L
453.314 183.945 L
464.429 183.71 L
475.543 183.497 L
486.657 183.303 L
497.771 183.126 L
508.886 182.964 L
520 182.816 L
531.114 182.679 L
542.229 182.553 L
553.343 182.437 L
564.457 182.329 L
575.571 182.23 L
586.686 182.137 L
597.8 182.051 L
608.914 181.977 L
620.029 181.918 L
631.143 181.862 L
642.257 181.81 L
653.371 181.761 L
664.486 181.716 L
675.6 181.673 L
686.714 181.632 L
697.829 181.594 L
708.943 181.558 L
720.057 181.524 L
731.171 181.492 L
742.286 181.461 L
753.4 181.432 L
764.514 181.405 L
775.629 181.379 L
786.743 181.355 L
797.857 181.331 L
808.971 181.309 L
820.086 181.288 L
831.2 181.267 L
842.314 181.248 L
853.429 181.23 L
864.543 181.212 L
875.657 181.195 L
886.771 181.179 L
897.886 181.164 L
909 181.149 L
909.093 181.149 L
S
GR
GS
[0.75 0 0 0.75 181.60714 156.40144] CT
0 1 0 RC
10.0 ML
1.733 LW
N
8 0 M
8 -4.418 4.418 -8 0 -8 C
-4.418 -8 -8 -4.418 -8 0 C
-8 4.418 -4.418 8 0 8 C
4.418 8 8 4.418 8 0 C
cp
S
GR
GS
[0.75 0 0 0.75 264.96428 141.09801] CT
0 1 0 RC
10.0 ML
1.733 LW
N
8 0 M
8 -4.418 4.418 -8 0 -8 C
-4.418 -8 -8 -4.418 -8 0 C
-8 4.418 -4.418 8 0 8 C
4.418 8 8 4.418 8 0 C
cp
S
GR
GS
[0.75 0 0 0.75 348.32142 138.03264] CT
0 1 0 RC
10.0 ML
1.733 LW
N
8 0 M
8 -4.418 4.418 -8 0 -8 C
-4.418 -8 -8 -4.418 -8 0 C
-8 4.418 -4.418 8 0 8 C
4.418 8 8 4.418 8 0 C
cp
S
GR
GS
[0.75 0 0 0.75 431.67856 136.92233] CT
0 1 0 RC
10.0 ML
1.733 LW
N
8 0 M
8 -4.418 4.418 -8 0 -8 C
-4.418 -8 -8 -4.418 -8 0 C
-8 4.418 -4.418 8 0 8 C
4.418 8 8 4.418 8 0 C
cp
S
GR
GS
[0.75 0 0 0.75 515.03572 136.47404] CT
0 1 0 RC
10.0 ML
1.733 LW
N
8 0 M
8 -4.418 4.418 -8 0 -8 C
-4.418 -8 -8 -4.418 -8 0 C
-8 4.418 -4.418 8 0 8 C
4.418 8 8 4.418 8 0 C
cp
S
GR
GS
[0.75 0 0 0.75 598.39284 136.24835] CT
0 1 0 RC
10.0 ML
1.733 LW
N
8 0 M
8 -4.418 4.418 -8 0 -8 C
-4.418 -8 -8 -4.418 -8 0 C
-8 4.418 -4.418 8 0 8 C
4.418 8 8 4.418 8 0 C
cp
S
GR
GS
[0.75 0 0 0.75 681.75 136.1118] CT
0 1 0 RC
10.0 ML
1.733 LW
N
8 0 M
8 -4.418 4.418 -8 0 -8 C
-4.418 -8 -8 -4.418 -8 0 C
-8 4.418 -4.418 8 0 8 C
4.418 8 8 4.418 8 0 C
cp
S
GR
GS
[0.75 0 0 0.75 0 0.25] CT
1 GC
N
853 393 M
853 302 L
732 302 L
732 393 L
cp
f
GR
GS
[0.75 0 0 0.75 584.27925 238.99616] CT
N
1.219 5.76 M
0.984 5.76 0.984 5.447 QT
1 5.385 1.031 5.244 QT
1.063 5.104 1.125 5.01 QT
1.188 4.916 1.297 4.916 QT
3.594 4.916 3.969 3.447 QT
7.078 -9.084 L
7.125 -9.318 7.125 -9.412 QT
7.125 -9.662 6.844 -9.693 QT
6.391 -9.787 5.109 -9.787 QT
4.875 -9.787 4.875 -10.115 QT
4.891 -10.162 4.922 -10.31 QT
4.953 -10.459 5.023 -10.545 QT
5.094 -10.631 5.188 -10.631 QT
9.406 -10.631 L
9.688 -10.631 9.719 -10.365 QT
11.594 3.385 L
20.328 -10.365 L
20.5 -10.631 20.797 -10.631 QT
24.875 -10.631 L
25.109 -10.631 25.109 -10.318 QT
25.094 -10.256 25.055 -10.115 QT
25.016 -9.974 24.953 -9.881 QT
24.891 -9.787 24.797 -9.787 QT
23.328 -9.787 22.766 -9.631 QT
22.438 -9.521 22.297 -8.974 QT
19.016 4.197 L
18.969 4.432 18.969 4.541 QT
18.969 4.635 18.992 4.697 QT
19.016 4.76 19.07 4.776 QT
19.125 4.791 19.25 4.822 QT
19.703 4.916 20.984 4.916 QT
21.219 4.916 21.219 5.229 QT
21.125 5.572 21.078 5.666 QT
21.031 5.76 20.813 5.76 QT
14.547 5.76 L
14.313 5.76 14.313 5.447 QT
14.328 5.385 14.359 5.236 QT
14.391 5.088 14.453 5.002 QT
14.516 4.916 14.609 4.916 QT
16.078 4.916 16.656 4.744 QT
16.969 4.651 17.109 4.104 QT
20.563 -9.787 L
10.875 5.494 L
10.734 5.76 10.391 5.76 QT
10.094 5.76 10.063 5.494 QT
8.016 -9.599 L
4.719 3.557 L
4.703 3.619 4.688 3.705 QT
4.672 3.791 4.656 3.901 QT
4.656 4.526 5.203 4.721 QT
5.75 4.916 6.531 4.916 QT
6.781 4.916 6.781 5.229 QT
6.688 5.541 6.641 5.651 QT
6.594 5.76 6.359 5.76 QT
1.219 5.76 L
cp
f
GR
GS
[0.75 0 0 0.75 584.27925 238.99616] CT
N
34.379 2.572 M
34.176 2.572 34.043 2.416 QT
33.91 2.26 33.91 2.088 QT
33.91 1.885 34.043 1.744 QT
34.176 1.604 34.379 1.604 QT
49.441 1.604 L
49.613 1.604 49.746 1.744 QT
49.879 1.885 49.879 2.088 QT
49.879 2.26 49.746 2.416 QT
49.613 2.572 49.441 2.572 QT
34.379 2.572 L
cp
34.379 -2.099 M
34.176 -2.099 34.043 -2.24 QT
33.91 -2.381 33.91 -2.568 QT
33.91 -2.756 34.043 -2.904 QT
34.176 -3.053 34.379 -3.053 QT
49.441 -3.053 L
49.613 -3.053 49.746 -2.904 QT
49.879 -2.756 49.879 -2.568 QT
49.879 -2.381 49.746 -2.24 QT
49.613 -2.099 49.441 -2.099 QT
34.379 -2.099 L
cp
f
GR
GS
[0.75 0 0 0.75 584.27925 238.99616] CT
N
59.103 5.76 M
59.103 5.119 L
59.103 5.057 59.15 4.979 QT
62.868 0.854 L
63.712 -0.053 64.243 -0.678 QT
64.775 -1.303 65.29 -2.107 QT
65.806 -2.912 66.103 -3.748 QT
66.4 -4.584 66.4 -5.521 QT
66.4 -6.506 66.033 -7.404 QT
65.665 -8.303 64.947 -8.842 QT
64.228 -9.381 63.212 -9.381 QT
62.165 -9.381 61.337 -8.756 QT
60.509 -8.131 60.165 -7.131 QT
60.259 -7.162 60.415 -7.162 QT
60.962 -7.162 61.345 -6.795 QT
61.728 -6.428 61.728 -5.849 QT
61.728 -5.303 61.345 -4.92 QT
60.962 -4.537 60.415 -4.537 QT
59.853 -4.537 59.478 -4.935 QT
59.103 -5.334 59.103 -5.849 QT
59.103 -6.756 59.439 -7.545 QT
59.775 -8.334 60.415 -8.951 QT
61.056 -9.568 61.861 -9.896 QT
62.665 -10.224 63.556 -10.224 QT
64.931 -10.224 66.118 -9.646 QT
67.306 -9.068 67.993 -8.006 QT
68.681 -6.943 68.681 -5.521 QT
68.681 -4.49 68.228 -3.553 QT
67.775 -2.615 67.056 -1.842 QT
66.337 -1.068 65.228 -0.099 QT
64.118 0.869 63.759 1.197 QT
61.04 3.807 L
63.353 3.807 L
65.056 3.807 66.197 3.783 QT
67.337 3.76 67.4 3.697 QT
67.681 3.385 67.978 1.479 QT
68.681 1.479 L
68.009 5.76 L
59.103 5.76 L
cp
f
GR
GS
[0.75 0 0 0.75 0 0.25] CT
1 0 0 RC
[8 3 2 3] 0 setdash
2 LJ
1.733 LW
N
736.003 318.328 M
776.036 318.328 L
S
GR
GS
[0.75 0 0 0.75 567.01492 238.99616] CT
1 0 0 RC
10.0 ML
1.733 LW
N
-6 -6 M
-6 6 L
6 6 L
6 -6 L
cp
S
GR
GS
[0.75 0 0 0.75 584.27925 260.875] CT
N
/f-76095220{1.219 5.76 M
0.984 5.76 0.984 5.447 QT
1 5.385 1.031 5.244 QT
1.063 5.104 1.125 5.01 QT
1.188 4.916 1.297 4.916 QT
3.594 4.916 3.969 3.447 QT
7.078 -9.084 L
7.125 -9.318 7.125 -9.412 QT
7.125 -9.662 6.844 -9.693 QT
6.391 -9.787 5.109 -9.787 QT
4.875 -9.787 4.875 -10.115 QT
4.891 -10.162 4.922 -10.31 QT
4.953 -10.459 5.023 -10.545 QT
5.094 -10.631 5.188 -10.631 QT
9.406 -10.631 L
9.688 -10.631 9.719 -10.365 QT
11.594 3.385 L
20.328 -10.365 L
20.5 -10.631 20.797 -10.631 QT
24.875 -10.631 L
25.109 -10.631 25.109 -10.318 QT
25.094 -10.256 25.055 -10.115 QT
25.016 -9.974 24.953 -9.881 QT
24.891 -9.787 24.797 -9.787 QT
23.328 -9.787 22.766 -9.631 QT
22.438 -9.521 22.297 -8.974 QT
19.016 4.197 L
18.969 4.432 18.969 4.541 QT
18.969 4.635 18.992 4.697 QT
19.016 4.76 19.07 4.776 QT
19.125 4.791 19.25 4.822 QT
19.703 4.916 20.984 4.916 QT
21.219 4.916 21.219 5.229 QT
21.125 5.572 21.078 5.666 QT
21.031 5.76 20.813 5.76 QT
14.547 5.76 L
14.313 5.76 14.313 5.447 QT
14.328 5.385 14.359 5.236 QT
14.391 5.088 14.453 5.002 QT
14.516 4.916 14.609 4.916 QT
16.078 4.916 16.656 4.744 QT
16.969 4.651 17.109 4.104 QT
20.563 -9.787 L
10.875 5.494 L
10.734 5.76 10.391 5.76 QT
10.094 5.76 10.063 5.494 QT
8.016 -9.599 L
4.719 3.557 L
4.703 3.619 4.688 3.705 QT
4.672 3.791 4.656 3.901 QT
4.656 4.526 5.203 4.721 QT
5.75 4.916 6.531 4.916 QT
6.781 4.916 6.781 5.229 QT
6.688 5.541 6.641 5.651 QT
6.594 5.76 6.359 5.76 QT
1.219 5.76 L
cp}def
f-76095220
f
GR
GS
[0.75 0 0 0.75 584.27925 260.875] CT
N
/f357850939{34.379 2.572 M
34.176 2.572 34.043 2.416 QT
33.91 2.26 33.91 2.088 QT
33.91 1.885 34.043 1.744 QT
34.176 1.604 34.379 1.604 QT
49.441 1.604 L
49.613 1.604 49.746 1.744 QT
49.879 1.885 49.879 2.088 QT
49.879 2.26 49.746 2.416 QT
49.613 2.572 49.441 2.572 QT
34.379 2.572 L
cp
34.379 -2.099 M
34.176 -2.099 34.043 -2.24 QT
33.91 -2.381 33.91 -2.568 QT
33.91 -2.756 34.043 -2.904 QT
34.176 -3.053 34.379 -3.053 QT
49.441 -3.053 L
49.613 -3.053 49.746 -2.904 QT
49.879 -2.756 49.879 -2.568 QT
49.879 -2.381 49.746 -2.24 QT
49.613 -2.099 49.441 -2.099 QT
34.379 -2.099 L
cp}def
f357850939
f
GR
GS
[0.75 0 0 0.75 584.27925 260.875] CT
N
/f612518834{60.181 3.901 M
60.743 4.729 61.697 5.127 QT
62.65 5.526 63.743 5.526 QT
65.134 5.526 65.72 4.338 QT
66.306 3.151 66.306 1.635 QT
66.306 0.947 66.181 0.268 QT
66.056 -0.412 65.767 -0.998 QT
65.478 -1.584 64.962 -1.935 QT
64.447 -2.287 63.712 -2.287 QT
62.118 -2.287 L
61.915 -2.287 61.915 -2.506 QT
61.915 -2.709 L
61.915 -2.896 62.118 -2.896 QT
63.447 -3.006 L
64.29 -3.006 64.845 -3.639 QT
65.4 -4.271 65.658 -5.178 QT
65.915 -6.084 65.915 -6.912 QT
65.915 -8.053 65.376 -8.795 QT
64.837 -9.537 63.743 -9.537 QT
62.822 -9.537 61.993 -9.193 QT
61.165 -8.849 60.665 -8.146 QT
60.712 -8.146 60.751 -8.154 QT
60.79 -8.162 60.837 -8.162 QT
61.368 -8.162 61.736 -7.787 QT
62.103 -7.412 62.103 -6.881 QT
62.103 -6.365 61.736 -5.99 QT
61.368 -5.615 60.837 -5.615 QT
60.306 -5.615 59.931 -5.99 QT
59.556 -6.365 59.556 -6.881 QT
59.556 -7.912 60.173 -8.678 QT
60.79 -9.443 61.775 -9.834 QT
62.759 -10.224 63.743 -10.224 QT
64.462 -10.224 65.275 -10.006 QT
66.087 -9.787 66.743 -9.389 QT
67.4 -8.99 67.814 -8.357 QT
68.228 -7.724 68.228 -6.912 QT
68.228 -5.896 67.775 -5.045 QT
67.322 -4.193 66.54 -3.568 QT
65.759 -2.943 64.822 -2.646 QT
65.853 -2.443 66.79 -1.857 QT
67.728 -1.271 68.298 -0.357 QT
68.868 0.557 68.868 1.604 QT
68.868 2.932 68.142 4.002 QT
67.415 5.072 66.236 5.682 QT
65.056 6.291 63.743 6.291 QT
62.618 6.291 61.486 5.861 QT
60.353 5.432 59.634 4.572 QT
58.915 3.713 58.915 2.526 QT
58.915 1.932 59.314 1.533 QT
59.712 1.135 60.306 1.135 QT
60.697 1.135 61.017 1.315 QT
61.337 1.494 61.517 1.822 QT
61.697 2.151 61.697 2.526 QT
61.697 3.104 61.29 3.502 QT
60.884 3.901 60.306 3.901 QT
60.181 3.901 L
cp}def
f612518834
f
GR
GS
[0.75 0 0 0.75 0 0.25] CT
0 0 1 RC
[8 3 2 3] 0 setdash
2 LJ
1.733 LW
N
736.003 347.5 M
776.036 347.5 L
S
GR
GS
[0.75 0 0 0.75 567.01492 260.875] CT
0 0 1 RC
10.0 ML
1.733 LW
N
-8 0 M
0 10.64 L
8 0 L
0 -10.64 L
cp
S
GR
GS
[0.75 0 0 0.75 584.27925 282.75384] CT
N
f-76095220
f
GR
GS
[0.75 0 0 0.75 584.27925 282.75384] CT
N
f357850939
f
GR
GS
[0.75 0 0 0.75 584.27925 282.75384] CT
N
/f1425294429{58.572 1.791 M
58.572 0.947 L
65.993 -10.115 L
66.072 -10.224 66.228 -10.224 QT
66.587 -10.224 L
66.853 -10.224 66.853 -9.959 QT
66.853 0.947 L
69.212 0.947 L
69.212 1.791 L
66.853 1.791 L
66.853 4.151 L
66.853 4.651 67.556 4.783 QT
68.259 4.916 69.181 4.916 QT
69.181 5.76 L
62.572 5.76 L
62.572 4.916 L
63.509 4.916 64.212 4.783 QT
64.915 4.651 64.915 4.151 QT
64.915 1.791 L
58.572 1.791 L
cp
59.368 0.947 M
65.056 0.947 L
65.056 -7.537 L
59.368 0.947 L
cp}def
f1425294429
f
GR
GS
[0.75 0 0 0.75 0 0.25] CT
0 1 0 RC
[8 3 2 3] 0 setdash
2 LJ
1.733 LW
N
736.003 376.672 M
776.036 376.672 L
S
GR
GS
[0.75 0 0 0.75 567.01492 282.75384] CT
0 1 0 RC
10.0 ML
1.733 LW
N
8 0 M
8 -4.418 4.418 -8 0 -8 C
-4.418 -8 -8 -4.418 -8 0 C
-8 4.418 -4.418 8 0 8 C
4.418 8 8 4.418 8 0 C
cp
S
GR
GS
[0.75 0 0 0.75 0 0.25] CT
0.149 GC
10.0 ML
1.333 LW
N
732 393 M
732 302 L
853 302 L
853 393 L
cp
S
GR
GS
[0.75 0 0 0.75 0 0.25] CT
1 LJ
0.667 LW
N
201.949 116.835 M
201.916 113.828 L
201.819 110.841 L
201.658 107.898 L
201.435 105.02 L
201.15 102.226 L
200.806 99.538 L
200.406 96.975 L
199.952 94.554 L
199.447 92.294 L
198.896 90.211 L
198.302 88.32 L
197.669 86.634 L
197.003 85.166 L
196.307 83.926 L
195.587 82.923 L
194.848 82.164 L
194.096 81.656 L
193.335 81.4 L
192.571 81.4 L
191.81 81.656 L
191.058 82.164 L
190.319 82.923 L
189.599 83.926 L
188.903 85.166 L
188.236 86.634 L
187.604 88.32 L
187.01 90.211 L
186.459 92.294 L
185.954 94.554 L
185.5 96.975 L
185.1 99.538 L
184.756 102.226 L
184.471 105.02 L
184.248 107.898 L
184.087 110.841 L
183.99 113.828 L
183.957 116.835 L
183.99 119.843 L
184.087 122.829 L
184.248 125.772 L
184.471 128.651 L
184.756 131.444 L
185.1 134.132 L
185.5 136.696 L
185.954 139.116 L
186.459 141.376 L
187.01 143.459 L
187.604 145.351 L
188.236 147.036 L
188.903 148.505 L
189.599 149.745 L
190.319 150.748 L
191.058 151.506 L
191.81 152.015 L
192.571 152.27 L
193.335 152.27 L
194.096 152.015 L
194.848 151.506 L
195.587 150.748 L
196.307 149.745 L
197.003 148.505 L
197.669 147.036 L
198.302 145.351 L
198.896 143.459 L
199.447 141.376 L
199.952 139.116 L
200.406 136.696 L
200.806 134.132 L
201.15 131.444 L
201.435 128.651 L
201.658 125.772 L
201.819 122.829 L
201.916 119.843 L
201.949 116.835 L
cp
S
GR
GS
[0.75 0 0 0.75 0 0.25] CT
1 LJ
0.667 LW
N
198.949 87.84 M
259.92 62.693 L
S
GR
GS
[0.75 0 0 0.75 0 0.25] CT
1 LJ
0.667 LW
N
253.699 59.85 M
267.932 59.389 L
259.92 62.693 L
253.699 59.85 L
S
GR
GS
[0.75 0 0 0.75 0 0.25] CT
1 LJ
0.667 LW
N
267.932 59.389 M
257.512 69.095 L
259.92 62.693 L
267.932 59.389 L
S
GR
GS
[0.75 0 0 0.75 0 0.25] CT
N
267.932 59.389 M
253.699 59.85 L
259.92 62.693 L
257.512 69.095 L
cp
f
GR
GS
[0.75 0 0 0.75 0 0.25] CT
1 LJ
0.667 LW
N
212.946 349.119 M
212.879 348.187 L
212.68 347.262 L
212.349 346.35 L
211.889 345.458 L
211.304 344.592 L
210.597 343.759 L
209.774 342.965 L
208.841 342.215 L
207.804 341.515 L
206.671 340.869 L
205.449 340.283 L
204.149 339.761 L
202.778 339.306 L
201.348 338.922 L
199.868 338.611 L
198.349 338.376 L
196.802 338.218 L
195.237 338.139 L
193.668 338.139 L
192.104 338.218 L
190.556 338.376 L
189.037 338.611 L
187.557 338.922 L
186.127 339.306 L
184.756 339.761 L
183.456 340.283 L
182.235 340.869 L
181.101 341.515 L
180.064 342.215 L
179.131 342.965 L
178.308 343.759 L
177.601 344.592 L
177.016 345.458 L
176.556 346.35 L
176.225 347.262 L
176.026 348.187 L
175.959 349.119 L
176.026 350.051 L
176.225 350.976 L
176.556 351.888 L
177.016 352.78 L
177.601 353.646 L
178.308 354.479 L
179.131 355.273 L
180.064 356.023 L
181.101 356.723 L
182.235 357.369 L
183.456 357.955 L
184.756 358.477 L
186.127 358.932 L
187.557 359.316 L
189.037 359.627 L
190.556 359.862 L
192.104 360.02 L
193.668 360.099 L
195.237 360.099 L
196.802 360.02 L
198.349 359.862 L
199.868 359.627 L
201.348 359.316 L
202.778 358.932 L
204.149 358.477 L
205.449 357.955 L
206.671 357.369 L
207.804 356.723 L
208.841 356.023 L
209.774 355.273 L
210.597 354.479 L
211.304 353.646 L
211.889 352.78 L
212.349 351.888 L
212.68 350.976 L
212.879 350.051 L
212.946 349.119 L
cp
S
GR
GS
[0.75 0 0 0.75 0 0.25] CT
1 LJ
0.667 LW
N
212.946 345.123 M
254.879 315.19 L
S
GR
GS
[0.75 0 0 0.75 0 0.25] CT
1 LJ
0.667 LW
N
248.176 313.832 M
261.933 310.155 L
254.879 315.19 L
248.176 313.832 L
S
GR
GS
[0.75 0 0 0.75 0 0.25] CT
1 LJ
0.667 LW
N
261.933 310.155 M
253.986 321.971 L
254.879 315.19 L
261.933 310.155 L
S
GR
GS
[0.75 0 0 0.75 0 0.25] CT
N
261.933 310.155 M
248.176 313.832 L
254.879 315.19 L
253.986 321.971 L
cp
f
GR
GS
[0.75 0 0 0.75 0 0.25] CT
1 LJ
0.667 LW
N
616.843 167.788 M
616.814 165.627 L
616.728 163.482 L
616.585 161.368 L
616.386 159.301 L
616.133 157.294 L
615.827 155.363 L
615.471 153.522 L
615.068 151.783 L
614.62 150.16 L
614.13 148.664 L
613.601 147.305 L
613.039 146.094 L
612.447 145.039 L
611.828 144.149 L
611.188 143.428 L
610.531 142.883 L
609.862 142.518 L
609.186 142.335 L
608.508 142.335 L
607.831 142.518 L
607.162 142.883 L
606.505 143.428 L
605.866 144.149 L
605.247 145.039 L
604.655 146.094 L
604.092 147.305 L
603.564 148.664 L
603.074 150.16 L
602.626 151.783 L
602.222 153.522 L
601.866 155.363 L
601.561 157.294 L
601.308 159.301 L
601.109 161.368 L
600.966 163.482 L
600.88 165.627 L
600.851 167.788 L
600.88 169.948 L
600.966 172.093 L
601.109 174.207 L
601.308 176.275 L
601.561 178.282 L
601.866 180.213 L
602.222 182.054 L
602.626 183.793 L
603.074 185.416 L
603.564 186.912 L
604.092 188.271 L
604.655 189.482 L
605.247 190.536 L
605.866 191.427 L
606.505 192.147 L
607.162 192.692 L
607.831 193.058 L
608.508 193.241 L
609.186 193.241 L
609.862 193.058 L
610.531 192.692 L
611.188 192.147 L
611.828 191.427 L
612.447 190.536 L
613.039 189.482 L
613.601 188.271 L
614.13 186.912 L
614.62 185.416 L
615.068 183.793 L
615.471 182.054 L
615.827 180.213 L
616.133 178.282 L
616.386 176.275 L
616.585 174.207 L
616.728 172.093 L
616.814 169.948 L
616.843 167.788 L
cp
S
GR
GS
[0.75 0 0 0.75 0 0.25] CT
1 LJ
0.667 LW
N
609.844 192.265 M
540.515 229.156 L
S
GR
GS
[0.75 0 0 0.75 0 0.25] CT
1 LJ
0.667 LW
N
546.984 231.378 M
532.864 233.227 L
540.515 229.156 L
546.984 231.378 L
S
GR
GS
[0.75 0 0 0.75 0 0.25] CT
1 LJ
0.667 LW
N
532.864 233.227 M
542.286 222.55 L
540.515 229.156 L
532.864 233.227 L
S
GR
GS
[0.75 0 0 0.75 0 0.25] CT
N
532.864 233.227 M
546.984 231.378 L
540.515 229.156 L
542.286 222.55 L
cp
f
GR
GS
[0.75 0 0 0.75 0 0.25] CT
1 GC
10.0 ML
0.667 LW
N
270.935 77.372 M
270.935 50.397 L
462.882 50.397 L
462.882 77.372 L
cp
S
GR
GS
[0.75 0 0 0.75 208.20138 41.0479] CT
N
/f164750789{0.844 20.16 M
0.844 19.316 L
3.313 19.316 3.313 17.894 QT
3.313 5.363 L
3.313 4.613 0.844 4.613 QT
0.844 3.769 L
5.375 3.769 L
5.672 3.769 5.766 4.035 QT
11 17.613 L
16.219 4.035 L
16.313 3.769 16.609 3.769 QT
21.141 3.769 L
21.141 4.613 L
18.672 4.613 18.672 5.363 QT
18.672 18.551 L
18.672 19.316 21.141 19.316 QT
21.141 20.16 L
14.156 20.16 L
14.156 19.316 L
16.625 19.316 16.625 18.551 QT
16.625 4.582 L
10.719 19.894 L
10.625 20.16 10.328 20.16 QT
10.016 20.16 9.922 19.894 QT
4.078 4.769 L
4.078 17.894 L
4.078 19.316 6.547 19.316 QT
6.547 20.16 L
0.844 20.16 L
cp}def
f164750789
f
GR
GS
[0.75 0 0 0.75 208.20138 41.0479] CT
N
/f-14740479{22.781 20.16 M
22.781 19.316 L
24.922 19.316 25.406 17.894 QT
30.453 3.238 L
30.516 2.972 30.844 2.972 QT
31.141 2.972 L
31.453 2.972 31.531 3.238 QT
36.797 18.551 L
37.016 19.051 37.641 19.183 QT
38.266 19.316 39.203 19.316 QT
39.203 20.16 L
32.516 20.16 L
32.516 19.316 L
34.5 19.316 34.5 18.676 QT
34.5 18.551 L
33.203 14.801 L
27.375 14.801 L
26.297 17.894 L
26.281 17.972 26.281 18.144 QT
26.281 18.738 26.852 19.027 QT
27.422 19.316 28.078 19.316 QT
28.078 20.16 L
22.781 20.16 L
cp
27.656 13.972 M
32.922 13.972 L
30.281 6.301 L
27.656 13.972 L
cp}def
f-14740479
f
GR
GS
[0.75 0 0 0.75 208.20138 41.0479] CT
N
/f-1986414860{44.802 17.597 M
45.63 18.629 46.857 19.238 QT
48.083 19.847 49.412 19.847 QT
50.521 19.847 51.474 19.402 QT
52.427 18.957 53.138 18.176 QT
53.849 17.394 54.224 16.394 QT
54.599 15.394 54.599 14.301 QT
54.599 14.113 54.818 14.113 QT
55.115 14.113 L
55.302 14.113 55.302 14.347 QT
55.302 15.597 54.818 16.761 QT
54.333 17.926 53.458 18.816 QT
52.583 19.707 51.435 20.199 QT
50.287 20.691 49.052 20.691 QT
47.333 20.691 45.787 19.988 QT
44.24 19.285 43.099 18.074 QT
41.958 16.863 41.318 15.269 QT
40.677 13.676 40.677 11.957 QT
40.677 10.238 41.318 8.644 QT
41.958 7.051 43.099 5.832 QT
44.24 4.613 45.787 3.926 QT
47.333 3.238 49.052 3.238 QT
50.287 3.238 51.412 3.769 QT
52.537 4.301 53.38 5.269 QT
54.771 3.301 L
54.912 3.238 54.927 3.238 QT
55.115 3.238 L
55.177 3.238 55.24 3.293 QT
55.302 3.347 55.302 3.441 QT
55.302 9.91 L
55.302 10.129 55.115 10.129 QT
54.677 10.129 L
54.458 10.129 54.458 9.91 QT
54.458 9.222 54.177 8.371 QT
53.896 7.519 53.474 6.746 QT
53.052 5.972 52.49 5.394 QT
51.13 4.082 49.396 4.082 QT
48.068 4.082 46.857 4.676 QT
45.646 5.269 44.802 6.332 QT
43.927 7.457 43.591 8.894 QT
43.255 10.332 43.255 11.957 QT
43.255 13.582 43.591 15.027 QT
43.927 16.472 44.802 17.597 QT
cp}def
f-1986414860
f
GR
GS
[0.75 0 0 0.75 208.20138 41.0479] CT
N
/f-1350149808{65.401 20.16 M
65.401 19.316 L
67.885 19.316 67.885 18.551 QT
67.885 5.363 L
67.885 4.613 65.401 4.613 QT
65.401 3.769 L
73.182 3.769 L
73.182 4.613 L
70.12 4.613 70.12 5.363 QT
70.12 18.551 L
70.12 19.066 70.409 19.191 QT
70.698 19.316 71.339 19.316 QT
73.182 19.316 L
74.979 19.316 75.956 18.66 QT
76.932 18.004 77.331 16.871 QT
77.729 15.738 77.948 13.863 QT
78.635 13.863 L
77.964 20.16 L
65.401 20.16 L
cp}def
f-1350149808
f
GR
GS
[0.75 0 0 0.75 208.20138 41.0479] CT
N
/f-1037259267{80.401 20.16 M
80.401 19.316 L
81.229 19.316 81.753 19.183 QT
82.276 19.051 82.276 18.551 QT
82.276 12.004 L
82.276 11.082 81.925 10.871 QT
81.573 10.66 80.511 10.66 QT
80.511 9.816 L
83.964 9.551 L
83.964 18.551 L
83.964 19.051 84.425 19.183 QT
84.886 19.316 85.651 19.316 QT
85.651 20.16 L
80.401 20.16 L
cp
81.432 5.426 M
81.432 4.894 81.831 4.496 QT
82.229 4.097 82.745 4.097 QT
83.073 4.097 83.393 4.277 QT
83.714 4.457 83.886 4.769 QT
84.057 5.082 84.057 5.426 QT
84.057 5.941 83.659 6.34 QT
83.261 6.738 82.745 6.738 QT
82.229 6.738 81.831 6.34 QT
81.432 5.941 81.432 5.426 QT
cp}def
f-1037259267
f
GR
GS
[0.75 0 0 0.75 208.20138 41.0479] CT
N
/f1968884986{87.052 20.16 M
87.052 19.316 L
87.865 19.316 88.396 19.183 QT
88.927 19.051 88.927 18.551 QT
88.927 12.004 L
88.927 11.363 88.732 11.074 QT
88.537 10.785 88.177 10.722 QT
87.818 10.66 87.052 10.66 QT
87.052 9.816 L
90.537 9.551 L
90.537 11.894 L
91.005 10.863 91.951 10.207 QT
92.896 9.551 94.005 9.551 QT
96.771 9.551 97.255 11.801 QT
97.74 10.801 98.662 10.176 QT
99.583 9.551 100.693 9.551 QT
101.787 9.551 102.529 9.902 QT
103.271 10.254 103.646 10.972 QT
104.021 11.691 104.021 12.785 QT
104.021 18.551 L
104.021 19.051 104.552 19.183 QT
105.083 19.316 105.896 19.316 QT
105.896 20.16 L
100.396 20.16 L
100.396 19.316 L
101.224 19.316 101.748 19.183 QT
102.271 19.051 102.271 18.551 QT
102.271 12.863 L
102.271 11.644 101.935 10.91 QT
101.599 10.176 100.537 10.176 QT
99.162 10.176 98.255 11.285 QT
97.349 12.394 97.349 13.816 QT
97.349 18.551 L
97.349 19.051 97.88 19.183 QT
98.412 19.316 99.224 19.316 QT
99.224 20.16 L
93.724 20.16 L
93.724 19.316 L
94.552 19.316 95.076 19.183 QT
95.599 19.051 95.599 18.551 QT
95.599 12.863 L
95.599 11.691 95.263 10.933 QT
94.927 10.176 93.865 10.176 QT
92.474 10.176 91.576 11.285 QT
90.677 12.394 90.677 13.816 QT
90.677 18.551 L
90.677 19.051 91.208 19.183 QT
91.74 19.316 92.552 19.316 QT
92.552 20.16 L
87.052 20.16 L
cp}def
f1968884986
f
GR
GS
[0.75 0 0 0.75 208.20138 41.0479] CT
N
/f-1892498844{107.068 20.16 M
107.068 19.316 L
107.896 19.316 108.419 19.183 QT
108.943 19.051 108.943 18.551 QT
108.943 12.004 L
108.943 11.082 108.591 10.871 QT
108.24 10.66 107.177 10.66 QT
107.177 9.816 L
110.63 9.551 L
110.63 18.551 L
110.63 19.051 111.091 19.183 QT
111.552 19.316 112.318 19.316 QT
112.318 20.16 L
107.068 20.16 L
cp
108.099 5.426 M
108.099 4.894 108.498 4.496 QT
108.896 4.097 109.412 4.097 QT
109.74 4.097 110.06 4.277 QT
110.38 4.457 110.552 4.769 QT
110.724 5.082 110.724 5.426 QT
110.724 5.941 110.326 6.34 QT
109.927 6.738 109.412 6.738 QT
108.896 6.738 108.498 6.34 QT
108.099 5.941 108.099 5.426 QT
cp}def
f-1892498844
f
GR
GS
[0.75 0 0 0.75 208.20138 41.0479] CT
N
/f1972428495{115.453 17.269 M
115.453 10.66 L
113.453 10.66 L
113.453 10.035 L
115.031 10.035 115.766 8.566 QT
116.5 7.097 116.5 5.394 QT
117.203 5.394 L
117.203 9.816 L
120.578 9.816 L
120.578 10.66 L
117.203 10.66 L
117.203 17.222 L
117.203 18.222 117.531 18.972 QT
117.86 19.722 118.735 19.722 QT
119.547 19.722 119.914 18.933 QT
120.281 18.144 120.281 17.222 QT
120.281 15.816 L
120.969 15.816 L
120.969 17.269 L
120.969 18.019 120.696 18.754 QT
120.422 19.488 119.883 19.957 QT
119.344 20.426 118.563 20.426 QT
117.125 20.426 116.289 19.566 QT
115.453 18.707 115.453 17.269 QT
cp}def
f1972428495
f
GR
GS
[0.75 0 0 0.75 0 0.25] CT
1 GC
10.0 ML
0.667 LW
N
242.892 309.196 M
242.892 280.223 L
437.838 280.223 L
437.838 309.196 L
cp
S
GR
GS
[0.75 0 0 0.75 187.16868 213.41745] CT
N
/f-1332506003{9.344 20.691 M
7.063 20.691 5.234 19.472 QT
3.406 18.254 2.375 16.246 QT
1.344 14.238 1.344 12.019 QT
1.344 10.379 1.938 8.777 QT
2.531 7.176 3.594 5.933 QT
4.656 4.691 6.141 3.965 QT
7.625 3.238 9.344 3.238 QT
11.047 3.238 12.539 3.972 QT
14.031 4.707 15.094 5.957 QT
16.156 7.207 16.734 8.769 QT
17.313 10.332 17.313 12.019 QT
17.313 14.238 16.281 16.246 QT
15.25 18.254 13.422 19.472 QT
11.594 20.691 9.344 20.691 QT
cp
5.359 17.566 M
6.063 18.676 7.094 19.324 QT
8.125 19.972 9.344 19.972 QT
10.125 19.972 10.883 19.652 QT
11.641 19.332 12.258 18.785 QT
12.875 18.238 13.297 17.566 QT
14.734 15.41 14.734 11.644 QT
14.734 8.176 13.297 6.16 QT
12.594 5.16 11.547 4.551 QT
10.5 3.941 9.344 3.941 QT
8.172 3.941 7.117 4.551 QT
6.063 5.16 5.359 6.16 QT
4.797 6.957 4.484 7.84 QT
4.172 8.722 4.047 9.668 QT
3.922 10.613 3.922 11.644 QT
3.922 12.722 4.039 13.761 QT
4.156 14.801 4.492 15.801 QT
4.828 16.801 5.359 17.566 QT
cp}def
f-1332506003
f
GR
GS
[0.75 0 0 0.75 187.16868 213.41745] CT
N
/f1610530953{19.292 24.816 M
19.292 23.988 L
20.104 23.988 20.635 23.847 QT
21.167 23.707 21.167 23.207 QT
21.167 11.644 L
21.167 10.988 20.698 10.824 QT
20.229 10.66 19.292 10.66 QT
19.292 9.816 L
22.839 9.551 L
22.839 11.035 L
23.495 10.316 24.37 9.933 QT
25.245 9.551 26.229 9.551 QT
27.651 9.551 28.784 10.316 QT
29.917 11.082 30.557 12.332 QT
31.198 13.582 31.198 14.972 QT
31.198 16.426 30.487 17.683 QT
29.776 18.941 28.55 19.683 QT
27.323 20.426 25.87 20.426 QT
24.12 20.426 22.917 19.004 QT
22.917 23.207 L
22.917 23.707 23.448 23.847 QT
23.979 23.988 24.792 23.988 QT
24.792 24.816 L
19.292 24.816 L
cp
22.917 17.832 M
23.339 18.676 24.089 19.238 QT
24.839 19.801 25.729 19.801 QT
26.557 19.801 27.198 19.355 QT
27.839 18.91 28.268 18.16 QT
28.698 17.41 28.901 16.582 QT
29.104 15.754 29.104 14.972 QT
29.104 14.019 28.76 12.902 QT
28.417 11.785 27.706 11.011 QT
26.995 10.238 25.995 10.238 QT
25.026 10.238 24.206 10.738 QT
23.385 11.238 22.917 12.097 QT
22.917 17.832 L
cp}def
f1610530953
f
GR
GS
[0.75 0 0 0.75 187.16868 213.41745] CT
N
/f-1850430141{34.453 17.269 M
34.453 10.66 L
32.453 10.66 L
32.453 10.035 L
34.031 10.035 34.766 8.566 QT
35.5 7.097 35.5 5.394 QT
36.203 5.394 L
36.203 9.816 L
39.578 9.816 L
39.578 10.66 L
36.203 10.66 L
36.203 17.222 L
36.203 18.222 36.531 18.972 QT
36.859 19.722 37.734 19.722 QT
38.547 19.722 38.914 18.933 QT
39.281 18.144 39.281 17.222 QT
39.281 15.816 L
39.969 15.816 L
39.969 17.269 L
39.969 18.019 39.695 18.754 QT
39.422 19.488 38.883 19.957 QT
38.344 20.426 37.563 20.426 QT
36.125 20.426 35.289 19.566 QT
34.453 18.707 34.453 17.269 QT
cp}def
f-1850430141
f
GR
GS
[0.75 0 0 0.75 187.16868 213.41745] CT
N
/f1782209234{42.068 20.16 M
42.068 19.316 L
42.896 19.316 43.419 19.183 QT
43.943 19.051 43.943 18.551 QT
43.943 12.004 L
43.943 11.082 43.591 10.871 QT
43.24 10.66 42.177 10.66 QT
42.177 9.816 L
45.63 9.551 L
45.63 18.551 L
45.63 19.051 46.091 19.183 QT
46.552 19.316 47.318 19.316 QT
47.318 20.16 L
42.068 20.16 L
cp
43.099 5.426 M
43.099 4.894 43.498 4.496 QT
43.896 4.097 44.412 4.097 QT
44.74 4.097 45.06 4.277 QT
45.38 4.457 45.552 4.769 QT
45.724 5.082 45.724 5.426 QT
45.724 5.941 45.326 6.34 QT
44.927 6.738 44.412 6.738 QT
43.896 6.738 43.498 6.34 QT
43.099 5.941 43.099 5.426 QT
cp}def
f1782209234
f
GR
GS
[0.75 0 0 0.75 187.16868 213.41745] CT
N
/f982886058{48.719 20.16 M
48.719 19.316 L
49.531 19.316 50.063 19.183 QT
50.594 19.051 50.594 18.551 QT
50.594 12.004 L
50.594 11.363 50.399 11.074 QT
50.203 10.785 49.844 10.722 QT
49.485 10.66 48.719 10.66 QT
48.719 9.816 L
52.203 9.551 L
52.203 11.894 L
52.672 10.863 53.617 10.207 QT
54.563 9.551 55.672 9.551 QT
58.438 9.551 58.922 11.801 QT
59.406 10.801 60.328 10.176 QT
61.25 9.551 62.36 9.551 QT
63.453 9.551 64.195 9.902 QT
64.938 10.254 65.313 10.972 QT
65.688 11.691 65.688 12.785 QT
65.688 18.551 L
65.688 19.051 66.219 19.183 QT
66.75 19.316 67.563 19.316 QT
67.563 20.16 L
62.063 20.16 L
62.063 19.316 L
62.891 19.316 63.414 19.183 QT
63.938 19.051 63.938 18.551 QT
63.938 12.863 L
63.938 11.644 63.602 10.91 QT
63.266 10.176 62.203 10.176 QT
60.828 10.176 59.922 11.285 QT
59.016 12.394 59.016 13.816 QT
59.016 18.551 L
59.016 19.051 59.547 19.183 QT
60.078 19.316 60.891 19.316 QT
60.891 20.16 L
55.391 20.16 L
55.391 19.316 L
56.219 19.316 56.742 19.183 QT
57.266 19.051 57.266 18.551 QT
57.266 12.863 L
57.266 11.691 56.93 10.933 QT
56.594 10.176 55.531 10.176 QT
54.141 10.176 53.242 11.285 QT
52.344 12.394 52.344 13.816 QT
52.344 18.551 L
52.344 19.051 52.875 19.183 QT
53.406 19.316 54.219 19.316 QT
54.219 20.16 L
48.719 20.16 L
cp}def
f982886058
f
GR
GS
[0.75 0 0 0.75 187.16868 213.41745] CT
N
/f964217880{68.969 17.801 M
68.969 16.379 70.094 15.48 QT
71.219 14.582 72.789 14.215 QT
74.36 13.847 75.781 13.847 QT
75.781 12.863 L
75.781 12.16 75.477 11.511 QT
75.172 10.863 74.602 10.449 QT
74.031 10.035 73.328 10.035 QT
71.735 10.035 70.906 10.754 QT
71.36 10.754 71.664 11.097 QT
71.969 11.441 71.969 11.894 QT
71.969 12.379 71.625 12.715 QT
71.281 13.051 70.813 13.051 QT
70.328 13.051 69.992 12.715 QT
69.656 12.379 69.656 11.894 QT
69.656 10.629 70.805 10.011 QT
71.953 9.394 73.328 9.394 QT
74.313 9.394 75.297 9.816 QT
76.281 10.238 76.906 11.011 QT
77.531 11.785 77.531 12.816 QT
77.531 18.207 L
77.531 18.676 77.727 19.074 QT
77.922 19.472 78.344 19.472 QT
78.75 19.472 78.946 19.074 QT
79.141 18.676 79.141 18.207 QT
79.141 16.676 L
79.844 16.676 L
79.844 18.207 L
79.844 18.754 79.563 19.238 QT
79.281 19.722 78.805 20.011 QT
78.328 20.301 77.781 20.301 QT
77.078 20.301 76.563 19.754 QT
76.047 19.207 76 18.457 QT
75.547 19.363 74.68 19.894 QT
73.813 20.426 72.828 20.426 QT
71.922 20.426 71.031 20.16 QT
70.141 19.894 69.555 19.308 QT
68.969 18.722 68.969 17.801 QT
cp
70.906 17.801 M
70.906 18.644 71.531 19.222 QT
72.156 19.801 73 19.801 QT
73.766 19.801 74.399 19.41 QT
75.031 19.019 75.406 18.355 QT
75.781 17.691 75.781 16.941 QT
75.781 14.457 L
74.688 14.457 73.547 14.808 QT
72.406 15.16 71.656 15.926 QT
70.906 16.691 70.906 17.801 QT
cp}def
f964217880
f
GR
GS
[0.75 0 0 0.75 187.16868 213.41745] CT
N
/f480515923{80.735 20.16 M
80.735 19.316 L
81.563 19.316 82.086 19.183 QT
82.61 19.051 82.61 18.551 QT
82.61 5.957 L
82.61 5.316 82.422 5.027 QT
82.235 4.738 81.867 4.676 QT
81.5 4.613 80.735 4.613 QT
80.735 3.769 L
84.297 3.504 L
84.297 18.551 L
84.297 19.051 84.828 19.183 QT
85.36 19.316 86.172 19.316 QT
86.172 20.16 L
80.735 20.16 L
cp}def
f480515923
f
GR
GS
[0.75 0 0 0.75 187.16868 213.41745] CT
N
/f-25349247{95.292 24.816 M
95.292 23.988 L
96.104 23.988 96.636 23.847 QT
97.167 23.707 97.167 23.207 QT
97.167 11.644 L
97.167 10.988 96.698 10.824 QT
96.229 10.66 95.292 10.66 QT
95.292 9.816 L
98.839 9.551 L
98.839 11.035 L
99.495 10.316 100.37 9.933 QT
101.245 9.551 102.229 9.551 QT
103.651 9.551 104.784 10.316 QT
105.917 11.082 106.558 12.332 QT
107.198 13.582 107.198 14.972 QT
107.198 16.426 106.487 17.683 QT
105.776 18.941 104.55 19.683 QT
103.323 20.426 101.87 20.426 QT
100.12 20.426 98.917 19.004 QT
98.917 23.207 L
98.917 23.707 99.448 23.847 QT
99.979 23.988 100.792 23.988 QT
100.792 24.816 L
95.292 24.816 L
cp
98.917 17.832 M
99.339 18.676 100.089 19.238 QT
100.839 19.801 101.729 19.801 QT
102.558 19.801 103.198 19.355 QT
103.839 18.91 104.268 18.16 QT
104.698 17.41 104.901 16.582 QT
105.104 15.754 105.104 14.972 QT
105.104 14.019 104.761 12.902 QT
104.417 11.785 103.706 11.011 QT
102.995 10.238 101.995 10.238 QT
101.026 10.238 100.206 10.738 QT
99.386 11.238 98.917 12.097 QT
98.917 17.832 L
cp}def
f-25349247
f
GR
GS
[0.75 0 0 0.75 187.16868 213.41745] CT
N
/f1362034121{108.969 17.801 M
108.969 16.379 110.094 15.48 QT
111.219 14.582 112.789 14.215 QT
114.36 13.847 115.782 13.847 QT
115.782 12.863 L
115.782 12.16 115.477 11.511 QT
115.172 10.863 114.602 10.449 QT
114.032 10.035 113.328 10.035 QT
111.735 10.035 110.907 10.754 QT
111.36 10.754 111.664 11.097 QT
111.969 11.441 111.969 11.894 QT
111.969 12.379 111.625 12.715 QT
111.282 13.051 110.813 13.051 QT
110.328 13.051 109.992 12.715 QT
109.657 12.379 109.657 11.894 QT
109.657 10.629 110.805 10.011 QT
111.953 9.394 113.328 9.394 QT
114.313 9.394 115.297 9.816 QT
116.282 10.238 116.907 11.011 QT
117.532 11.785 117.532 12.816 QT
117.532 18.207 L
117.532 18.676 117.727 19.074 QT
117.922 19.472 118.344 19.472 QT
118.75 19.472 118.946 19.074 QT
119.141 18.676 119.141 18.207 QT
119.141 16.676 L
119.844 16.676 L
119.844 18.207 L
119.844 18.754 119.563 19.238 QT
119.282 19.722 118.805 20.011 QT
118.328 20.301 117.782 20.301 QT
117.078 20.301 116.563 19.754 QT
116.047 19.207 116 18.457 QT
115.547 19.363 114.68 19.894 QT
113.813 20.426 112.828 20.426 QT
111.922 20.426 111.032 20.16 QT
110.141 19.894 109.555 19.308 QT
108.969 18.722 108.969 17.801 QT
cp
110.907 17.801 M
110.907 18.644 111.532 19.222 QT
112.157 19.801 113 19.801 QT
113.766 19.801 114.399 19.41 QT
115.032 19.019 115.407 18.355 QT
115.782 17.691 115.782 16.941 QT
115.782 14.457 L
114.688 14.457 113.547 14.808 QT
112.407 15.16 111.657 15.926 QT
110.907 16.691 110.907 17.801 QT
cp}def
f1362034121
f
GR
GS
[0.75 0 0 0.75 187.16868 213.41745] CT
N
/f363738197{120.625 20.16 M
120.625 19.316 L
121.438 19.316 121.969 19.183 QT
122.5 19.051 122.5 18.551 QT
122.5 12.004 L
122.5 11.363 122.305 11.074 QT
122.11 10.785 121.75 10.722 QT
121.391 10.66 120.625 10.66 QT
120.625 9.816 L
124.063 9.551 L
124.063 11.894 L
124.438 10.847 125.157 10.199 QT
125.875 9.551 126.891 9.551 QT
127.61 9.551 128.172 9.972 QT
128.735 10.394 128.735 11.082 QT
128.735 11.519 128.422 11.84 QT
128.11 12.16 127.657 12.16 QT
127.203 12.16 126.891 11.847 QT
126.578 11.535 126.578 11.082 QT
126.578 10.441 127.032 10.176 QT
126.891 10.176 L
125.922 10.176 125.305 10.879 QT
124.688 11.582 124.43 12.621 QT
124.172 13.66 124.172 14.613 QT
124.172 18.551 L
124.172 19.316 126.5 19.316 QT
126.5 20.16 L
120.625 20.16 L
cp}def
f363738197
f
GR
GS
[0.75 0 0 0.75 187.16868 213.41745] CT
N
/f1041705305{130.369 17.801 M
130.369 16.379 131.494 15.48 QT
132.619 14.582 134.189 14.215 QT
135.76 13.847 137.182 13.847 QT
137.182 12.863 L
137.182 12.16 136.877 11.511 QT
136.572 10.863 136.002 10.449 QT
135.432 10.035 134.728 10.035 QT
133.135 10.035 132.307 10.754 QT
132.76 10.754 133.064 11.097 QT
133.369 11.441 133.369 11.894 QT
133.369 12.379 133.025 12.715 QT
132.682 13.051 132.213 13.051 QT
131.728 13.051 131.393 12.715 QT
131.057 12.379 131.057 11.894 QT
131.057 10.629 132.205 10.011 QT
133.353 9.394 134.728 9.394 QT
135.713 9.394 136.697 9.816 QT
137.682 10.238 138.307 11.011 QT
138.932 11.785 138.932 12.816 QT
138.932 18.207 L
138.932 18.676 139.127 19.074 QT
139.322 19.472 139.744 19.472 QT
140.15 19.472 140.346 19.074 QT
140.541 18.676 140.541 18.207 QT
140.541 16.676 L
141.244 16.676 L
141.244 18.207 L
141.244 18.754 140.963 19.238 QT
140.682 19.722 140.205 20.011 QT
139.728 20.301 139.182 20.301 QT
138.478 20.301 137.963 19.754 QT
137.447 19.207 137.4 18.457 QT
136.947 19.363 136.08 19.894 QT
135.213 20.426 134.228 20.426 QT
133.322 20.426 132.432 20.16 QT
131.541 19.894 130.955 19.308 QT
130.369 18.722 130.369 17.801 QT
cp
132.307 17.801 M
132.307 18.644 132.932 19.222 QT
133.557 19.801 134.4 19.801 QT
135.166 19.801 135.799 19.41 QT
136.432 19.019 136.807 18.355 QT
137.182 17.691 137.182 16.941 QT
137.182 14.457 L
136.088 14.457 134.947 14.808 QT
133.807 15.16 133.057 15.926 QT
132.307 16.691 132.307 17.801 QT
cp}def
f1041705305
f
GR
GS
[0.75 0 0 0.75 187.16868 213.41745] CT
N
/f1241771478{142.119 20.16 M
142.119 19.316 L
142.932 19.316 143.463 19.183 QT
143.994 19.051 143.994 18.551 QT
143.994 12.004 L
143.994 11.363 143.799 11.074 QT
143.604 10.785 143.244 10.722 QT
142.885 10.66 142.119 10.66 QT
142.119 9.816 L
145.604 9.551 L
145.604 11.894 L
146.072 10.863 147.018 10.207 QT
147.963 9.551 149.072 9.551 QT
151.838 9.551 152.322 11.801 QT
152.807 10.801 153.729 10.176 QT
154.65 9.551 155.76 9.551 QT
156.854 9.551 157.596 9.902 QT
158.338 10.254 158.713 10.972 QT
159.088 11.691 159.088 12.785 QT
159.088 18.551 L
159.088 19.051 159.619 19.183 QT
160.15 19.316 160.963 19.316 QT
160.963 20.16 L
155.463 20.16 L
155.463 19.316 L
156.291 19.316 156.814 19.183 QT
157.338 19.051 157.338 18.551 QT
157.338 12.863 L
157.338 11.644 157.002 10.91 QT
156.666 10.176 155.604 10.176 QT
154.229 10.176 153.322 11.285 QT
152.416 12.394 152.416 13.816 QT
152.416 18.551 L
152.416 19.051 152.947 19.183 QT
153.479 19.316 154.291 19.316 QT
154.291 20.16 L
148.791 20.16 L
148.791 19.316 L
149.619 19.316 150.143 19.183 QT
150.666 19.051 150.666 18.551 QT
150.666 12.863 L
150.666 11.691 150.33 10.933 QT
149.994 10.176 148.932 10.176 QT
147.541 10.176 146.643 11.285 QT
145.744 12.394 145.744 13.816 QT
145.744 18.551 L
145.744 19.051 146.275 19.183 QT
146.807 19.316 147.619 19.316 QT
147.619 20.16 L
142.119 20.16 L
cp}def
f1241771478
f
GR
GS
[0.75 0 0 0.75 187.16868 213.41745] CT
N
/f524178290{163.416 18.832 M
163.416 18.301 163.815 17.91 QT
164.213 17.519 164.744 17.519 QT
165.072 17.519 165.385 17.699 QT
165.697 17.879 165.877 18.191 QT
166.057 18.504 166.057 18.832 QT
166.057 19.363 165.666 19.761 QT
165.275 20.16 164.744 20.16 QT
164.213 20.16 163.815 19.761 QT
163.416 19.363 163.416 18.832 QT
cp}def
f524178290
f
GR
GS
[0.75 0 0 0.75 0 0.25] CT
1 GC
10.0 ML
0.667 LW
N
435.937 263.139 M
435.937 236.164 L
633.882 236.164 L
633.882 263.139 L
cp
S
GR
GS
[0.75 0 0 0.75 331.95252 180.3728] CT
N
f164750789
f
GR
GS
[0.75 0 0 0.75 331.95252 180.3728] CT
N
/f167431474{27.984 20.426 M
26.516 20.426 25.289 19.66 QT
24.063 18.894 23.367 17.613 QT
22.672 16.332 22.672 14.894 QT
22.672 13.488 23.313 12.222 QT
23.953 10.957 25.094 10.176 QT
26.234 9.394 27.641 9.394 QT
28.734 9.394 29.555 9.769 QT
30.375 10.144 30.898 10.801 QT
31.422 11.457 31.695 12.347 QT
31.969 13.238 31.969 14.301 QT
31.969 14.613 31.719 14.613 QT
24.766 14.613 L
24.766 14.879 L
24.766 16.863 25.57 18.293 QT
26.375 19.722 28.188 19.722 QT
28.922 19.722 29.555 19.394 QT
30.188 19.066 30.648 18.48 QT
31.109 17.894 31.266 17.222 QT
31.297 17.144 31.359 17.082 QT
31.422 17.019 31.5 17.019 QT
31.719 17.019 L
31.969 17.019 31.969 17.316 QT
31.625 18.676 30.5 19.551 QT
29.375 20.426 27.984 20.426 QT
cp
24.797 14.019 M
30.266 14.019 L
30.266 13.113 30.016 12.191 QT
29.766 11.269 29.18 10.652 QT
28.594 10.035 27.641 10.035 QT
26.281 10.035 25.539 11.308 QT
24.797 12.582 24.797 14.019 QT
cp}def
f167431474
f
GR
GS
[0.75 0 0 0.75 331.95252 180.3728] CT
N
/f-444118360{33.635 17.801 M
33.635 16.379 34.76 15.48 QT
35.885 14.582 37.456 14.215 QT
39.026 13.847 40.448 13.847 QT
40.448 12.863 L
40.448 12.16 40.143 11.511 QT
39.839 10.863 39.268 10.449 QT
38.698 10.035 37.995 10.035 QT
36.401 10.035 35.573 10.754 QT
36.026 10.754 36.331 11.097 QT
36.635 11.441 36.635 11.894 QT
36.635 12.379 36.292 12.715 QT
35.948 13.051 35.479 13.051 QT
34.995 13.051 34.659 12.715 QT
34.323 12.379 34.323 11.894 QT
34.323 10.629 35.471 10.011 QT
36.62 9.394 37.995 9.394 QT
38.979 9.394 39.964 9.816 QT
40.948 10.238 41.573 11.011 QT
42.198 11.785 42.198 12.816 QT
42.198 18.207 L
42.198 18.676 42.393 19.074 QT
42.589 19.472 43.01 19.472 QT
43.417 19.472 43.612 19.074 QT
43.807 18.676 43.807 18.207 QT
43.807 16.676 L
44.51 16.676 L
44.51 18.207 L
44.51 18.754 44.229 19.238 QT
43.948 19.722 43.471 20.011 QT
42.995 20.301 42.448 20.301 QT
41.745 20.301 41.229 19.754 QT
40.714 19.207 40.667 18.457 QT
40.214 19.363 39.346 19.894 QT
38.479 20.426 37.495 20.426 QT
36.589 20.426 35.698 20.16 QT
34.807 19.894 34.221 19.308 QT
33.635 18.722 33.635 17.801 QT
cp
35.573 17.801 M
35.573 18.644 36.198 19.222 QT
36.823 19.801 37.667 19.801 QT
38.432 19.801 39.065 19.41 QT
39.698 19.019 40.073 18.355 QT
40.448 17.691 40.448 16.941 QT
40.448 14.457 L
39.354 14.457 38.214 14.808 QT
37.073 15.16 36.323 15.926 QT
35.573 16.691 35.573 17.801 QT
cp}def
f-444118360
f
GR
GS
[0.75 0 0 0.75 331.95252 180.3728] CT
N
/f-1503667343{45.464 20.238 M
45.464 16.316 L
45.464 16.129 45.682 16.129 QT
45.964 16.129 L
46.104 16.129 46.151 16.316 QT
46.823 19.801 49.385 19.801 QT
50.526 19.801 51.292 19.285 QT
52.057 18.769 52.057 17.691 QT
52.057 16.91 51.464 16.363 QT
50.87 15.816 50.042 15.629 QT
48.448 15.301 L
47.635 15.129 46.971 14.769 QT
46.307 14.41 45.885 13.801 QT
45.464 13.191 45.464 12.394 QT
45.464 11.347 46.018 10.676 QT
46.573 10.004 47.464 9.699 QT
48.354 9.394 49.385 9.394 QT
50.62 9.394 51.542 10.051 QT
52.229 9.457 L
52.229 9.394 52.339 9.394 QT
52.526 9.394 L
52.589 9.394 52.651 9.465 QT
52.714 9.535 52.714 9.597 QT
52.714 12.738 L
52.714 12.957 52.526 12.957 QT
52.229 12.957 L
52.01 12.957 52.01 12.738 QT
52.01 11.488 51.315 10.722 QT
50.62 9.957 49.37 9.957 QT
48.292 9.957 47.503 10.355 QT
46.714 10.754 46.714 11.738 QT
46.714 12.394 47.276 12.824 QT
47.839 13.254 48.604 13.441 QT
50.229 13.754 L
51.057 13.941 51.768 14.386 QT
52.479 14.832 52.893 15.511 QT
53.307 16.191 53.307 17.035 QT
53.307 17.91 53.01 18.551 QT
52.714 19.191 52.175 19.613 QT
51.635 20.035 50.909 20.23 QT
50.182 20.426 49.385 20.426 QT
47.885 20.426 46.823 19.426 QT
45.948 20.379 L
45.948 20.426 45.823 20.426 QT
45.682 20.426 L
45.464 20.426 45.464 20.238 QT
cp}def
f-1503667343
f
GR
GS
[0.75 0 0 0.75 331.95252 180.3728] CT
N
/f-266424586{56.727 17.301 M
56.727 12.004 L
56.727 11.363 56.532 11.074 QT
56.337 10.785 55.977 10.722 QT
55.618 10.66 54.852 10.66 QT
54.852 9.816 L
58.477 9.551 L
58.477 17.301 L
58.477 18.238 58.618 18.761 QT
58.758 19.285 59.196 19.543 QT
59.633 19.801 60.587 19.801 QT
61.883 19.801 62.641 18.722 QT
63.399 17.644 63.399 16.269 QT
63.399 12.004 L
63.399 11.363 63.204 11.074 QT
63.008 10.785 62.649 10.722 QT
62.29 10.66 61.524 10.66 QT
61.524 9.816 L
65.149 9.551 L
65.149 17.972 L
65.149 18.613 65.344 18.902 QT
65.54 19.191 65.899 19.254 QT
66.258 19.316 67.024 19.316 QT
67.024 20.16 L
63.477 20.426 L
63.477 18.394 L
63.024 19.301 62.227 19.863 QT
61.43 20.426 60.477 20.426 QT
58.758 20.426 57.743 19.691 QT
56.727 18.957 56.727 17.301 QT
cp}def
f-266424586
f
GR
GS
[0.75 0 0 0.75 331.95252 180.3728] CT
N
/f-1455141542{68.092 20.16 M
68.092 19.316 L
68.904 19.316 69.436 19.183 QT
69.967 19.051 69.967 18.551 QT
69.967 12.004 L
69.967 11.363 69.771 11.074 QT
69.576 10.785 69.217 10.722 QT
68.857 10.66 68.092 10.66 QT
68.092 9.816 L
71.529 9.551 L
71.529 11.894 L
71.904 10.847 72.623 10.199 QT
73.342 9.551 74.357 9.551 QT
75.076 9.551 75.639 9.972 QT
76.201 10.394 76.201 11.082 QT
76.201 11.519 75.889 11.84 QT
75.576 12.16 75.123 12.16 QT
74.67 12.16 74.357 11.847 QT
74.045 11.535 74.045 11.082 QT
74.045 10.441 74.498 10.176 QT
74.357 10.176 L
73.389 10.176 72.771 10.879 QT
72.154 11.582 71.896 12.621 QT
71.639 13.66 71.639 14.613 QT
71.639 18.551 L
71.639 19.316 73.967 19.316 QT
73.967 20.16 L
68.092 20.16 L
cp}def
f-1455141542
f
GR
GS
[0.75 0 0 0.75 331.95252 180.3728] CT
N
/f-1169849395{82.851 20.426 M
81.382 20.426 80.156 19.66 QT
78.929 18.894 78.234 17.613 QT
77.539 16.332 77.539 14.894 QT
77.539 13.488 78.179 12.222 QT
78.82 10.957 79.961 10.176 QT
81.101 9.394 82.507 9.394 QT
83.601 9.394 84.421 9.769 QT
85.242 10.144 85.765 10.801 QT
86.289 11.457 86.562 12.347 QT
86.836 13.238 86.836 14.301 QT
86.836 14.613 86.586 14.613 QT
79.632 14.613 L
79.632 14.879 L
79.632 16.863 80.437 18.293 QT
81.242 19.722 83.054 19.722 QT
83.789 19.722 84.421 19.394 QT
85.054 19.066 85.515 18.48 QT
85.976 17.894 86.132 17.222 QT
86.164 17.144 86.226 17.082 QT
86.289 17.019 86.367 17.019 QT
86.586 17.019 L
86.836 17.019 86.836 17.316 QT
86.492 18.676 85.367 19.551 QT
84.242 20.426 82.851 20.426 QT
cp
79.664 14.019 M
85.132 14.019 L
85.132 13.113 84.882 12.191 QT
84.632 11.269 84.046 10.652 QT
83.461 10.035 82.507 10.035 QT
81.148 10.035 80.406 11.308 QT
79.664 12.582 79.664 14.019 QT
cp}def
f-1169849395
f
GR
GS
[0.75 0 0 0.75 331.95252 180.3728] CT
N
/f1762520034{93.393 20.426 M
91.971 20.426 90.799 19.66 QT
89.627 18.894 88.979 17.636 QT
88.33 16.379 88.33 14.972 QT
88.33 13.519 89.041 12.277 QT
89.752 11.035 90.971 10.293 QT
92.19 9.551 93.658 9.551 QT
94.533 9.551 95.315 9.918 QT
96.096 10.285 96.674 10.941 QT
96.674 5.957 L
96.674 5.316 96.479 5.027 QT
96.283 4.738 95.932 4.676 QT
95.58 4.613 94.815 4.613 QT
94.815 3.769 L
98.362 3.504 L
98.362 17.972 L
98.362 18.613 98.557 18.902 QT
98.752 19.191 99.112 19.254 QT
99.471 19.316 100.221 19.316 QT
100.221 20.16 L
96.612 20.426 L
96.612 18.91 L
95.987 19.629 95.127 20.027 QT
94.268 20.426 93.393 20.426 QT
cp
90.94 18.066 M
91.362 18.863 92.041 19.332 QT
92.721 19.801 93.533 19.801 QT
94.533 19.801 95.362 19.222 QT
96.19 18.644 96.612 17.738 QT
96.612 11.972 L
96.33 11.457 95.901 11.035 QT
95.471 10.613 94.94 10.394 QT
94.408 10.176 93.799 10.176 QT
92.549 10.176 91.791 10.886 QT
91.033 11.597 90.729 12.699 QT
90.424 13.801 90.424 15.004 QT
90.424 15.957 90.518 16.676 QT
90.612 17.394 90.94 18.066 QT
cp}def
f1762520034
f
GR
GS
[0.75 0 0 0.75 331.95252 180.3728] CT
N
/f-791961747{109.492 24.816 M
109.492 23.988 L
110.304 23.988 110.836 23.847 QT
111.367 23.707 111.367 23.207 QT
111.367 11.644 L
111.367 10.988 110.898 10.824 QT
110.429 10.66 109.492 10.66 QT
109.492 9.816 L
113.039 9.551 L
113.039 11.035 L
113.695 10.316 114.57 9.933 QT
115.445 9.551 116.429 9.551 QT
117.851 9.551 118.984 10.316 QT
120.117 11.082 120.757 12.332 QT
121.398 13.582 121.398 14.972 QT
121.398 16.426 120.687 17.683 QT
119.976 18.941 118.75 19.683 QT
117.523 20.426 116.07 20.426 QT
114.32 20.426 113.117 19.004 QT
113.117 23.207 L
113.117 23.707 113.648 23.847 QT
114.179 23.988 114.992 23.988 QT
114.992 24.816 L
109.492 24.816 L
cp
113.117 17.832 M
113.539 18.676 114.289 19.238 QT
115.039 19.801 115.929 19.801 QT
116.757 19.801 117.398 19.355 QT
118.039 18.91 118.468 18.16 QT
118.898 17.41 119.101 16.582 QT
119.304 15.754 119.304 14.972 QT
119.304 14.019 118.961 12.902 QT
118.617 11.785 117.906 11.011 QT
117.195 10.238 116.195 10.238 QT
115.226 10.238 114.406 10.738 QT
113.586 11.238 113.117 12.097 QT
113.117 17.832 L
cp}def
f-791961747
f
GR
GS
[0.75 0 0 0.75 331.95252 180.3728] CT
N
/f2052627709{123.169 17.801 M
123.169 16.379 124.294 15.48 QT
125.419 14.582 126.989 14.215 QT
128.56 13.847 129.981 13.847 QT
129.981 12.863 L
129.981 12.16 129.677 11.511 QT
129.372 10.863 128.802 10.449 QT
128.231 10.035 127.528 10.035 QT
125.935 10.035 125.106 10.754 QT
125.56 10.754 125.864 11.097 QT
126.169 11.441 126.169 11.894 QT
126.169 12.379 125.825 12.715 QT
125.481 13.051 125.013 13.051 QT
124.528 13.051 124.192 12.715 QT
123.856 12.379 123.856 11.894 QT
123.856 10.629 125.005 10.011 QT
126.153 9.394 127.528 9.394 QT
128.513 9.394 129.497 9.816 QT
130.481 10.238 131.106 11.011 QT
131.731 11.785 131.731 12.816 QT
131.731 18.207 L
131.731 18.676 131.927 19.074 QT
132.122 19.472 132.544 19.472 QT
132.95 19.472 133.146 19.074 QT
133.341 18.676 133.341 18.207 QT
133.341 16.676 L
134.044 16.676 L
134.044 18.207 L
134.044 18.754 133.763 19.238 QT
133.481 19.722 133.005 20.011 QT
132.528 20.301 131.981 20.301 QT
131.278 20.301 130.763 19.754 QT
130.247 19.207 130.2 18.457 QT
129.747 19.363 128.88 19.894 QT
128.013 20.426 127.028 20.426 QT
126.122 20.426 125.231 20.16 QT
124.341 19.894 123.755 19.308 QT
123.169 18.722 123.169 17.801 QT
cp
125.106 17.801 M
125.106 18.644 125.731 19.222 QT
126.356 19.801 127.2 19.801 QT
127.966 19.801 128.599 19.41 QT
129.231 19.019 129.606 18.355 QT
129.981 17.691 129.981 16.941 QT
129.981 14.457 L
128.888 14.457 127.747 14.808 QT
126.606 15.16 125.856 15.926 QT
125.106 16.691 125.106 17.801 QT
cp}def
f2052627709
f
GR
GS
[0.75 0 0 0.75 331.95252 180.3728] CT
N
/f-1625763794{134.825 20.16 M
134.825 19.316 L
135.638 19.316 136.169 19.183 QT
136.7 19.051 136.7 18.551 QT
136.7 12.004 L
136.7 11.363 136.505 11.074 QT
136.31 10.785 135.95 10.722 QT
135.591 10.66 134.825 10.66 QT
134.825 9.816 L
138.263 9.551 L
138.263 11.894 L
138.638 10.847 139.356 10.199 QT
140.075 9.551 141.091 9.551 QT
141.81 9.551 142.372 9.972 QT
142.935 10.394 142.935 11.082 QT
142.935 11.519 142.622 11.84 QT
142.31 12.16 141.856 12.16 QT
141.403 12.16 141.091 11.847 QT
140.778 11.535 140.778 11.082 QT
140.778 10.441 141.231 10.176 QT
141.091 10.176 L
140.122 10.176 139.505 10.879 QT
138.888 11.582 138.63 12.621 QT
138.372 13.66 138.372 14.613 QT
138.372 18.551 L
138.372 19.316 140.7 19.316 QT
140.7 20.16 L
134.825 20.16 L
cp}def
f-1625763794
f
GR
GS
[0.75 0 0 0.75 331.95252 180.3728] CT
N
/f-429927911{144.569 17.801 M
144.569 16.379 145.694 15.48 QT
146.819 14.582 148.389 14.215 QT
149.96 13.847 151.382 13.847 QT
151.382 12.863 L
151.382 12.16 151.077 11.511 QT
150.772 10.863 150.202 10.449 QT
149.632 10.035 148.928 10.035 QT
147.335 10.035 146.507 10.754 QT
146.96 10.754 147.264 11.097 QT
147.569 11.441 147.569 11.894 QT
147.569 12.379 147.225 12.715 QT
146.882 13.051 146.413 13.051 QT
145.928 13.051 145.592 12.715 QT
145.257 12.379 145.257 11.894 QT
145.257 10.629 146.405 10.011 QT
147.553 9.394 148.928 9.394 QT
149.913 9.394 150.897 9.816 QT
151.882 10.238 152.507 11.011 QT
153.132 11.785 153.132 12.816 QT
153.132 18.207 L
153.132 18.676 153.327 19.074 QT
153.522 19.472 153.944 19.472 QT
154.35 19.472 154.546 19.074 QT
154.741 18.676 154.741 18.207 QT
154.741 16.676 L
155.444 16.676 L
155.444 18.207 L
155.444 18.754 155.163 19.238 QT
154.882 19.722 154.405 20.011 QT
153.928 20.301 153.382 20.301 QT
152.678 20.301 152.163 19.754 QT
151.647 19.207 151.6 18.457 QT
151.147 19.363 150.28 19.894 QT
149.413 20.426 148.428 20.426 QT
147.522 20.426 146.632 20.16 QT
145.741 19.894 145.155 19.308 QT
144.569 18.722 144.569 17.801 QT
cp
146.507 17.801 M
146.507 18.644 147.132 19.222 QT
147.757 19.801 148.6 19.801 QT
149.366 19.801 149.999 19.41 QT
150.632 19.019 151.007 18.355 QT
151.382 17.691 151.382 16.941 QT
151.382 14.457 L
150.288 14.457 149.147 14.808 QT
148.007 15.16 147.257 15.926 QT
146.507 16.691 146.507 17.801 QT
cp}def
f-429927911
f
GR
GS
[0.75 0 0 0.75 331.95252 180.3728] CT
N
/f-1743667507{156.319 20.16 M
156.319 19.316 L
157.132 19.316 157.663 19.183 QT
158.194 19.051 158.194 18.551 QT
158.194 12.004 L
158.194 11.363 157.999 11.074 QT
157.803 10.785 157.444 10.722 QT
157.085 10.66 156.319 10.66 QT
156.319 9.816 L
159.803 9.551 L
159.803 11.894 L
160.272 10.863 161.217 10.207 QT
162.163 9.551 163.272 9.551 QT
166.038 9.551 166.522 11.801 QT
167.007 10.801 167.928 10.176 QT
168.85 9.551 169.96 9.551 QT
171.053 9.551 171.796 9.902 QT
172.538 10.254 172.913 10.972 QT
173.288 11.691 173.288 12.785 QT
173.288 18.551 L
173.288 19.051 173.819 19.183 QT
174.35 19.316 175.163 19.316 QT
175.163 20.16 L
169.663 20.16 L
169.663 19.316 L
170.491 19.316 171.014 19.183 QT
171.538 19.051 171.538 18.551 QT
171.538 12.863 L
171.538 11.644 171.202 10.91 QT
170.866 10.176 169.803 10.176 QT
168.428 10.176 167.522 11.285 QT
166.616 12.394 166.616 13.816 QT
166.616 18.551 L
166.616 19.051 167.147 19.183 QT
167.678 19.316 168.491 19.316 QT
168.491 20.16 L
162.991 20.16 L
162.991 19.316 L
163.819 19.316 164.342 19.183 QT
164.866 19.051 164.866 18.551 QT
164.866 12.863 L
164.866 11.691 164.53 10.933 QT
164.194 10.176 163.132 10.176 QT
161.741 10.176 160.842 11.285 QT
159.944 12.394 159.944 13.816 QT
159.944 18.551 L
159.944 19.051 160.475 19.183 QT
161.007 19.316 161.819 19.316 QT
161.819 20.16 L
156.319 20.16 L
cp}def
f-1743667507
f
GR
GS
[0.75 0 0 0.75 331.95252 180.3728] CT
N
/f-890634954{177.616 18.832 M
177.616 18.301 178.014 17.91 QT
178.413 17.519 178.944 17.519 QT
179.272 17.519 179.585 17.699 QT
179.897 17.879 180.077 18.191 QT
180.257 18.504 180.257 18.832 QT
180.257 19.363 179.866 19.761 QT
179.475 20.16 178.944 20.16 QT
178.413 20.16 178.014 19.761 QT
177.616 19.363 177.616 18.832 QT
cp}def
f-890634954
f
GR
%%Trailer
%%Pages: 1
%%EOF
