%!PS-Adobe-3.0 EPSF-3.0
%%Creator: (MATLAB, The Mathworks, Inc. Version 9.6.0.1072779 \(R2019a\). Operating System: Windows 8.1)
%%Title: ./plot_phase_sweep.eps
%%CreationDate: 2019-04-23T10:57:25
%%Pages: (atend)
%%BoundingBox:    49     2   683   336
%%LanguageLevel: 3
%%EndComments
%%BeginProlog
%%BeginResource: procset (Apache XML Graphics Std ProcSet) 1.2 0
%%Version: 1.2 0
%%Copyright: (Copyright 2001-2003,2010 The Apache Software Foundation. License terms: http://www.apache.org/licenses/LICENSE-2.0)
/bd{bind def}bind def
/ld{load def}bd
/GR/grestore ld
/GS/gsave ld
/RM/rmoveto ld
/C/curveto ld
/t/show ld
/L/lineto ld
/ML/setmiterlimit ld
/CT/concat ld
/f/fill ld
/N/newpath ld
/S/stroke ld
/CC/setcmykcolor ld
/A/ashow ld
/cp/closepath ld
/RC/setrgbcolor ld
/LJ/setlinejoin ld
/GC/setgray ld
/LW/setlinewidth ld
/M/moveto ld
/re {4 2 roll M
1 index 0 rlineto
0 exch rlineto
neg 0 rlineto
cp } bd
/_ctm matrix def
/_tm matrix def
/BT { _ctm currentmatrix pop matrix _tm copy pop 0 0 moveto } bd
/ET { _ctm setmatrix } bd
/iTm { _ctm setmatrix _tm concat } bd
/Tm { _tm astore pop iTm 0 0 moveto } bd
/ux 0.0 def
/uy 0.0 def
/F {
  /Tp exch def
  /Tf exch def
  Tf findfont Tp scalefont setfont
  /cf Tf def  /cs Tp def
} bd
/ULS {currentpoint /uy exch def /ux exch def} bd
/ULE {
  /Tcx currentpoint pop def
  gsave
  newpath
  cf findfont cs scalefont dup
  /FontMatrix get 0 get /Ts exch def /FontInfo get dup
  /UnderlinePosition get Ts mul /To exch def
  /UnderlineThickness get Ts mul /Tt exch def
  ux uy To add moveto  Tcx uy To add lineto
  Tt setlinewidth stroke
  grestore
} bd
/OLE {
  /Tcx currentpoint pop def
  gsave
  newpath
  cf findfont cs scalefont dup
  /FontMatrix get 0 get /Ts exch def /FontInfo get dup
  /UnderlinePosition get Ts mul /To exch def
  /UnderlineThickness get Ts mul /Tt exch def
  ux uy To add cs add moveto Tcx uy To add cs add lineto
  Tt setlinewidth stroke
  grestore
} bd
/SOE {
  /Tcx currentpoint pop def
  gsave
  newpath
  cf findfont cs scalefont dup
  /FontMatrix get 0 get /Ts exch def /FontInfo get dup
  /UnderlinePosition get Ts mul /To exch def
  /UnderlineThickness get Ts mul /Tt exch def
  ux uy To add cs 10 mul 26 idiv add moveto Tcx uy To add cs 10 mul 26 idiv add lineto
  Tt setlinewidth stroke
  grestore
} bd
/QT {
/Y22 exch store
/X22 exch store
/Y21 exch store
/X21 exch store
currentpoint
/Y21 load 2 mul add 3 div exch
/X21 load 2 mul add 3 div exch
/X21 load 2 mul /X22 load add 3 div
/Y21 load 2 mul /Y22 load add 3 div
/X22 load /Y22 load curveto
} bd
/SSPD {
dup length /d exch dict def
{
/v exch def
/k exch def
currentpagedevice k known {
/cpdv currentpagedevice k get def
v cpdv ne {
/upd false def
/nullv v type /nulltype eq def
/nullcpdv cpdv type /nulltype eq def
nullv nullcpdv or
{
/upd true def
} {
/sametype v type cpdv type eq def
sametype {
v type /arraytype eq {
/vlen v length def
/cpdvlen cpdv length def
vlen cpdvlen eq {
0 1 vlen 1 sub {
/i exch def
/obj v i get def
/cpdobj cpdv i get def
obj cpdobj ne {
/upd true def
exit
} if
} for
} {
/upd true def
} ifelse
} {
v type /dicttype eq {
v {
/dv exch def
/dk exch def
/cpddv cpdv dk get def
dv cpddv ne {
/upd true def
exit
} if
} forall
} {
/upd true def
} ifelse
} ifelse
} if
} ifelse
upd true eq {
d k v put
} if
} if
} if
} forall
d length 0 gt {
d setpagedevice
} if
} bd
/RE { % /NewFontName [NewEncodingArray] /FontName RE -
  findfont dup length dict begin
  {
    1 index /FID ne
    {def} {pop pop} ifelse
  } forall
  /Encoding exch def
  /FontName 1 index def
  currentdict definefont pop
  end
} bind def
%%EndResource
%%BeginResource: procset (Apache XML Graphics EPS ProcSet) 1.0 0
%%Version: 1.0 0
%%Copyright: (Copyright 2002-2003 The Apache Software Foundation. License terms: http://www.apache.org/licenses/LICENSE-2.0)
/BeginEPSF { %def
/b4_Inc_state save def         % Save state for cleanup
/dict_count countdictstack def % Count objects on dict stack
/op_count count 1 sub def      % Count objects on operand stack
userdict begin                 % Push userdict on dict stack
/showpage { } def              % Redefine showpage, { } = null proc
0 setgray 0 setlinecap         % Prepare graphics state
1 setlinewidth 0 setlinejoin
10 setmiterlimit [ ] 0 setdash newpath
/languagelevel where           % If level not equal to 1 then
{pop languagelevel             % set strokeadjust and
1 ne                           % overprint to their defaults.
{false setstrokeadjust false setoverprint
} if
} if
} bd
/EndEPSF { %def
count op_count sub {pop} repeat            % Clean up stacks
countdictstack dict_count sub {end} repeat
b4_Inc_state restore
} bd
%%EndResource
%FOPBeginFontDict
%%IncludeResource: font Courier-Oblique
%%IncludeResource: font Courier-BoldOblique
%%IncludeResource: font Courier-Bold
%%IncludeResource: font ZapfDingbats
%%IncludeResource: font Symbol
%%IncludeResource: font Helvetica
%%IncludeResource: font Helvetica-Oblique
%%IncludeResource: font Helvetica-Bold
%%IncludeResource: font Helvetica-BoldOblique
%%IncludeResource: font Times-Roman
%%IncludeResource: font Times-Italic
%%IncludeResource: font Times-Bold
%%IncludeResource: font Times-BoldItalic
%%IncludeResource: font Courier
%FOPEndFontDict
%%BeginResource: encoding WinAnsiEncoding
/WinAnsiEncoding [
/.notdef /.notdef /.notdef /.notdef /.notdef
/.notdef /.notdef /.notdef /.notdef /.notdef
/.notdef /.notdef /.notdef /.notdef /.notdef
/.notdef /.notdef /.notdef /.notdef /.notdef
/.notdef /.notdef /.notdef /.notdef /.notdef
/.notdef /.notdef /.notdef /.notdef /.notdef
/.notdef /.notdef /space /exclam /quotedbl
/numbersign /dollar /percent /ampersand /quotesingle
/parenleft /parenright /asterisk /plus /comma
/hyphen /period /slash /zero /one
/two /three /four /five /six
/seven /eight /nine /colon /semicolon
/less /equal /greater /question /at
/A /B /C /D /E
/F /G /H /I /J
/K /L /M /N /O
/P /Q /R /S /T
/U /V /W /X /Y
/Z /bracketleft /backslash /bracketright /asciicircum
/underscore /quoteleft /a /b /c
/d /e /f /g /h
/i /j /k /l /m
/n /o /p /q /r
/s /t /u /v /w
/x /y /z /braceleft /bar
/braceright /asciitilde /bullet /Euro /bullet
/quotesinglbase /florin /quotedblbase /ellipsis /dagger
/daggerdbl /circumflex /perthousand /Scaron /guilsinglleft
/OE /bullet /Zcaron /bullet /bullet
/quoteleft /quoteright /quotedblleft /quotedblright /bullet
/endash /emdash /asciitilde /trademark /scaron
/guilsinglright /oe /bullet /zcaron /Ydieresis
/space /exclamdown /cent /sterling /currency
/yen /brokenbar /section /dieresis /copyright
/ordfeminine /guillemotleft /logicalnot /sfthyphen /registered
/macron /degree /plusminus /twosuperior /threesuperior
/acute /mu /paragraph /middot /cedilla
/onesuperior /ordmasculine /guillemotright /onequarter /onehalf
/threequarters /questiondown /Agrave /Aacute /Acircumflex
/Atilde /Adieresis /Aring /AE /Ccedilla
/Egrave /Eacute /Ecircumflex /Edieresis /Igrave
/Iacute /Icircumflex /Idieresis /Eth /Ntilde
/Ograve /Oacute /Ocircumflex /Otilde /Odieresis
/multiply /Oslash /Ugrave /Uacute /Ucircumflex
/Udieresis /Yacute /Thorn /germandbls /agrave
/aacute /acircumflex /atilde /adieresis /aring
/ae /ccedilla /egrave /eacute /ecircumflex
/edieresis /igrave /iacute /icircumflex /idieresis
/eth /ntilde /ograve /oacute /ocircumflex
/otilde /odieresis /divide /oslash /ugrave
/uacute /ucircumflex /udieresis /yacute /thorn
/ydieresis
] def
%%EndResource
%FOPBeginFontReencode
/Courier-Oblique findfont
dup length dict begin
  {1 index /FID ne {def} {pop pop} ifelse} forall
  /Encoding WinAnsiEncoding def
  currentdict
end
/Courier-Oblique exch definefont pop
/Courier-BoldOblique findfont
dup length dict begin
  {1 index /FID ne {def} {pop pop} ifelse} forall
  /Encoding WinAnsiEncoding def
  currentdict
end
/Courier-BoldOblique exch definefont pop
/Courier-Bold findfont
dup length dict begin
  {1 index /FID ne {def} {pop pop} ifelse} forall
  /Encoding WinAnsiEncoding def
  currentdict
end
/Courier-Bold exch definefont pop
/Helvetica findfont
dup length dict begin
  {1 index /FID ne {def} {pop pop} ifelse} forall
  /Encoding WinAnsiEncoding def
  currentdict
end
/Helvetica exch definefont pop
/Helvetica-Oblique findfont
dup length dict begin
  {1 index /FID ne {def} {pop pop} ifelse} forall
  /Encoding WinAnsiEncoding def
  currentdict
end
/Helvetica-Oblique exch definefont pop
/Helvetica-Bold findfont
dup length dict begin
  {1 index /FID ne {def} {pop pop} ifelse} forall
  /Encoding WinAnsiEncoding def
  currentdict
end
/Helvetica-Bold exch definefont pop
/Helvetica-BoldOblique findfont
dup length dict begin
  {1 index /FID ne {def} {pop pop} ifelse} forall
  /Encoding WinAnsiEncoding def
  currentdict
end
/Helvetica-BoldOblique exch definefont pop
/Times-Roman findfont
dup length dict begin
  {1 index /FID ne {def} {pop pop} ifelse} forall
  /Encoding WinAnsiEncoding def
  currentdict
end
/Times-Roman exch definefont pop
/Times-Italic findfont
dup length dict begin
  {1 index /FID ne {def} {pop pop} ifelse} forall
  /Encoding WinAnsiEncoding def
  currentdict
end
/Times-Italic exch definefont pop
/Times-Bold findfont
dup length dict begin
  {1 index /FID ne {def} {pop pop} ifelse} forall
  /Encoding WinAnsiEncoding def
  currentdict
end
/Times-Bold exch definefont pop
/Times-BoldItalic findfont
dup length dict begin
  {1 index /FID ne {def} {pop pop} ifelse} forall
  /Encoding WinAnsiEncoding def
  currentdict
end
/Times-BoldItalic exch definefont pop
/Courier findfont
dup length dict begin
  {1 index /FID ne {def} {pop pop} ifelse} forall
  /Encoding WinAnsiEncoding def
  currentdict
end
/Courier exch definefont pop
%FOPEndFontReencode
%%EndProlog
%%Page: 1 1
%%PageBoundingBox: 0 0 753 358
%%BeginPageSetup
[1 0 0 -1 0 358] CT
%%EndPageSetup
GS
[0.50013 0 0 0.50082 0 -0.0831] CT
N
0 0 M
1506 0 L
1506 715 L
0 715 L
0 0 L
cp
clip
1 GC
N
0 0 1506 715 re
f
GR
GS
[0.50013 0 0 0.50082 0 -0.0831] CT
1 GC
N
0 0 1506 715 re
f
GR
GS
[0.50013 0 0 0.50082 0 -0.0831] CT
1 GC
N
196 621 M
1363 621 L
1363 54 L
196 54 L
cp
f
GR
GS
[0.50013 0 0 0.50082 0 -0.0831] CT
0.873 GC
[4 4] 0 setdash
2 LJ
4 LW
N
196 621 M
196 54 L
S
GR
GS
[0.50013 0 0 0.50082 0 -0.0831] CT
0.873 GC
[4 4] 0 setdash
2 LJ
4 LW
N
312.7 621 M
312.7 54 L
S
GR
GS
[0.50013 0 0 0.50082 0 -0.0831] CT
0.873 GC
[4 4] 0 setdash
2 LJ
4 LW
N
429.4 621 M
429.4 54 L
S
GR
GS
[0.50013 0 0 0.50082 0 -0.0831] CT
0.873 GC
[4 4] 0 setdash
2 LJ
4 LW
N
546.1 621 M
546.1 54 L
S
GR
GS
[0.50013 0 0 0.50082 0 -0.0831] CT
0.873 GC
[4 4] 0 setdash
2 LJ
4 LW
N
662.8 621 M
662.8 54 L
S
GR
GS
[0.50013 0 0 0.50082 0 -0.0831] CT
0.873 GC
[4 4] 0 setdash
2 LJ
4 LW
N
779.5 621 M
779.5 54 L
S
GR
GS
[0.50013 0 0 0.50082 0 -0.0831] CT
0.873 GC
[4 4] 0 setdash
2 LJ
4 LW
N
896.2 621 M
896.2 54 L
S
GR
GS
[0.50013 0 0 0.50082 0 -0.0831] CT
0.873 GC
[4 4] 0 setdash
2 LJ
4 LW
N
1012.9 621 M
1012.9 54 L
S
GR
GS
[0.50013 0 0 0.50082 0 -0.0831] CT
0.873 GC
[4 4] 0 setdash
2 LJ
4 LW
N
1129.6 621 M
1129.6 54 L
S
GR
GS
[0.50013 0 0 0.50082 0 -0.0831] CT
0.873 GC
[4 4] 0 setdash
2 LJ
4 LW
N
1246.3 621 M
1246.3 54 L
S
GR
GS
[0.50013 0 0 0.50082 0 -0.0831] CT
0.873 GC
[4 4] 0 setdash
2 LJ
4 LW
N
1363 621 M
1363 54 L
S
GR
GS
[0.50013 0 0 0.50082 0 -0.0831] CT
0.873 GC
[4 4] 0 setdash
2 LJ
4 LW
N
1363 621 M
196 621 L
S
GR
GS
[0.50013 0 0 0.50082 0 -0.0831] CT
0.873 GC
[4 4] 0 setdash
2 LJ
4 LW
N
1363 507.6 M
196 507.6 L
S
GR
GS
[0.50013 0 0 0.50082 0 -0.0831] CT
0.873 GC
[4 4] 0 setdash
2 LJ
4 LW
N
1363 394.2 M
196 394.2 L
S
GR
GS
[0.50013 0 0 0.50082 0 -0.0831] CT
0.873 GC
[4 4] 0 setdash
2 LJ
4 LW
N
1363 280.8 M
196 280.8 L
S
GR
GS
[0.50013 0 0 0.50082 0 -0.0831] CT
0.873 GC
[4 4] 0 setdash
2 LJ
4 LW
N
1363 167.4 M
196 167.4 L
S
GR
GS
[0.50013 0 0 0.50082 0 -0.0831] CT
0.873 GC
[4 4] 0 setdash
2 LJ
4 LW
N
1363 54 M
196 54 L
S
GR
GS
[0.50013 0 0 0.50082 0 -0.0831] CT
0.149 GC
2 setlinecap
1 LJ
4 LW
N
196 621 M
1363 621 L
S
GR
GS
[0.50013 0 0 0.50082 0 -0.0831] CT
0.149 GC
2 setlinecap
1 LJ
4 LW
N
196 54 M
1363 54 L
S
GR
GS
[0.50013 0 0 0.50082 0 -0.0831] CT
0.149 GC
2 setlinecap
1 LJ
4 LW
N
196 621 M
196 609.33 L
S
GR
GS
[0.50013 0 0 0.50082 0 -0.0831] CT
0.149 GC
2 setlinecap
1 LJ
4 LW
N
312.7 621 M
312.7 609.33 L
S
GR
GS
[0.50013 0 0 0.50082 0 -0.0831] CT
0.149 GC
2 setlinecap
1 LJ
4 LW
N
429.4 621 M
429.4 609.33 L
S
GR
GS
[0.50013 0 0 0.50082 0 -0.0831] CT
0.149 GC
2 setlinecap
1 LJ
4 LW
N
546.1 621 M
546.1 609.33 L
S
GR
GS
[0.50013 0 0 0.50082 0 -0.0831] CT
0.149 GC
2 setlinecap
1 LJ
4 LW
N
662.8 621 M
662.8 609.33 L
S
GR
GS
[0.50013 0 0 0.50082 0 -0.0831] CT
0.149 GC
2 setlinecap
1 LJ
4 LW
N
779.5 621 M
779.5 609.33 L
S
GR
GS
[0.50013 0 0 0.50082 0 -0.0831] CT
0.149 GC
2 setlinecap
1 LJ
4 LW
N
896.2 621 M
896.2 609.33 L
S
GR
GS
[0.50013 0 0 0.50082 0 -0.0831] CT
0.149 GC
2 setlinecap
1 LJ
4 LW
N
1012.9 621 M
1012.9 609.33 L
S
GR
GS
[0.50013 0 0 0.50082 0 -0.0831] CT
0.149 GC
2 setlinecap
1 LJ
4 LW
N
1129.6 621 M
1129.6 609.33 L
S
GR
GS
[0.50013 0 0 0.50082 0 -0.0831] CT
0.149 GC
2 setlinecap
1 LJ
4 LW
N
1246.3 621 M
1246.3 609.33 L
S
GR
GS
[0.50013 0 0 0.50082 0 -0.0831] CT
0.149 GC
2 setlinecap
1 LJ
4 LW
N
1363 621 M
1363 609.33 L
S
GR
GS
[0.50013 0 0 0.50082 0 -0.0831] CT
0.149 GC
2 setlinecap
1 LJ
4 LW
N
196 54 M
196 65.67 L
S
GR
GS
[0.50013 0 0 0.50082 0 -0.0831] CT
0.149 GC
2 setlinecap
1 LJ
4 LW
N
312.7 54 M
312.7 65.67 L
S
GR
GS
[0.50013 0 0 0.50082 0 -0.0831] CT
0.149 GC
2 setlinecap
1 LJ
4 LW
N
429.4 54 M
429.4 65.67 L
S
GR
GS
[0.50013 0 0 0.50082 0 -0.0831] CT
0.149 GC
2 setlinecap
1 LJ
4 LW
N
546.1 54 M
546.1 65.67 L
S
GR
GS
[0.50013 0 0 0.50082 0 -0.0831] CT
0.149 GC
2 setlinecap
1 LJ
4 LW
N
662.8 54 M
662.8 65.67 L
S
GR
GS
[0.50013 0 0 0.50082 0 -0.0831] CT
0.149 GC
2 setlinecap
1 LJ
4 LW
N
779.5 54 M
779.5 65.67 L
S
GR
GS
[0.50013 0 0 0.50082 0 -0.0831] CT
0.149 GC
2 setlinecap
1 LJ
4 LW
N
896.2 54 M
896.2 65.67 L
S
GR
GS
[0.50013 0 0 0.50082 0 -0.0831] CT
0.149 GC
2 setlinecap
1 LJ
4 LW
N
1012.9 54 M
1012.9 65.67 L
S
GR
GS
[0.50013 0 0 0.50082 0 -0.0831] CT
0.149 GC
2 setlinecap
1 LJ
4 LW
N
1129.6 54 M
1129.6 65.67 L
S
GR
GS
[0.50013 0 0 0.50082 0 -0.0831] CT
0.149 GC
2 setlinecap
1 LJ
4 LW
N
1246.3 54 M
1246.3 65.67 L
S
GR
GS
[0.50013 0 0 0.50082 0 -0.0831] CT
0.149 GC
2 setlinecap
1 LJ
4 LW
N
1363 54 M
1363 65.67 L
S
GR
GS
[0.50013 0 0 0.50082 98.02499 315.73116] CT
0.149 GC
/Helvetica 28 F
GS
[1 0 0 1 0 0] CT
-8 29 moveto 
1 -1 scale
(0) t 
GR
GR
GS
[0.50013 0 0 0.50082 156.38988 315.73116] CT
0.149 GC
/Helvetica 28 F
GS
[1 0 0 1 0 0] CT
-19.5 29 moveto 
1 -1 scale
(0.1) t 
GR
GR
GS
[0.50013 0 0 0.50082 214.75475 315.73116] CT
0.149 GC
/Helvetica 28 F
GS
[1 0 0 1 0 0] CT
-19.5 29 moveto 
1 -1 scale
(0.2) t 
GR
GR
GS
[0.50013 0 0 0.50082 273.11965 315.73116] CT
0.149 GC
/Helvetica 28 F
GS
[1 0 0 1 0 0] CT
-19.5 29 moveto 
1 -1 scale
(0.3) t 
GR
GR
GS
[0.50013 0 0 0.50082 331.4845 315.73116] CT
0.149 GC
/Helvetica 28 F
GS
[1 0 0 1 0 0] CT
-19.5 29 moveto 
1 -1 scale
(0.4) t 
GR
GR
GS
[0.50013 0 0 0.50082 389.84939 315.73116] CT
0.149 GC
/Helvetica 28 F
GS
[1 0 0 1 0 0] CT
-19.5 29 moveto 
1 -1 scale
(0.5) t 
GR
GR
GS
[0.50013 0 0 0.50082 448.21427 315.73116] CT
0.149 GC
/Helvetica 28 F
GS
[1 0 0 1 0 0] CT
-19.5 29 moveto 
1 -1 scale
(0.6) t 
GR
GR
GS
[0.50013 0 0 0.50082 506.57913 315.73116] CT
0.149 GC
/Helvetica 28 F
GS
[1 0 0 1 0 0] CT
-19.5 29 moveto 
1 -1 scale
(0.7) t 
GR
GR
GS
[0.50013 0 0 0.50082 564.94401 315.73116] CT
0.149 GC
/Helvetica 28 F
GS
[1 0 0 1 0 0] CT
-19.5 29 moveto 
1 -1 scale
(0.8) t 
GR
GR
GS
[0.50013 0 0 0.50082 623.30887 315.73116] CT
0.149 GC
/Helvetica 28 F
GS
[1 0 0 1 0 0] CT
-19.5 29 moveto 
1 -1 scale
(0.9) t 
GR
GR
GS
[0.50013 0 0 0.50082 681.67378 315.73116] CT
0.149 GC
/Helvetica 28 F
GS
[1 0 0 1 0 0] CT
-8 29 moveto 
1 -1 scale
(1) t 
GR
GR
GS
[0.50013 0 0 0.50082 389.84966 334.46167] CT
0.149 GC
N
-7.713 41.428 M
-7.713 40.537 -7.314 38.819 QT
-6.916 37.1 -6.338 35.155 QT
-5.759 33.209 -5.353 31.959 QT
-5.197 29.959 -5.197 28.944 QT
-5.197 26.365 -5.705 24.155 QT
-6.213 21.944 -7.619 20.444 QT
-9.025 18.944 -11.541 18.944 QT
-12.869 18.944 -14.189 19.514 QT
-15.509 20.084 -16.455 21.1 QT
-17.4 22.115 -17.744 23.397 QT
-17.822 23.631 -18.056 23.631 QT
-18.556 23.631 L
-18.869 23.631 -18.869 23.287 QT
-18.869 23.147 L
-18.416 21.35 -17.275 19.678 QT
-16.134 18.006 -14.478 16.967 QT
-12.822 15.928 -10.994 15.928 QT
-9.119 15.928 -7.752 17.194 QT
-6.384 18.459 -5.564 20.412 QT
-4.744 22.365 -4.384 24.358 QT
-4.025 26.35 -4.025 28.115 QT
-2.009 22.647 0.491 17.756 QT
1.1 16.475 L
1.209 16.35 1.366 16.35 QT
1.866 16.35 L
2.178 16.35 2.178 16.725 QT
2.178 16.803 2.1 16.959 QT
1.491 18.209 L
-0.244 21.662 -1.705 25.217 QT
-3.166 28.772 -4.197 32.069 QT
-4.353 33.428 -4.791 35.772 QT
-5.228 38.115 -5.853 40.139 QT
-6.478 42.162 -7.103 42.24 QT
-7.713 42.24 -7.713 41.428 QT
cp
f
GR
GS
[0.50013 0 0 0.50082 389.84966 334.46167] CT
0.149 GC
N
2.719 24.506 M
2.469 24.506 2.469 24.162 QT
2.563 23.537 2.828 23.537 QT
3.703 23.537 4.055 23.381 QT
4.406 23.225 4.594 22.584 QT
7.75 9.975 L
7.969 9.459 7.969 8.631 QT
7.969 7.428 7.141 7.428 QT
6.266 7.428 5.844 8.475 QT
5.422 9.522 5.016 11.131 QT
5.016 11.303 4.797 11.303 QT
4.469 11.303 L
4.391 11.303 4.313 11.201 QT
4.234 11.1 4.234 11.022 QT
4.531 9.803 4.813 8.951 QT
5.094 8.1 5.688 7.404 QT
6.281 6.709 7.172 6.709 QT
8.125 6.709 8.852 7.248 QT
9.578 7.787 9.781 8.725 QT
10.547 7.834 11.477 7.272 QT
12.406 6.709 13.391 6.709 QT
14.563 6.709 15.43 7.342 QT
16.297 7.975 16.734 8.99 QT
17.172 10.006 17.172 11.178 QT
17.172 12.99 16.25 14.912 QT
15.328 16.834 13.75 18.115 QT
12.172 19.397 10.375 19.397 QT
9.547 19.397 8.883 18.936 QT
8.219 18.475 7.859 17.709 QT
6.578 22.694 L
6.516 23.1 6.5 23.178 QT
6.5 23.537 8.344 23.537 QT
8.625 23.537 8.625 23.897 QT
8.531 24.272 8.469 24.389 QT
8.406 24.506 8.156 24.506 QT
2.719 24.506 L
cp
10.391 18.662 M
11.359 18.662 12.195 17.858 QT
13.031 17.053 13.547 16.069 QT
13.938 15.303 14.273 14.217 QT
14.609 13.131 14.852 11.904 QT
15.094 10.678 15.094 9.944 QT
15.094 9.303 14.922 8.748 QT
14.75 8.194 14.367 7.811 QT
13.984 7.428 13.328 7.428 QT
12.313 7.428 11.398 8.162 QT
10.484 8.897 9.75 9.975 QT
9.75 10.069 L
8.203 16.256 L
8.406 17.256 8.953 17.959 QT
9.5 18.662 10.391 18.662 QT
cp
f
GR
GS
[0.50013 0 0 0.50082 0 -0.0831] CT
0.149 GC
2 setlinecap
1 LJ
4 LW
N
196 621 M
196 54 L
S
GR
GS
[0.50013 0 0 0.50082 0 -0.0831] CT
0.149 GC
2 setlinecap
1 LJ
4 LW
N
1363 621 M
1363 54 L
S
GR
GS
[0.50013 0 0 0.50082 0 -0.0831] CT
0.149 GC
2 setlinecap
1 LJ
4 LW
N
196 621 M
207.67 621 L
S
GR
GS
[0.50013 0 0 0.50082 0 -0.0831] CT
0.149 GC
2 setlinecap
1 LJ
4 LW
N
196 507.6 M
207.67 507.6 L
S
GR
GS
[0.50013 0 0 0.50082 0 -0.0831] CT
0.149 GC
2 setlinecap
1 LJ
4 LW
N
196 394.2 M
207.67 394.2 L
S
GR
GS
[0.50013 0 0 0.50082 0 -0.0831] CT
0.149 GC
2 setlinecap
1 LJ
4 LW
N
196 280.8 M
207.67 280.8 L
S
GR
GS
[0.50013 0 0 0.50082 0 -0.0831] CT
0.149 GC
2 setlinecap
1 LJ
4 LW
N
196 167.4 M
207.67 167.4 L
S
GR
GS
[0.50013 0 0 0.50082 0 -0.0831] CT
0.149 GC
2 setlinecap
1 LJ
4 LW
N
196 54 M
207.67 54 L
S
GR
GS
[0.50013 0 0 0.50082 0 -0.0831] CT
0.149 GC
2 setlinecap
1 LJ
4 LW
N
1363 621 M
1351.33 621 L
S
GR
GS
[0.50013 0 0 0.50082 0 -0.0831] CT
0.149 GC
2 setlinecap
1 LJ
4 LW
N
1363 507.6 M
1351.33 507.6 L
S
GR
GS
[0.50013 0 0 0.50082 0 -0.0831] CT
0.149 GC
2 setlinecap
1 LJ
4 LW
N
1363 394.2 M
1351.33 394.2 L
S
GR
GS
[0.50013 0 0 0.50082 0 -0.0831] CT
0.149 GC
2 setlinecap
1 LJ
4 LW
N
1363 280.8 M
1351.33 280.8 L
S
GR
GS
[0.50013 0 0 0.50082 0 -0.0831] CT
0.149 GC
2 setlinecap
1 LJ
4 LW
N
1363 167.4 M
1351.33 167.4 L
S
GR
GS
[0.50013 0 0 0.50082 0 -0.0831] CT
0.149 GC
2 setlinecap
1 LJ
4 LW
N
1363 54 M
1351.33 54 L
S
GR
GS
[0.50013 0 0 0.50082 93.22376 310.92334] CT
0.149 GC
/Helvetica 28 F
GS
[1 0 0 1 0 0] CT
-16 11 moveto 
1 -1 scale
(0) t 
GR
GR
GS
[0.50013 0 0 0.50082 93.22376 254.13086] CT
0.149 GC
/Helvetica 28 F
GS
[1 0 0 1 0 0] CT
-39 11 moveto 
1 -1 scale
(0.2) t 
GR
GR
GS
[0.50013 0 0 0.50082 93.22376 197.33837] CT
0.149 GC
/Helvetica 28 F
GS
[1 0 0 1 0 0] CT
-39 11 moveto 
1 -1 scale
(0.4) t 
GR
GR
GS
[0.50013 0 0 0.50082 93.22376 140.54589] CT
0.149 GC
/Helvetica 28 F
GS
[1 0 0 1 0 0] CT
-39 11 moveto 
1 -1 scale
(0.6) t 
GR
GR
GS
[0.50013 0 0 0.50082 93.22376 83.75342] CT
0.149 GC
/Helvetica 28 F
GS
[1 0 0 1 0 0] CT
-39 11 moveto 
1 -1 scale
(0.8) t 
GR
GR
GS
[0.50013 0 0 0.50082 93.22376 26.96094] CT
0.149 GC
/Helvetica 28 F
GS
[1 0 0 1 0 0] CT
-16 11 moveto 
1 -1 scale
(1) t 
GR
GR
GS
[0 -0.50082 0.50013 0 70.71803 168.942] CT
0.149 GC
N
-36.119 -14.4 M
-36.509 -14.4 -36.509 -14.931 QT
-36.494 -15.025 -36.431 -15.267 QT
-36.369 -15.51 -36.259 -15.658 QT
-36.15 -15.806 -35.994 -15.806 QT
-33.556 -15.806 -32.587 -16.088 QT
-32.072 -16.26 -31.837 -17.15 QT
-26.353 -39.135 L
-26.275 -39.525 -26.275 -39.681 QT
-26.275 -40.103 -26.744 -40.166 QT
-27.509 -40.322 -29.634 -40.322 QT
-30.025 -40.322 -30.025 -40.853 QT
-30.009 -40.947 -29.947 -41.189 QT
-29.884 -41.431 -29.775 -41.58 QT
-29.666 -41.728 -29.509 -41.728 QT
-15.712 -41.728 L
-13.806 -41.728 -12.033 -41.056 QT
-10.259 -40.385 -9.126 -38.994 QT
-7.994 -37.603 -7.994 -35.635 QT
-7.994 -33.088 -9.783 -31.095 QT
-11.572 -29.103 -14.236 -27.994 QT
-16.9 -26.885 -19.4 -26.885 QT
-25.9 -26.885 L
-28.337 -16.994 L
-28.416 -16.603 -28.416 -16.431 QT
-28.416 -16.275 -28.369 -16.166 QT
-28.322 -16.056 -28.236 -16.033 QT
-28.15 -16.01 -27.947 -15.963 QT
-27.197 -15.806 -25.056 -15.806 QT
-24.666 -15.806 -24.666 -15.275 QT
-24.806 -14.713 -24.884 -14.556 QT
-24.962 -14.4 -25.353 -14.4 QT
-36.119 -14.4 L
cp
-25.712 -28.072 M
-20.103 -28.072 L
-16.212 -28.072 -14.181 -30.166 QT
-13.15 -31.197 -12.494 -33.15 QT
-11.837 -35.103 -11.837 -36.681 QT
-11.837 -38.666 -13.345 -39.494 QT
-14.853 -40.322 -17.072 -40.322 QT
-20.9 -40.322 L
-21.994 -40.322 -22.345 -40.135 QT
-22.697 -39.947 -22.994 -38.947 QT
-25.712 -28.072 L
cp
f
GR
GS
[0 -0.50082 0.50013 0 70.71803 168.942] CT
0.149 GC
N
-10.235 -8.885 M
-10.235 -9.041 -10.204 -9.119 QT
-8.11 -17.478 L
-7.907 -18.26 -7.907 -18.853 QT
-7.907 -20.056 -8.719 -20.056 QT
-9.594 -20.056 -10.024 -19.01 QT
-10.454 -17.963 -10.844 -16.353 QT
-10.844 -16.275 -10.93 -16.228 QT
-11.016 -16.181 -11.079 -16.181 QT
-11.407 -16.181 L
-11.501 -16.181 -11.571 -16.283 QT
-11.641 -16.385 -11.641 -16.463 QT
-11.344 -17.681 -11.063 -18.533 QT
-10.782 -19.385 -10.188 -20.08 QT
-9.594 -20.775 -8.704 -20.775 QT
-7.735 -20.775 -7.001 -20.213 QT
-6.266 -19.65 -6.094 -18.744 QT
-5.376 -19.666 -4.469 -20.221 QT
-3.563 -20.775 -2.485 -20.775 QT
-1.594 -20.775 -0.915 -20.252 QT
-0.235 -19.728 -0.235 -18.853 QT
-0.235 -18.135 -0.68 -17.611 QT
-1.126 -17.088 -1.86 -17.088 QT
-2.313 -17.088 -2.618 -17.369 QT
-2.922 -17.65 -2.922 -18.088 QT
-2.922 -18.713 -2.477 -19.197 QT
-2.032 -19.681 -1.438 -19.681 QT
-1.891 -20.056 -2.532 -20.056 QT
-3.735 -20.056 -4.626 -19.197 QT
-5.516 -18.338 -6.219 -17.025 QT
-8.219 -9.01 L
-8.313 -8.635 -8.649 -8.361 QT
-8.985 -8.088 -9.391 -8.088 QT
-9.735 -8.088 -9.985 -8.306 QT
-10.235 -8.525 -10.235 -8.885 QT
cp
f
GR
GS
[0 -0.50082 0.50013 0 70.71803 168.942] CT
0.149 GC
N
6.66 -8.088 M
5.316 -8.088 4.308 -8.783 QT
3.3 -9.478 2.777 -10.666 QT
2.253 -11.853 2.253 -13.166 QT
2.253 -15.15 3.253 -16.908 QT
4.253 -18.666 5.98 -19.721 QT
7.706 -20.775 9.675 -20.775 QT
10.878 -20.775 11.777 -20.15 QT
12.675 -19.525 12.675 -18.369 QT
12.675 -16.76 11.386 -15.971 QT
10.097 -15.181 8.488 -14.994 QT
6.878 -14.806 4.91 -14.806 QT
4.831 -14.806 L
4.378 -13.15 4.378 -11.963 QT
4.378 -10.713 4.956 -9.767 QT
5.535 -8.822 6.706 -8.822 QT
8.378 -8.822 9.917 -9.588 QT
11.456 -10.353 12.425 -11.713 QT
12.503 -11.791 12.644 -11.791 QT
12.785 -11.791 12.925 -11.635 QT
13.066 -11.478 13.066 -11.338 QT
13.066 -11.228 13.003 -11.181 QT
11.988 -9.744 10.253 -8.916 QT
8.519 -8.088 6.66 -8.088 QT
cp
5.003 -15.541 M
6.628 -15.541 8.011 -15.689 QT
9.394 -15.838 10.511 -16.447 QT
11.628 -17.056 11.628 -18.338 QT
11.628 -18.853 11.339 -19.244 QT
11.05 -19.635 10.597 -19.846 QT
10.144 -20.056 9.644 -20.056 QT
8.456 -20.056 7.503 -19.408 QT
6.55 -18.76 5.941 -17.728 QT
5.331 -16.697 5.003 -15.541 QT
cp
f
GR
GS
[0 -0.50082 0.50013 0 70.71803 168.942] CT
0.149 GC
N
16.494 -10.103 M
17.244 -8.822 19.51 -8.822 QT
20.494 -8.822 21.385 -9.158 QT
22.275 -9.494 22.853 -10.166 QT
23.432 -10.838 23.432 -11.791 QT
23.432 -12.51 22.916 -12.978 QT
22.4 -13.447 21.65 -13.603 QT
20.135 -13.916 L
19.088 -14.166 18.416 -14.877 QT
17.744 -15.588 17.744 -16.603 QT
17.744 -17.853 18.424 -18.806 QT
19.103 -19.76 20.213 -20.267 QT
21.322 -20.775 22.51 -20.775 QT
23.775 -20.775 24.783 -20.166 QT
25.791 -19.556 25.791 -18.369 QT
25.791 -17.728 25.424 -17.236 QT
25.057 -16.744 24.416 -16.744 QT
24.057 -16.744 23.791 -16.978 QT
23.525 -17.213 23.525 -17.588 QT
23.525 -17.916 23.705 -18.221 QT
23.885 -18.525 24.197 -18.713 QT
24.51 -18.9 24.838 -18.9 QT
24.588 -19.51 23.908 -19.783 QT
23.228 -20.056 22.447 -20.056 QT
21.744 -20.056 21.033 -19.767 QT
20.322 -19.478 19.892 -18.924 QT
19.463 -18.369 19.463 -17.619 QT
19.463 -17.103 19.814 -16.721 QT
20.166 -16.338 20.682 -16.181 QT
22.322 -15.853 L
23.088 -15.681 23.744 -15.267 QT
24.4 -14.853 24.775 -14.221 QT
25.15 -13.588 25.15 -12.76 QT
25.15 -11.728 24.564 -10.713 QT
23.978 -9.697 23.135 -9.103 QT
21.65 -8.088 19.478 -8.088 QT
17.994 -8.088 16.752 -8.767 QT
15.51 -9.447 15.51 -10.806 QT
15.51 -11.572 15.955 -12.142 QT
16.4 -12.713 17.166 -12.713 QT
17.619 -12.713 17.924 -12.439 QT
18.228 -12.166 18.228 -11.713 QT
18.228 -11.072 17.752 -10.588 QT
17.275 -10.103 16.635 -10.103 QT
16.494 -10.103 L
cp
f
GR
GS
[0 -0.50082 0.50013 0 70.71803 168.942] CT
0.149 GC
N
28.744 -5.638 M
28.744 -6.013 28.9 -6.419 QT
30.525 -10.732 L
30.791 -11.45 30.791 -11.919 QT
30.791 -12.528 30.353 -12.528 QT
29.557 -12.528 29.041 -11.708 QT
28.525 -10.888 28.291 -9.888 QT
28.244 -9.763 28.119 -9.763 QT
27.885 -9.763 L
27.713 -9.763 27.713 -9.95 QT
27.713 -9.997 L
28.041 -11.2 28.705 -12.122 QT
29.369 -13.044 30.385 -13.044 QT
31.103 -13.044 31.596 -12.575 QT
32.088 -12.107 32.088 -11.372 QT
32.088 -11.013 31.916 -10.591 QT
30.291 -6.294 L
30.025 -5.638 30.025 -5.107 QT
30.025 -4.497 30.478 -4.497 QT
31.26 -4.497 31.783 -5.333 QT
32.307 -6.169 32.525 -7.138 QT
32.557 -7.263 32.682 -7.263 QT
32.932 -7.263 L
33.01 -7.263 33.057 -7.208 QT
33.103 -7.153 33.103 -7.075 QT
33.103 -7.06 33.088 -7.028 QT
32.807 -5.888 32.127 -4.935 QT
31.447 -3.982 30.447 -3.982 QT
29.744 -3.982 29.244 -4.466 QT
28.744 -4.95 28.744 -5.638 QT
cp
30.994 -16.325 M
30.994 -16.747 31.346 -17.083 QT
31.697 -17.419 32.119 -17.419 QT
32.463 -17.419 32.682 -17.208 QT
32.9 -16.997 32.9 -16.685 QT
32.9 -16.232 32.549 -15.896 QT
32.197 -15.56 31.76 -15.56 QT
31.447 -15.56 31.221 -15.778 QT
30.994 -15.997 30.994 -16.325 QT
cp
f
GR
GS
[0.50013 0 0 0.50082 0 -0.0831] CT
1 0 0 RC
1 LJ
2.6 LW
N
196 187.319 M
207.67 191.27 L
219.34 195.315 L
231.01 199.549 L
242.68 204.139 L
254.35 208.544 L
266.02 213.548 L
277.69 218.446 L
289.36 223.291 L
301.03 229.018 L
312.7 234.278 L
324.37 239.31 L
336.04 245.78 L
347.71 251.79 L
359.38 257.398 L
371.05 262.956 L
382.72 270.163 L
394.39 276.921 L
406.06 283.275 L
417.73 289.265 L
429.4 295.336 L
441.07 303.316 L
452.74 310.838 L
464.41 317.944 L
476.08 324.669 L
487.75 331.045 L
499.42 337.1 L
511.09 345.475 L
522.76 353.724 L
534.43 361.523 L
546.1 368.906 L
557.77 375.904 L
569.44 382.548 L
581.11 388.861 L
592.78 394.867 L
604.45 403.632 L
616.12 411.914 L
627.79 419.724 L
639.46 427.096 L
651.13 434.061 L
662.8 440.65 L
674.47 446.888 L
686.14 452.799 L
697.81 458.407 L
709.48 463.897 L
721.15 471.733 L
732.82 479.061 L
744.49 485.92 L
756.16 492.346 L
767.83 498.371 L
779.5 504.026 L
791.17 509.338 L
802.84 514.333 L
814.51 519.033 L
826.18 523.46 L
837.85 527.632 L
849.52 531.569 L
861.19 536.416 L
872.86 541.801 L
884.53 546.777 L
896.2 551.381 L
907.87 555.642 L
919.54 559.592 L
931.21 563.255 L
942.88 566.656 L
954.55 569.816 L
966.22 572.756 L
977.89 575.492 L
989.56 578.041 L
1001.23 580.418 L
1012.9 582.636 L
1024.57 584.707 L
1036.24 586.644 L
1047.91 589.248 L
1059.58 591.802 L
1071.25 594.125 L
1082.92 596.239 L
1094.59 598.166 L
1106.26 599.924 L
1117.93 601.528 L
1129.6 602.995 L
1141.27 604.336 L
1152.94 605.565 L
1164.61 606.691 L
1176.28 607.723 L
1187.95 608.672 L
1199.62 609.543 L
1211.29 610.345 L
1222.96 611.083 L
1234.63 611.763 L
1246.3 612.39 L
1257.97 612.969 L
1269.64 613.504 L
1281.31 614.25 L
1292.98 614.92 L
1304.65 615.518 L
1316.32 616.052 L
1327.99 616.53 L
1339.66 616.957 L
1351.33 617.341 L
1363 617.684 L
S
GR
GS
[0.50013 0 0 0.50082 0 -0.0831] CT
0 0 1 RC
1 LJ
2.6 LW
N
196 197.278 M
207.67 207.847 L
219.34 218.586 L
231.01 230.254 L
242.68 241.553 L
254.35 253.715 L
266.02 265.992 L
277.69 277.362 L
289.36 290.807 L
301.03 303.53 L
312.7 314.931 L
324.37 328.243 L
336.04 341.81 L
347.71 354.005 L
359.38 365.029 L
371.05 377.756 L
382.72 391.241 L
394.39 403.358 L
406.06 414.297 L
417.73 424.216 L
429.4 435.154 L
441.07 447.499 L
452.74 458.53 L
464.41 468.429 L
476.08 477.349 L
487.75 485.415 L
499.42 492.736 L
511.09 502.721 L
522.76 511.73 L
534.43 519.725 L
546.1 526.847 L
557.77 533.217 L
569.44 538.933 L
581.11 544.081 L
592.78 548.733 L
604.45 554.793 L
616.12 560.482 L
627.79 565.473 L
639.46 569.87 L
651.13 573.762 L
662.8 577.218 L
674.47 580.3 L
686.14 583.058 L
697.81 585.535 L
709.48 587.792 L
721.15 590.5 L
732.82 593.231 L
744.49 595.613 L
756.16 597.701 L
767.83 599.54 L
779.5 601.167 L
791.17 602.614 L
802.84 603.905 L
814.51 605.062 L
826.18 606.103 L
837.85 607.042 L
849.52 607.893 L
861.19 608.808 L
872.86 609.793 L
884.53 610.746 L
896.2 611.588 L
907.87 612.334 L
919.54 612.999 L
931.21 613.595 L
942.88 614.13 L
954.55 614.613 L
966.22 615.05 L
977.89 615.447 L
989.56 615.808 L
1001.23 616.138 L
1012.9 616.441 L
1024.57 616.718 L
1036.24 616.973 L
1047.91 617.297 L
1059.58 617.61 L
1071.25 617.903 L
1082.92 618.166 L
1094.59 618.402 L
1106.26 618.615 L
1117.93 618.807 L
1129.6 618.981 L
1141.27 619.138 L
1152.94 619.281 L
1164.61 619.411 L
1176.28 619.53 L
1187.95 619.638 L
1199.62 619.737 L
1211.29 619.828 L
1222.96 619.911 L
1234.63 619.987 L
1246.3 620.057 L
1257.97 620.122 L
1269.64 620.181 L
1281.31 620.263 L
1292.98 620.337 L
1304.65 620.403 L
1316.32 620.462 L
1327.99 620.514 L
1339.66 620.561 L
1351.33 620.603 L
1363 620.641 L
S
GR
GS
[0.50013 0 0 0.50082 0 -0.0831] CT
0 1 0 RC
1 LJ
2.6 LW
N
196 211.493 M
207.67 228.079 L
219.34 246.25 L
231.01 263.057 L
242.68 282.268 L
254.35 299.588 L
266.02 318.03 L
277.69 336.274 L
289.36 352.999 L
301.03 370.649 L
312.7 388.267 L
324.37 404.161 L
336.04 419.222 L
347.71 434.926 L
359.38 450.062 L
371.05 463.634 L
382.72 476.521 L
394.39 487.729 L
406.06 499.897 L
417.73 511.088 L
429.4 520.984 L
441.07 530.448 L
452.74 538.597 L
464.41 545.661 L
476.08 552.987 L
487.75 559.87 L
499.42 565.701 L
511.09 571.462 L
522.76 576.457 L
534.43 580.74 L
546.1 584.437 L
557.77 587.649 L
569.44 591.076 L
581.11 594.017 L
592.78 596.509 L
604.45 599.178 L
616.12 601.463 L
627.79 603.424 L
639.46 605.119 L
651.13 606.593 L
662.8 607.882 L
674.47 609.047 L
686.14 610.17 L
697.81 611.134 L
709.48 611.988 L
721.15 613.008 L
732.82 613.886 L
744.49 614.647 L
756.16 615.308 L
767.83 615.886 L
779.5 616.393 L
791.17 616.839 L
802.84 617.234 L
814.51 617.583 L
826.18 617.904 L
837.85 618.188 L
849.52 618.438 L
861.19 618.723 L
872.86 619.015 L
884.53 619.265 L
896.2 619.481 L
907.87 619.666 L
919.54 619.827 L
931.21 619.966 L
942.88 620.087 L
954.55 620.192 L
966.22 620.284 L
977.89 620.365 L
989.56 620.435 L
1001.23 620.497 L
1012.9 620.551 L
1024.57 620.599 L
1036.24 620.641 L
1047.91 620.694 L
1059.58 620.742 L
1071.25 620.782 L
1082.92 620.815 L
1094.59 620.843 L
1106.26 620.866 L
1117.93 620.886 L
1129.6 620.903 L
1141.27 620.917 L
1152.94 620.928 L
1164.61 620.939 L
1176.28 620.947 L
1187.95 620.954 L
1199.62 620.961 L
1211.29 620.966 L
1222.96 620.971 L
1234.63 620.974 L
1246.3 620.978 L
1257.97 620.981 L
1269.64 620.983 L
1281.31 620.986 L
1292.98 620.989 L
1304.65 620.991 L
1316.32 620.993 L
1327.99 620.994 L
1339.66 620.995 L
1351.33 620.996 L
1363 620.997 L
S
GR
GS
[0.50013 0 0 0.50082 0 -0.0831] CT
1 0 0 RC
[8 2 4 2] 0 setdash
2 LJ
2.6 LW
N
196 172.106 M
207.67 172.106 L
219.34 172.106 L
231.01 172.106 L
242.68 172.106 L
254.35 172.106 L
266.02 172.106 L
277.69 172.106 L
289.36 172.106 L
301.03 172.106 L
312.7 172.106 L
324.37 172.106 L
336.04 172.106 L
347.71 172.106 L
359.38 172.106 L
371.05 172.106 L
382.72 172.106 L
394.39 172.106 L
406.06 172.106 L
417.73 172.106 L
429.4 172.106 L
441.07 172.106 L
452.74 172.106 L
464.41 172.106 L
476.08 172.106 L
487.75 172.106 L
499.42 172.106 L
511.09 172.106 L
522.76 172.106 L
534.43 172.106 L
546.1 172.106 L
557.77 172.106 L
569.44 172.106 L
581.11 172.106 L
592.78 172.106 L
604.45 172.106 L
616.12 172.106 L
627.79 172.106 L
639.46 172.106 L
651.13 172.106 L
662.8 172.106 L
674.47 172.106 L
686.14 172.106 L
697.81 172.106 L
709.48 172.106 L
721.15 172.106 L
732.82 172.106 L
744.49 172.106 L
756.16 172.106 L
767.83 172.106 L
779.5 172.106 L
791.17 172.106 L
802.84 172.106 L
814.51 172.106 L
826.18 172.106 L
837.85 172.106 L
849.52 172.106 L
861.19 172.106 L
872.86 172.106 L
884.53 172.106 L
896.2 172.106 L
907.87 172.106 L
919.54 172.106 L
931.21 172.106 L
942.88 172.106 L
954.55 172.106 L
966.22 172.106 L
977.89 172.106 L
989.56 172.106 L
1001.23 172.106 L
1012.9 172.106 L
1024.57 172.106 L
1036.24 172.106 L
1047.91 172.106 L
1059.58 172.106 L
1071.25 172.106 L
1082.92 172.106 L
1094.59 172.106 L
1106.26 172.106 L
1117.93 172.106 L
1129.6 172.106 L
1141.27 172.106 L
1152.94 172.106 L
1164.61 172.106 L
1176.28 172.106 L
1187.95 172.106 L
1199.62 172.106 L
1211.29 172.106 L
1222.96 172.106 L
1234.63 172.106 L
1246.3 172.106 L
1257.97 172.106 L
1269.64 172.106 L
1281.31 172.106 L
1292.98 172.106 L
1304.65 172.106 L
1316.32 172.106 L
1327.99 172.106 L
1339.66 172.106 L
1351.33 172.106 L
1363 172.106 L
S
GR
GS
[0.50013 0 0 0.50082 0 -0.0831] CT
0 0 1 RC
[8 2 4 2] 0 setdash
2 LJ
2.6 LW
N
196 147.895 M
207.67 147.895 L
219.34 147.895 L
231.01 147.895 L
242.68 147.895 L
254.35 147.895 L
266.02 147.895 L
277.69 147.895 L
289.36 147.895 L
301.03 147.895 L
312.7 147.895 L
324.37 147.895 L
336.04 147.895 L
347.71 147.895 L
359.38 147.895 L
371.05 147.895 L
382.72 147.895 L
394.39 147.895 L
406.06 147.895 L
417.73 147.895 L
429.4 147.895 L
441.07 147.895 L
452.74 147.895 L
464.41 147.895 L
476.08 147.895 L
487.75 147.895 L
499.42 147.895 L
511.09 147.895 L
522.76 147.895 L
534.43 147.895 L
546.1 147.895 L
557.77 147.895 L
569.44 147.895 L
581.11 147.895 L
592.78 147.895 L
604.45 147.895 L
616.12 147.895 L
627.79 147.895 L
639.46 147.895 L
651.13 147.895 L
662.8 147.895 L
674.47 147.895 L
686.14 147.895 L
697.81 147.895 L
709.48 147.895 L
721.15 147.895 L
732.82 147.895 L
744.49 147.895 L
756.16 147.895 L
767.83 147.895 L
779.5 147.895 L
791.17 147.895 L
802.84 147.895 L
814.51 147.895 L
826.18 147.895 L
837.85 147.895 L
849.52 147.895 L
861.19 147.895 L
872.86 147.895 L
884.53 147.895 L
896.2 147.895 L
907.87 147.895 L
919.54 147.895 L
931.21 147.895 L
942.88 147.895 L
954.55 147.895 L
966.22 147.895 L
977.89 147.895 L
989.56 147.895 L
1001.23 147.895 L
1012.9 147.895 L
1024.57 147.895 L
1036.24 147.895 L
1047.91 147.895 L
1059.58 147.895 L
1071.25 147.895 L
1082.92 147.895 L
1094.59 147.895 L
1106.26 147.895 L
1117.93 147.895 L
1129.6 147.895 L
1141.27 147.895 L
1152.94 147.895 L
1164.61 147.895 L
1176.28 147.895 L
1187.95 147.895 L
1199.62 147.895 L
1211.29 147.895 L
1222.96 147.895 L
1234.63 147.895 L
1246.3 147.895 L
1257.97 147.895 L
1269.64 147.895 L
1281.31 147.895 L
1292.98 147.895 L
1304.65 147.895 L
1316.32 147.895 L
1327.99 147.895 L
1339.66 147.895 L
1351.33 147.895 L
1363 147.895 L
S
GR
GS
[0.50013 0 0 0.50082 0 -0.0831] CT
0 1 0 RC
[8 2 4 2] 0 setdash
2 LJ
2.6 LW
N
196 124.875 M
207.67 124.875 L
219.34 124.875 L
231.01 124.875 L
242.68 124.875 L
254.35 124.875 L
266.02 124.875 L
277.69 124.875 L
289.36 124.875 L
301.03 124.875 L
312.7 124.875 L
324.37 124.875 L
336.04 124.875 L
347.71 124.875 L
359.38 124.875 L
371.05 124.875 L
382.72 124.875 L
394.39 124.875 L
406.06 124.875 L
417.73 124.875 L
429.4 124.875 L
441.07 124.875 L
452.74 124.875 L
464.41 124.875 L
476.08 124.875 L
487.75 124.875 L
499.42 124.875 L
511.09 124.875 L
522.76 124.875 L
534.43 124.875 L
546.1 124.875 L
557.77 124.875 L
569.44 124.875 L
581.11 124.875 L
592.78 124.875 L
604.45 124.875 L
616.12 124.875 L
627.79 124.875 L
639.46 124.875 L
651.13 124.875 L
662.8 124.875 L
674.47 124.875 L
686.14 124.875 L
697.81 124.875 L
709.48 124.875 L
721.15 124.875 L
732.82 124.875 L
744.49 124.875 L
756.16 124.875 L
767.83 124.875 L
779.5 124.875 L
791.17 124.875 L
802.84 124.875 L
814.51 124.875 L
826.18 124.875 L
837.85 124.875 L
849.52 124.875 L
861.19 124.875 L
872.86 124.875 L
884.53 124.875 L
896.2 124.875 L
907.87 124.875 L
919.54 124.875 L
931.21 124.875 L
942.88 124.875 L
954.55 124.875 L
966.22 124.875 L
977.89 124.875 L
989.56 124.875 L
1001.23 124.875 L
1012.9 124.875 L
1024.57 124.875 L
1036.24 124.875 L
1047.91 124.875 L
1059.58 124.875 L
1071.25 124.875 L
1082.92 124.875 L
1094.59 124.875 L
1106.26 124.875 L
1117.93 124.875 L
1129.6 124.875 L
1141.27 124.875 L
1152.94 124.875 L
1164.61 124.875 L
1176.28 124.875 L
1187.95 124.875 L
1199.62 124.875 L
1211.29 124.875 L
1222.96 124.875 L
1234.63 124.875 L
1246.3 124.875 L
1257.97 124.875 L
1269.64 124.875 L
1281.31 124.875 L
1292.98 124.875 L
1304.65 124.875 L
1316.32 124.875 L
1327.99 124.875 L
1339.66 124.875 L
1351.33 124.875 L
1363 124.875 L
S
GR
GS
[0.50013 0 0 0.50082 0 -0.0831] CT
1 GC
N
1347 604 M
1347 335 L
1067 335 L
1067 604 L
cp
f
GR
GS
[0.50013 0 0 0.50082 568.91396 180.01246] CT
N
1.828 8.64 M
1.484 8.64 1.484 8.171 QT
1.5 8.077 1.547 7.866 QT
1.594 7.655 1.688 7.515 QT
1.781 7.374 1.953 7.374 QT
5.375 7.374 5.938 5.171 QT
10.625 -13.61 L
10.688 -13.97 10.688 -14.11 QT
10.688 -14.501 10.266 -14.548 QT
9.578 -14.688 7.672 -14.688 QT
7.313 -14.688 7.313 -15.157 QT
7.328 -15.251 7.383 -15.47 QT
7.438 -15.688 7.531 -15.821 QT
7.625 -15.954 7.766 -15.954 QT
14.109 -15.954 L
14.516 -15.954 14.578 -15.548 QT
17.391 5.077 L
30.5 -15.548 L
30.75 -15.954 31.188 -15.954 QT
37.297 -15.954 L
37.656 -15.954 37.656 -15.485 QT
37.641 -15.391 37.586 -15.173 QT
37.531 -14.954 37.438 -14.821 QT
37.344 -14.688 37.203 -14.688 QT
35 -14.688 34.141 -14.438 QT
33.656 -14.282 33.453 -13.454 QT
28.516 6.296 L
28.438 6.655 28.438 6.812 QT
28.438 6.952 28.484 7.046 QT
28.531 7.14 28.609 7.171 QT
28.688 7.202 28.859 7.234 QT
29.547 7.374 31.469 7.374 QT
31.813 7.374 31.813 7.843 QT
31.688 8.359 31.617 8.499 QT
31.547 8.64 31.219 8.64 QT
21.813 8.64 L
21.469 8.64 21.469 8.171 QT
21.484 8.077 21.539 7.859 QT
21.594 7.64 21.688 7.507 QT
21.781 7.374 21.922 7.374 QT
24.125 7.374 24.984 7.124 QT
25.453 6.968 25.672 6.155 QT
30.844 -14.688 L
16.313 8.234 L
16.109 8.64 15.594 8.64 QT
15.141 8.64 15.078 8.234 QT
12.031 -14.407 L
7.078 5.327 L
7.047 5.421 7.031 5.554 QT
7.016 5.687 6.984 5.859 QT
6.984 6.796 7.797 7.085 QT
8.609 7.374 9.797 7.374 QT
10.156 7.374 10.156 7.843 QT
10.031 8.327 9.953 8.484 QT
9.875 8.64 9.547 8.64 QT
1.828 8.64 L
cp
f
GR
GS
[0.50013 0 0 0.50082 568.91396 180.01246] CT
N
51.553 3.859 M
51.256 3.859 51.061 3.632 QT
50.865 3.405 50.865 3.14 QT
50.865 2.843 51.061 2.632 QT
51.256 2.421 51.553 2.421 QT
74.162 2.421 L
74.428 2.421 74.623 2.632 QT
74.818 2.843 74.818 3.14 QT
74.818 3.405 74.623 3.632 QT
74.428 3.859 74.162 3.859 QT
51.553 3.859 L
cp
51.553 -3.141 M
51.256 -3.141 51.061 -3.352 QT
50.865 -3.563 50.865 -3.86 QT
50.865 -4.126 51.061 -4.352 QT
51.256 -4.579 51.553 -4.579 QT
74.162 -4.579 L
74.428 -4.579 74.623 -4.352 QT
74.818 -4.126 74.818 -3.86 QT
74.818 -3.563 74.623 -3.352 QT
74.428 -3.141 74.162 -3.141 QT
51.553 -3.141 L
cp
f
GR
GS
[0.50013 0 0 0.50082 568.91396 180.01246] CT
N
88.646 8.64 M
88.646 7.671 L
88.646 7.577 88.709 7.484 QT
94.303 1.296 L
95.568 -0.079 96.357 -1.009 QT
97.146 -1.938 97.92 -3.157 QT
98.693 -4.376 99.146 -5.626 QT
99.6 -6.876 99.6 -8.282 QT
99.6 -9.766 99.053 -11.11 QT
98.506 -12.454 97.428 -13.266 QT
96.35 -14.079 94.818 -14.079 QT
93.256 -14.079 92.006 -13.134 QT
90.756 -12.188 90.24 -10.704 QT
90.381 -10.735 90.631 -10.735 QT
91.443 -10.735 92.014 -10.188 QT
92.584 -9.641 92.584 -8.782 QT
92.584 -7.954 92.014 -7.384 QT
91.443 -6.813 90.631 -6.813 QT
89.787 -6.813 89.217 -7.399 QT
88.646 -7.985 88.646 -8.782 QT
88.646 -10.141 89.154 -11.321 QT
89.662 -12.501 90.623 -13.43 QT
91.584 -14.36 92.787 -14.852 QT
93.99 -15.345 95.334 -15.345 QT
97.396 -15.345 99.17 -14.47 QT
100.943 -13.595 101.982 -12.009 QT
103.021 -10.423 103.021 -8.282 QT
103.021 -6.72 102.334 -5.313 QT
101.646 -3.907 100.576 -2.759 QT
99.506 -1.61 97.834 -0.149 QT
96.162 1.312 95.646 1.796 QT
91.568 5.718 L
95.021 5.718 L
97.568 5.718 99.287 5.679 QT
101.006 5.64 101.1 5.546 QT
101.521 5.093 101.975 2.218 QT
103.021 2.218 L
102.006 8.64 L
88.646 8.64 L
cp
f
GR
GS
[0.50013 0 0 0.50082 0 -0.0831] CT
1 0 0 RC
1 LJ
2.6 LW
N
1073.003 359.605 M
1133.035 359.605 L
S
GR
GS
[0.50013 0 0 0.50082 568.91396 202.02739] CT
N
/f1463531978{1.828 8.64 M
1.484 8.64 1.484 8.171 QT
1.5 8.077 1.547 7.866 QT
1.594 7.655 1.688 7.515 QT
1.781 7.374 1.953 7.374 QT
5.375 7.374 5.938 5.171 QT
10.625 -13.61 L
10.688 -13.97 10.688 -14.11 QT
10.688 -14.501 10.266 -14.548 QT
9.578 -14.688 7.672 -14.688 QT
7.313 -14.688 7.313 -15.157 QT
7.328 -15.251 7.383 -15.47 QT
7.438 -15.688 7.531 -15.821 QT
7.625 -15.954 7.766 -15.954 QT
14.109 -15.954 L
14.516 -15.954 14.578 -15.548 QT
17.391 5.077 L
30.5 -15.548 L
30.75 -15.954 31.188 -15.954 QT
37.297 -15.954 L
37.656 -15.954 37.656 -15.485 QT
37.641 -15.391 37.586 -15.173 QT
37.531 -14.954 37.438 -14.821 QT
37.344 -14.688 37.203 -14.688 QT
35 -14.688 34.141 -14.438 QT
33.656 -14.282 33.453 -13.454 QT
28.516 6.296 L
28.438 6.655 28.438 6.812 QT
28.438 6.952 28.484 7.046 QT
28.531 7.14 28.609 7.171 QT
28.688 7.202 28.859 7.234 QT
29.547 7.374 31.469 7.374 QT
31.813 7.374 31.813 7.843 QT
31.688 8.359 31.617 8.499 QT
31.547 8.64 31.219 8.64 QT
21.813 8.64 L
21.469 8.64 21.469 8.171 QT
21.484 8.077 21.539 7.859 QT
21.594 7.64 21.688 7.507 QT
21.781 7.374 21.922 7.374 QT
24.125 7.374 24.984 7.124 QT
25.453 6.968 25.672 6.155 QT
30.844 -14.688 L
16.313 8.234 L
16.109 8.64 15.594 8.64 QT
15.141 8.64 15.078 8.234 QT
12.031 -14.407 L
7.078 5.327 L
7.047 5.421 7.031 5.554 QT
7.016 5.687 6.984 5.859 QT
6.984 6.796 7.797 7.085 QT
8.609 7.374 9.797 7.374 QT
10.156 7.374 10.156 7.843 QT
10.031 8.327 9.953 8.484 QT
9.875 8.64 9.547 8.64 QT
1.828 8.64 L
cp}def
f1463531978
f
GR
GS
[0.50013 0 0 0.50082 568.91396 202.02739] CT
N
/f935979463{51.553 3.859 M
51.256 3.859 51.061 3.632 QT
50.865 3.405 50.865 3.14 QT
50.865 2.843 51.061 2.632 QT
51.256 2.421 51.553 2.421 QT
74.162 2.421 L
74.428 2.421 74.623 2.632 QT
74.818 2.843 74.818 3.14 QT
74.818 3.405 74.623 3.632 QT
74.428 3.859 74.162 3.859 QT
51.553 3.859 L
cp
51.553 -3.141 M
51.256 -3.141 51.061 -3.352 QT
50.865 -3.563 50.865 -3.86 QT
50.865 -4.126 51.061 -4.352 QT
51.256 -4.579 51.553 -4.579 QT
74.162 -4.579 L
74.428 -4.579 74.623 -4.352 QT
74.818 -4.126 74.818 -3.86 QT
74.818 -3.563 74.623 -3.352 QT
74.428 -3.141 74.162 -3.141 QT
51.553 -3.141 L
cp}def
f935979463
f
GR
GS
[0.50013 0 0 0.50082 568.91396 202.02739] CT
N
/f-1742451140{90.271 5.859 M
91.115 7.093 92.545 7.687 QT
93.975 8.28 95.6 8.28 QT
97.693 8.28 98.576 6.499 QT
99.459 4.718 99.459 2.452 QT
99.459 1.437 99.271 0.413 QT
99.084 -0.61 98.646 -1.485 QT
98.209 -2.36 97.443 -2.891 QT
96.678 -3.423 95.568 -3.423 QT
93.178 -3.423 L
92.865 -3.423 92.865 -3.751 QT
92.865 -4.063 L
92.865 -4.345 93.178 -4.345 QT
95.162 -4.516 L
96.428 -4.516 97.264 -5.462 QT
98.1 -6.407 98.49 -7.766 QT
98.881 -9.126 98.881 -10.36 QT
98.881 -12.079 98.068 -13.188 QT
97.256 -14.298 95.6 -14.298 QT
94.24 -14.298 92.99 -13.782 QT
91.74 -13.266 91.006 -12.204 QT
91.068 -12.22 91.123 -12.235 QT
91.178 -12.251 91.24 -12.251 QT
92.053 -12.251 92.6 -11.688 QT
93.146 -11.126 93.146 -10.329 QT
93.146 -9.548 92.6 -8.985 QT
92.053 -8.423 91.24 -8.423 QT
90.459 -8.423 89.896 -8.985 QT
89.334 -9.548 89.334 -10.329 QT
89.334 -11.876 90.264 -13.016 QT
91.193 -14.157 92.662 -14.751 QT
94.131 -15.345 95.6 -15.345 QT
96.693 -15.345 97.904 -15.016 QT
99.115 -14.688 100.1 -14.079 QT
101.084 -13.47 101.709 -12.524 QT
102.334 -11.579 102.334 -10.36 QT
102.334 -8.845 101.662 -7.563 QT
100.99 -6.282 99.81 -5.352 QT
98.631 -4.423 97.225 -3.97 QT
98.787 -3.673 100.193 -2.79 QT
101.6 -1.907 102.451 -0.54 QT
103.303 0.827 103.303 2.421 QT
103.303 4.405 102.217 6.015 QT
101.131 7.624 99.35 8.53 QT
97.568 9.437 95.6 9.437 QT
93.912 9.437 92.217 8.788 QT
90.521 8.14 89.443 6.859 QT
88.365 5.577 88.365 3.78 QT
88.365 2.89 88.959 2.296 QT
89.553 1.702 90.459 1.702 QT
91.037 1.702 91.521 1.968 QT
92.006 2.234 92.279 2.726 QT
92.553 3.218 92.553 3.78 QT
92.553 4.671 91.935 5.265 QT
91.318 5.859 90.459 5.859 QT
90.271 5.859 L
cp}def
f-1742451140
f
GR
GS
[0.50013 0 0 0.50082 0 -0.0831] CT
0 0 1 RC
1 LJ
2.6 LW
N
1073.003 403.563 M
1133.035 403.563 L
S
GR
GS
[0.50013 0 0 0.50082 568.91396 224.04232] CT
N
f1463531978
f
GR
GS
[0.50013 0 0 0.50082 568.91396 224.04232] CT
N
f935979463
f
GR
GS
[0.50013 0 0 0.50082 568.91396 224.04232] CT
N
/f930716053{87.85 2.702 M
87.85 1.437 L
98.975 -15.157 L
99.1 -15.345 99.35 -15.345 QT
99.881 -15.345 L
100.287 -15.345 100.287 -14.938 QT
100.287 1.437 L
103.818 1.437 L
103.818 2.702 L
100.287 2.702 L
100.287 6.234 L
100.287 6.968 101.342 7.171 QT
102.396 7.374 103.771 7.374 QT
103.771 8.64 L
93.865 8.64 L
93.865 7.374 L
95.256 7.374 96.31 7.171 QT
97.365 6.968 97.365 6.234 QT
97.365 2.702 L
87.85 2.702 L
cp
89.053 1.437 M
97.568 1.437 L
97.568 -11.313 L
89.053 1.437 L
cp}def
f930716053
f
GR
GS
[0.50013 0 0 0.50082 0 -0.0831] CT
0 1 0 RC
1 LJ
2.6 LW
N
1073.003 447.521 M
1133.035 447.521 L
S
GR
GS
[0.50013 0 0 0.50082 568.91396 246.05726] CT
N
/f-854252659{1.109 8.64 M
1.109 7.374 L
4.813 7.374 4.813 6.234 QT
4.813 -13.548 L
4.813 -14.688 1.109 -14.688 QT
1.109 -15.954 L
12.781 -15.954 L
12.781 -14.688 L
8.172 -14.688 8.172 -13.548 QT
8.172 6.234 L
8.172 6.999 8.609 7.187 QT
9.047 7.374 10 7.374 QT
12.781 7.374 L
15.469 7.374 16.93 6.39 QT
18.391 5.405 18.992 3.71 QT
19.594 2.015 19.922 -0.798 QT
20.953 -0.798 L
19.953 8.64 L
1.109 8.64 L
cp}def
f-854252659
f
GR
GS
[0.50013 0 0 0.50082 568.91396 246.05726] CT
N
/f-693932252{23.609 8.64 M
23.609 7.374 L
24.844 7.374 25.633 7.179 QT
26.422 6.984 26.422 6.234 QT
26.422 -3.595 L
26.422 -4.985 25.883 -5.298 QT
25.344 -5.61 23.766 -5.61 QT
23.766 -6.876 L
28.953 -7.266 L
28.953 6.234 L
28.953 6.984 29.641 7.179 QT
30.328 7.374 31.469 7.374 QT
31.469 8.64 L
23.609 8.64 L
cp
25.141 -13.454 M
25.141 -14.251 25.734 -14.845 QT
26.328 -15.438 27.109 -15.438 QT
27.609 -15.438 28.086 -15.18 QT
28.563 -14.923 28.828 -14.446 QT
29.094 -13.97 29.094 -13.454 QT
29.094 -12.688 28.492 -12.087 QT
27.891 -11.485 27.109 -11.485 QT
26.328 -11.485 25.734 -12.087 QT
25.141 -12.688 25.141 -13.454 QT
cp}def
f-693932252
f
GR
GS
[0.50013 0 0 0.50082 568.91396 246.05726] CT
N
/f1281904314{33.578 8.64 M
33.578 7.374 L
34.797 7.374 35.594 7.179 QT
36.391 6.984 36.391 6.234 QT
36.391 -3.595 L
36.391 -4.563 36.102 -4.993 QT
35.813 -5.423 35.266 -5.516 QT
34.719 -5.61 33.578 -5.61 QT
33.578 -6.876 L
38.797 -7.266 L
38.797 -3.751 L
39.516 -5.298 40.93 -6.282 QT
42.344 -7.266 44.016 -7.266 QT
48.156 -7.266 48.891 -3.891 QT
49.609 -5.407 50.992 -6.337 QT
52.375 -7.266 54.031 -7.266 QT
55.672 -7.266 56.789 -6.743 QT
57.906 -6.22 58.469 -5.134 QT
59.031 -4.048 59.031 -2.423 QT
59.031 6.234 L
59.031 6.984 59.828 7.179 QT
60.625 7.374 61.844 7.374 QT
61.844 8.64 L
53.594 8.64 L
53.594 7.374 L
54.828 7.374 55.617 7.179 QT
56.406 6.984 56.406 6.234 QT
56.406 -2.313 L
56.406 -4.126 55.899 -5.235 QT
55.391 -6.345 53.813 -6.345 QT
51.734 -6.345 50.383 -4.673 QT
49.031 -3.001 49.031 -0.876 QT
49.031 6.234 L
49.031 6.984 49.82 7.179 QT
50.609 7.374 51.844 7.374 QT
51.844 8.64 L
43.594 8.64 L
43.594 7.374 L
44.828 7.374 45.617 7.179 QT
46.406 6.984 46.406 6.234 QT
46.406 -2.313 L
46.406 -4.063 45.899 -5.204 QT
45.391 -6.345 43.797 -6.345 QT
41.719 -6.345 40.367 -4.673 QT
39.016 -3.001 39.016 -0.876 QT
39.016 6.234 L
39.016 6.984 39.813 7.179 QT
40.609 7.374 41.813 7.374 QT
41.813 8.64 L
33.578 8.64 L
cp}def
f1281904314
f
GR
GS
[0.50013 0 0 0.50082 568.91396 246.05726] CT
N
/f1726337552{63.61 8.64 M
63.61 7.374 L
64.844 7.374 65.633 7.179 QT
66.422 6.984 66.422 6.234 QT
66.422 -3.595 L
66.422 -4.985 65.883 -5.298 QT
65.344 -5.61 63.766 -5.61 QT
63.766 -6.876 L
68.953 -7.266 L
68.953 6.234 L
68.953 6.984 69.641 7.179 QT
70.328 7.374 71.469 7.374 QT
71.469 8.64 L
63.61 8.64 L
cp
65.141 -13.454 M
65.141 -14.251 65.735 -14.845 QT
66.328 -15.438 67.11 -15.438 QT
67.61 -15.438 68.086 -15.18 QT
68.563 -14.923 68.828 -14.446 QT
69.094 -13.97 69.094 -13.454 QT
69.094 -12.688 68.492 -12.087 QT
67.891 -11.485 67.11 -11.485 QT
66.328 -11.485 65.735 -12.087 QT
65.141 -12.688 65.141 -13.454 QT
cp}def
f1726337552
f
GR
GS
[0.50013 0 0 0.50082 568.91396 246.05726] CT
N
/f14472513{76.172 4.312 M
76.172 -5.61 L
73.188 -5.61 L
73.188 -6.548 L
75.547 -6.548 76.649 -8.743 QT
77.75 -10.938 77.75 -13.516 QT
78.797 -13.516 L
78.797 -6.876 L
83.875 -6.876 L
83.875 -5.61 L
78.797 -5.61 L
78.797 4.249 L
78.797 5.734 79.297 6.859 QT
79.797 7.984 81.094 7.984 QT
82.328 7.984 82.875 6.796 QT
83.422 5.609 83.422 4.249 QT
83.422 2.124 L
84.453 2.124 L
84.453 4.312 L
84.453 5.437 84.039 6.538 QT
83.625 7.64 82.821 8.343 QT
82.016 9.046 80.844 9.046 QT
78.688 9.046 77.43 7.749 QT
76.172 6.452 76.172 4.312 QT
cp}def
f14472513
f
GR
GS
[0.50013 0 0 0.50082 568.91396 246.05726] CT
N
/f1485260993{100.328 8.64 M
99.985 8.64 99.985 8.171 QT
100 8.077 100.047 7.866 QT
100.094 7.655 100.188 7.515 QT
100.281 7.374 100.453 7.374 QT
103.875 7.374 104.438 5.171 QT
109.125 -13.61 L
109.188 -13.97 109.188 -14.11 QT
109.188 -14.501 108.766 -14.548 QT
108.078 -14.688 106.172 -14.688 QT
105.813 -14.688 105.813 -15.157 QT
105.828 -15.251 105.883 -15.47 QT
105.938 -15.688 106.031 -15.821 QT
106.125 -15.954 106.266 -15.954 QT
112.61 -15.954 L
113.016 -15.954 113.078 -15.548 QT
115.891 5.077 L
129 -15.548 L
129.25 -15.954 129.688 -15.954 QT
135.797 -15.954 L
136.156 -15.954 136.156 -15.485 QT
136.141 -15.391 136.086 -15.173 QT
136.031 -14.954 135.938 -14.821 QT
135.844 -14.688 135.703 -14.688 QT
133.5 -14.688 132.641 -14.438 QT
132.156 -14.282 131.953 -13.454 QT
127.016 6.296 L
126.938 6.655 126.938 6.812 QT
126.938 6.952 126.985 7.046 QT
127.031 7.14 127.11 7.171 QT
127.188 7.202 127.36 7.234 QT
128.047 7.374 129.969 7.374 QT
130.313 7.374 130.313 7.843 QT
130.188 8.359 130.117 8.499 QT
130.047 8.64 129.719 8.64 QT
120.313 8.64 L
119.969 8.64 119.969 8.171 QT
119.985 8.077 120.039 7.859 QT
120.094 7.64 120.188 7.507 QT
120.281 7.374 120.422 7.374 QT
122.625 7.374 123.485 7.124 QT
123.953 6.968 124.172 6.155 QT
129.344 -14.688 L
114.813 8.234 L
114.61 8.64 114.094 8.64 QT
113.641 8.64 113.578 8.234 QT
110.531 -14.407 L
105.578 5.327 L
105.547 5.421 105.531 5.554 QT
105.516 5.687 105.485 5.859 QT
105.485 6.796 106.297 7.085 QT
107.11 7.374 108.297 7.374 QT
108.656 7.374 108.656 7.843 QT
108.531 8.327 108.453 8.484 QT
108.375 8.64 108.047 8.64 QT
100.328 8.64 L
cp}def
f1485260993
f
GR
GS
[0.50013 0 0 0.50082 568.91396 246.05726] CT
N
/f-188581475{150.053 3.859 M
149.756 3.859 149.561 3.632 QT
149.366 3.405 149.366 3.14 QT
149.366 2.843 149.561 2.632 QT
149.756 2.421 150.053 2.421 QT
172.662 2.421 L
172.928 2.421 173.123 2.632 QT
173.319 2.843 173.319 3.14 QT
173.319 3.405 173.123 3.632 QT
172.928 3.859 172.662 3.859 QT
150.053 3.859 L
cp
150.053 -3.141 M
149.756 -3.141 149.561 -3.352 QT
149.366 -3.563 149.366 -3.86 QT
149.366 -4.126 149.561 -4.352 QT
149.756 -4.579 150.053 -4.579 QT
172.662 -4.579 L
172.928 -4.579 173.123 -4.352 QT
173.319 -4.126 173.319 -3.86 QT
173.319 -3.563 173.123 -3.352 QT
172.928 -3.141 172.662 -3.141 QT
150.053 -3.141 L
cp}def
f-188581475
f
GR
GS
[0.50013 0 0 0.50082 568.91396 246.05726] CT
N
/f276826252{187.147 8.64 M
187.147 7.671 L
187.147 7.577 187.209 7.484 QT
192.803 1.296 L
194.069 -0.079 194.858 -1.009 QT
195.647 -1.938 196.42 -3.157 QT
197.194 -4.376 197.647 -5.626 QT
198.1 -6.876 198.1 -8.282 QT
198.1 -9.766 197.553 -11.11 QT
197.006 -12.454 195.928 -13.266 QT
194.85 -14.079 193.319 -14.079 QT
191.756 -14.079 190.506 -13.134 QT
189.256 -12.188 188.74 -10.704 QT
188.881 -10.735 189.131 -10.735 QT
189.944 -10.735 190.514 -10.188 QT
191.084 -9.641 191.084 -8.782 QT
191.084 -7.954 190.514 -7.384 QT
189.944 -6.813 189.131 -6.813 QT
188.287 -6.813 187.717 -7.399 QT
187.147 -7.985 187.147 -8.782 QT
187.147 -10.141 187.654 -11.321 QT
188.162 -12.501 189.123 -13.43 QT
190.084 -14.36 191.287 -14.852 QT
192.49 -15.345 193.834 -15.345 QT
195.897 -15.345 197.67 -14.47 QT
199.444 -13.595 200.483 -12.009 QT
201.522 -10.423 201.522 -8.282 QT
201.522 -6.72 200.834 -5.313 QT
200.147 -3.907 199.076 -2.759 QT
198.006 -1.61 196.334 -0.149 QT
194.662 1.312 194.147 1.796 QT
190.069 5.718 L
193.522 5.718 L
196.069 5.718 197.787 5.679 QT
199.506 5.64 199.6 5.546 QT
200.022 5.093 200.475 2.218 QT
201.522 2.218 L
200.506 8.64 L
187.147 8.64 L
cp}def
f276826252
f
GR
GS
[0.50013 0 0 0.50082 0 -0.0831] CT
1 0 0 RC
[8 2 4 2] 0 setdash
2 LJ
2.6 LW
N
1073.003 491.479 M
1133.035 491.479 L
S
GR
GS
[0.50013 0 0 0.50082 568.91396 268.07219] CT
N
f-854252659
f
GR
GS
[0.50013 0 0 0.50082 568.91396 268.07219] CT
N
f-693932252
f
GR
GS
[0.50013 0 0 0.50082 568.91396 268.07219] CT
N
f1281904314
f
GR
GS
[0.50013 0 0 0.50082 568.91396 268.07219] CT
N
f1726337552
f
GR
GS
[0.50013 0 0 0.50082 568.91396 268.07219] CT
N
f14472513
f
GR
GS
[0.50013 0 0 0.50082 568.91396 268.07219] CT
N
f1485260993
f
GR
GS
[0.50013 0 0 0.50082 568.91396 268.07219] CT
N
f-188581475
f
GR
GS
[0.50013 0 0 0.50082 568.91396 268.07219] CT
N
/f1249002421{188.772 5.859 M
189.615 7.093 191.045 7.687 QT
192.475 8.28 194.1 8.28 QT
196.194 8.28 197.076 6.499 QT
197.959 4.718 197.959 2.452 QT
197.959 1.437 197.772 0.413 QT
197.584 -0.61 197.147 -1.485 QT
196.709 -2.36 195.944 -2.891 QT
195.178 -3.423 194.069 -3.423 QT
191.678 -3.423 L
191.365 -3.423 191.365 -3.751 QT
191.365 -4.063 L
191.365 -4.345 191.678 -4.345 QT
193.662 -4.516 L
194.928 -4.516 195.764 -5.462 QT
196.6 -6.407 196.99 -7.766 QT
197.381 -9.126 197.381 -10.36 QT
197.381 -12.079 196.569 -13.188 QT
195.756 -14.298 194.1 -14.298 QT
192.74 -14.298 191.49 -13.782 QT
190.24 -13.266 189.506 -12.204 QT
189.569 -12.22 189.623 -12.235 QT
189.678 -12.251 189.74 -12.251 QT
190.553 -12.251 191.1 -11.688 QT
191.647 -11.126 191.647 -10.329 QT
191.647 -9.548 191.1 -8.985 QT
190.553 -8.423 189.74 -8.423 QT
188.959 -8.423 188.397 -8.985 QT
187.834 -9.548 187.834 -10.329 QT
187.834 -11.876 188.764 -13.016 QT
189.694 -14.157 191.162 -14.751 QT
192.631 -15.345 194.1 -15.345 QT
195.194 -15.345 196.404 -15.016 QT
197.615 -14.688 198.6 -14.079 QT
199.584 -13.47 200.209 -12.524 QT
200.834 -11.579 200.834 -10.36 QT
200.834 -8.845 200.162 -7.563 QT
199.49 -6.282 198.311 -5.352 QT
197.131 -4.423 195.725 -3.97 QT
197.287 -3.673 198.694 -2.79 QT
200.1 -1.907 200.951 -0.54 QT
201.803 0.827 201.803 2.421 QT
201.803 4.405 200.717 6.015 QT
199.631 7.624 197.85 8.53 QT
196.069 9.437 194.1 9.437 QT
192.412 9.437 190.717 8.788 QT
189.022 8.14 187.944 6.859 QT
186.865 5.577 186.865 3.78 QT
186.865 2.89 187.459 2.296 QT
188.053 1.702 188.959 1.702 QT
189.537 1.702 190.022 1.968 QT
190.506 2.234 190.779 2.726 QT
191.053 3.218 191.053 3.78 QT
191.053 4.671 190.436 5.265 QT
189.819 5.859 188.959 5.859 QT
188.772 5.859 L
cp}def
f1249002421
f
GR
GS
[0.50013 0 0 0.50082 0 -0.0831] CT
0 0 1 RC
[8 2 4 2] 0 setdash
2 LJ
2.6 LW
N
1073.003 535.437 M
1133.035 535.437 L
S
GR
GS
[0.50013 0 0 0.50082 568.91396 290.08713] CT
N
f-854252659
f
GR
GS
[0.50013 0 0 0.50082 568.91396 290.08713] CT
N
f-693932252
f
GR
GS
[0.50013 0 0 0.50082 568.91396 290.08713] CT
N
f1281904314
f
GR
GS
[0.50013 0 0 0.50082 568.91396 290.08713] CT
N
f1726337552
f
GR
GS
[0.50013 0 0 0.50082 568.91396 290.08713] CT
N
f14472513
f
GR
GS
[0.50013 0 0 0.50082 568.91396 290.08713] CT
N
f1485260993
f
GR
GS
[0.50013 0 0 0.50082 568.91396 290.08713] CT
N
f-188581475
f
GR
GS
[0.50013 0 0 0.50082 568.91396 290.08713] CT
N
/f-1167049244{186.35 2.702 M
186.35 1.437 L
197.475 -15.157 L
197.6 -15.345 197.85 -15.345 QT
198.381 -15.345 L
198.787 -15.345 198.787 -14.938 QT
198.787 1.437 L
202.319 1.437 L
202.319 2.702 L
198.787 2.702 L
198.787 6.234 L
198.787 6.968 199.842 7.171 QT
200.897 7.374 202.272 7.374 QT
202.272 8.64 L
192.365 8.64 L
192.365 7.374 L
193.756 7.374 194.811 7.171 QT
195.865 6.968 195.865 6.234 QT
195.865 2.702 L
186.35 2.702 L
cp
187.553 1.437 M
196.069 1.437 L
196.069 -11.313 L
187.553 1.437 L
cp}def
f-1167049244
f
GR
GS
[0.50013 0 0 0.50082 0 -0.0831] CT
0 1 0 RC
[8 2 4 2] 0 setdash
2 LJ
2.6 LW
N
1073.003 579.395 M
1133.035 579.395 L
S
GR
GS
[0.50013 0 0 0.50082 0 -0.0831] CT
0.149 GC
10.0 ML
2 LW
N
1067 604 M
1067 335 L
1347 335 L
1347 604 L
cp
S
GR
%%Trailer
%%Pages: 1
%%EOF
