%!PS-Adobe-3.0 EPSF-3.0
%%Creator: (MATLAB, The Mathworks, Inc. Version 9.6.0.1072779 \(R2019a\). Operating System: Windows 8.1)
%%Title: ./plot_SNR_model.eps
%%CreationDate: 2019-04-23T17:43:15
%%Pages: (atend)
%%BoundingBox:    49     3   683   338
%%LanguageLevel: 3
%%EndComments
%%BeginProlog
%%BeginResource: procset (Apache XML Graphics Std ProcSet) 1.2 0
%%Version: 1.2 0
%%Copyright: (Copyright 2001-2003,2010 The Apache Software Foundation. License terms: http://www.apache.org/licenses/LICENSE-2.0)
/bd{bind def}bind def
/ld{load def}bd
/GR/grestore ld
/GS/gsave ld
/RM/rmoveto ld
/C/curveto ld
/t/show ld
/L/lineto ld
/ML/setmiterlimit ld
/CT/concat ld
/f/fill ld
/N/newpath ld
/S/stroke ld
/CC/setcmykcolor ld
/A/ashow ld
/cp/closepath ld
/RC/setrgbcolor ld
/LJ/setlinejoin ld
/GC/setgray ld
/LW/setlinewidth ld
/M/moveto ld
/re {4 2 roll M
1 index 0 rlineto
0 exch rlineto
neg 0 rlineto
cp } bd
/_ctm matrix def
/_tm matrix def
/BT { _ctm currentmatrix pop matrix _tm copy pop 0 0 moveto } bd
/ET { _ctm setmatrix } bd
/iTm { _ctm setmatrix _tm concat } bd
/Tm { _tm astore pop iTm 0 0 moveto } bd
/ux 0.0 def
/uy 0.0 def
/F {
  /Tp exch def
  /Tf exch def
  Tf findfont Tp scalefont setfont
  /cf Tf def  /cs Tp def
} bd
/ULS {currentpoint /uy exch def /ux exch def} bd
/ULE {
  /Tcx currentpoint pop def
  gsave
  newpath
  cf findfont cs scalefont dup
  /FontMatrix get 0 get /Ts exch def /FontInfo get dup
  /UnderlinePosition get Ts mul /To exch def
  /UnderlineThickness get Ts mul /Tt exch def
  ux uy To add moveto  Tcx uy To add lineto
  Tt setlinewidth stroke
  grestore
} bd
/OLE {
  /Tcx currentpoint pop def
  gsave
  newpath
  cf findfont cs scalefont dup
  /FontMatrix get 0 get /Ts exch def /FontInfo get dup
  /UnderlinePosition get Ts mul /To exch def
  /UnderlineThickness get Ts mul /Tt exch def
  ux uy To add cs add moveto Tcx uy To add cs add lineto
  Tt setlinewidth stroke
  grestore
} bd
/SOE {
  /Tcx currentpoint pop def
  gsave
  newpath
  cf findfont cs scalefont dup
  /FontMatrix get 0 get /Ts exch def /FontInfo get dup
  /UnderlinePosition get Ts mul /To exch def
  /UnderlineThickness get Ts mul /Tt exch def
  ux uy To add cs 10 mul 26 idiv add moveto Tcx uy To add cs 10 mul 26 idiv add lineto
  Tt setlinewidth stroke
  grestore
} bd
/QT {
/Y22 exch store
/X22 exch store
/Y21 exch store
/X21 exch store
currentpoint
/Y21 load 2 mul add 3 div exch
/X21 load 2 mul add 3 div exch
/X21 load 2 mul /X22 load add 3 div
/Y21 load 2 mul /Y22 load add 3 div
/X22 load /Y22 load curveto
} bd
/SSPD {
dup length /d exch dict def
{
/v exch def
/k exch def
currentpagedevice k known {
/cpdv currentpagedevice k get def
v cpdv ne {
/upd false def
/nullv v type /nulltype eq def
/nullcpdv cpdv type /nulltype eq def
nullv nullcpdv or
{
/upd true def
} {
/sametype v type cpdv type eq def
sametype {
v type /arraytype eq {
/vlen v length def
/cpdvlen cpdv length def
vlen cpdvlen eq {
0 1 vlen 1 sub {
/i exch def
/obj v i get def
/cpdobj cpdv i get def
obj cpdobj ne {
/upd true def
exit
} if
} for
} {
/upd true def
} ifelse
} {
v type /dicttype eq {
v {
/dv exch def
/dk exch def
/cpddv cpdv dk get def
dv cpddv ne {
/upd true def
exit
} if
} forall
} {
/upd true def
} ifelse
} ifelse
} if
} ifelse
upd true eq {
d k v put
} if
} if
} if
} forall
d length 0 gt {
d setpagedevice
} if
} bd
/RE { % /NewFontName [NewEncodingArray] /FontName RE -
  findfont dup length dict begin
  {
    1 index /FID ne
    {def} {pop pop} ifelse
  } forall
  /Encoding exch def
  /FontName 1 index def
  currentdict definefont pop
  end
} bind def
%%EndResource
%%BeginResource: procset (Apache XML Graphics EPS ProcSet) 1.0 0
%%Version: 1.0 0
%%Copyright: (Copyright 2002-2003 The Apache Software Foundation. License terms: http://www.apache.org/licenses/LICENSE-2.0)
/BeginEPSF { %def
/b4_Inc_state save def         % Save state for cleanup
/dict_count countdictstack def % Count objects on dict stack
/op_count count 1 sub def      % Count objects on operand stack
userdict begin                 % Push userdict on dict stack
/showpage { } def              % Redefine showpage, { } = null proc
0 setgray 0 setlinecap         % Prepare graphics state
1 setlinewidth 0 setlinejoin
10 setmiterlimit [ ] 0 setdash newpath
/languagelevel where           % If level not equal to 1 then
{pop languagelevel             % set strokeadjust and
1 ne                           % overprint to their defaults.
{false setstrokeadjust false setoverprint
} if
} if
} bd
/EndEPSF { %def
count op_count sub {pop} repeat            % Clean up stacks
countdictstack dict_count sub {end} repeat
b4_Inc_state restore
} bd
%%EndResource
%FOPBeginFontDict
%%IncludeResource: font Courier-Oblique
%%IncludeResource: font Courier-BoldOblique
%%IncludeResource: font Courier-Bold
%%IncludeResource: font ZapfDingbats
%%IncludeResource: font Symbol
%%IncludeResource: font Helvetica
%%IncludeResource: font Helvetica-Oblique
%%IncludeResource: font Helvetica-Bold
%%IncludeResource: font Helvetica-BoldOblique
%%IncludeResource: font Times-Roman
%%IncludeResource: font Times-Italic
%%IncludeResource: font Times-Bold
%%IncludeResource: font Times-BoldItalic
%%IncludeResource: font Courier
%FOPEndFontDict
%%BeginResource: encoding WinAnsiEncoding
/WinAnsiEncoding [
/.notdef /.notdef /.notdef /.notdef /.notdef
/.notdef /.notdef /.notdef /.notdef /.notdef
/.notdef /.notdef /.notdef /.notdef /.notdef
/.notdef /.notdef /.notdef /.notdef /.notdef
/.notdef /.notdef /.notdef /.notdef /.notdef
/.notdef /.notdef /.notdef /.notdef /.notdef
/.notdef /.notdef /space /exclam /quotedbl
/numbersign /dollar /percent /ampersand /quotesingle
/parenleft /parenright /asterisk /plus /comma
/hyphen /period /slash /zero /one
/two /three /four /five /six
/seven /eight /nine /colon /semicolon
/less /equal /greater /question /at
/A /B /C /D /E
/F /G /H /I /J
/K /L /M /N /O
/P /Q /R /S /T
/U /V /W /X /Y
/Z /bracketleft /backslash /bracketright /asciicircum
/underscore /quoteleft /a /b /c
/d /e /f /g /h
/i /j /k /l /m
/n /o /p /q /r
/s /t /u /v /w
/x /y /z /braceleft /bar
/braceright /asciitilde /bullet /Euro /bullet
/quotesinglbase /florin /quotedblbase /ellipsis /dagger
/daggerdbl /circumflex /perthousand /Scaron /guilsinglleft
/OE /bullet /Zcaron /bullet /bullet
/quoteleft /quoteright /quotedblleft /quotedblright /bullet
/endash /emdash /asciitilde /trademark /scaron
/guilsinglright /oe /bullet /zcaron /Ydieresis
/space /exclamdown /cent /sterling /currency
/yen /brokenbar /section /dieresis /copyright
/ordfeminine /guillemotleft /logicalnot /sfthyphen /registered
/macron /degree /plusminus /twosuperior /threesuperior
/acute /mu /paragraph /middot /cedilla
/onesuperior /ordmasculine /guillemotright /onequarter /onehalf
/threequarters /questiondown /Agrave /Aacute /Acircumflex
/Atilde /Adieresis /Aring /AE /Ccedilla
/Egrave /Eacute /Ecircumflex /Edieresis /Igrave
/Iacute /Icircumflex /Idieresis /Eth /Ntilde
/Ograve /Oacute /Ocircumflex /Otilde /Odieresis
/multiply /Oslash /Ugrave /Uacute /Ucircumflex
/Udieresis /Yacute /Thorn /germandbls /agrave
/aacute /acircumflex /atilde /adieresis /aring
/ae /ccedilla /egrave /eacute /ecircumflex
/edieresis /igrave /iacute /icircumflex /idieresis
/eth /ntilde /ograve /oacute /ocircumflex
/otilde /odieresis /divide /oslash /ugrave
/uacute /ucircumflex /udieresis /yacute /thorn
/ydieresis
] def
%%EndResource
%FOPBeginFontReencode
/Courier-Oblique findfont
dup length dict begin
  {1 index /FID ne {def} {pop pop} ifelse} forall
  /Encoding WinAnsiEncoding def
  currentdict
end
/Courier-Oblique exch definefont pop
/Courier-BoldOblique findfont
dup length dict begin
  {1 index /FID ne {def} {pop pop} ifelse} forall
  /Encoding WinAnsiEncoding def
  currentdict
end
/Courier-BoldOblique exch definefont pop
/Courier-Bold findfont
dup length dict begin
  {1 index /FID ne {def} {pop pop} ifelse} forall
  /Encoding WinAnsiEncoding def
  currentdict
end
/Courier-Bold exch definefont pop
/Helvetica findfont
dup length dict begin
  {1 index /FID ne {def} {pop pop} ifelse} forall
  /Encoding WinAnsiEncoding def
  currentdict
end
/Helvetica exch definefont pop
/Helvetica-Oblique findfont
dup length dict begin
  {1 index /FID ne {def} {pop pop} ifelse} forall
  /Encoding WinAnsiEncoding def
  currentdict
end
/Helvetica-Oblique exch definefont pop
/Helvetica-Bold findfont
dup length dict begin
  {1 index /FID ne {def} {pop pop} ifelse} forall
  /Encoding WinAnsiEncoding def
  currentdict
end
/Helvetica-Bold exch definefont pop
/Helvetica-BoldOblique findfont
dup length dict begin
  {1 index /FID ne {def} {pop pop} ifelse} forall
  /Encoding WinAnsiEncoding def
  currentdict
end
/Helvetica-BoldOblique exch definefont pop
/Times-Roman findfont
dup length dict begin
  {1 index /FID ne {def} {pop pop} ifelse} forall
  /Encoding WinAnsiEncoding def
  currentdict
end
/Times-Roman exch definefont pop
/Times-Italic findfont
dup length dict begin
  {1 index /FID ne {def} {pop pop} ifelse} forall
  /Encoding WinAnsiEncoding def
  currentdict
end
/Times-Italic exch definefont pop
/Times-Bold findfont
dup length dict begin
  {1 index /FID ne {def} {pop pop} ifelse} forall
  /Encoding WinAnsiEncoding def
  currentdict
end
/Times-Bold exch definefont pop
/Times-BoldItalic findfont
dup length dict begin
  {1 index /FID ne {def} {pop pop} ifelse} forall
  /Encoding WinAnsiEncoding def
  currentdict
end
/Times-BoldItalic exch definefont pop
/Courier findfont
dup length dict begin
  {1 index /FID ne {def} {pop pop} ifelse} forall
  /Encoding WinAnsiEncoding def
  currentdict
end
/Courier exch definefont pop
%FOPEndFontReencode
%%EndProlog
%%Page: 1 1
%%PageBoundingBox: 0 0 753 358
%%BeginPageSetup
[1 0 0 -1 0 358] CT
%%EndPageSetup
GS
[0.50013 0 0 0.50082 0 -0.0831] CT
N
0 0 M
1506 0 L
1506 715 L
0 715 L
0 0 L
cp
clip
1 GC
N
0 0 1506 715 re
f
GR
GS
[0.50013 0 0 0.50082 0 -0.0831] CT
1 GC
N
0 0 1506 715 re
f
GR
GS
[0.50013 0 0 0.50082 0 -0.0831] CT
1 GC
N
196 623 M
1363 623 L
1363 54 L
196 54 L
cp
f
GR
GS
[0.50013 0 0 0.50082 0 -0.0831] CT
0.873 GC
[4 4] 0 setdash
2 LJ
4 LW
N
341.875 623 M
341.875 54 L
S
GR
GS
[0.50013 0 0 0.50082 0 -0.0831] CT
0.873 GC
[4 4] 0 setdash
2 LJ
4 LW
N
633.625 623 M
633.625 54 L
S
GR
GS
[0.50013 0 0 0.50082 0 -0.0831] CT
0.873 GC
[4 4] 0 setdash
2 LJ
4 LW
N
925.375 623 M
925.375 54 L
S
GR
GS
[0.50013 0 0 0.50082 0 -0.0831] CT
0.873 GC
[4 4] 0 setdash
2 LJ
4 LW
N
1217.125 623 M
1217.125 54 L
S
GR
GS
[0.50013 0 0 0.50082 0 -0.0831] CT
0.873 GC
[4 4] 0 setdash
2 LJ
4 LW
N
1363 623 M
196 623 L
S
GR
GS
[0.50013 0 0 0.50082 0 -0.0831] CT
0.873 GC
[4 4] 0 setdash
2 LJ
4 LW
N
1363 433.333 M
196 433.333 L
S
GR
GS
[0.50013 0 0 0.50082 0 -0.0831] CT
0.873 GC
[4 4] 0 setdash
2 LJ
4 LW
N
1363 243.667 M
196 243.667 L
S
GR
GS
[0.50013 0 0 0.50082 0 -0.0831] CT
0.873 GC
[4 4] 0 setdash
2 LJ
4 LW
N
1363 54 M
196 54 L
S
GR
GS
[0.50013 0 0 0.50082 0 -0.0831] CT
0.149 GC
2 setlinecap
1 LJ
4 LW
N
196 623 M
1363 623 L
S
GR
GS
[0.50013 0 0 0.50082 0 -0.0831] CT
0.149 GC
2 setlinecap
1 LJ
4 LW
N
196 54 M
1363 54 L
S
GR
GS
[0.50013 0 0 0.50082 0 -0.0831] CT
0.149 GC
2 setlinecap
1 LJ
4 LW
N
341.875 623 M
341.875 611.33 L
S
GR
GS
[0.50013 0 0 0.50082 0 -0.0831] CT
0.149 GC
2 setlinecap
1 LJ
4 LW
N
633.625 623 M
633.625 611.33 L
S
GR
GS
[0.50013 0 0 0.50082 0 -0.0831] CT
0.149 GC
2 setlinecap
1 LJ
4 LW
N
925.375 623 M
925.375 611.33 L
S
GR
GS
[0.50013 0 0 0.50082 0 -0.0831] CT
0.149 GC
2 setlinecap
1 LJ
4 LW
N
1217.125 623 M
1217.125 611.33 L
S
GR
GS
[0.50013 0 0 0.50082 0 -0.0831] CT
0.149 GC
2 setlinecap
1 LJ
4 LW
N
341.875 54 M
341.875 65.67 L
S
GR
GS
[0.50013 0 0 0.50082 0 -0.0831] CT
0.149 GC
2 setlinecap
1 LJ
4 LW
N
633.625 54 M
633.625 65.67 L
S
GR
GS
[0.50013 0 0 0.50082 0 -0.0831] CT
0.149 GC
2 setlinecap
1 LJ
4 LW
N
925.375 54 M
925.375 65.67 L
S
GR
GS
[0.50013 0 0 0.50082 0 -0.0831] CT
0.149 GC
2 setlinecap
1 LJ
4 LW
N
1217.125 54 M
1217.125 65.67 L
S
GR
GS
[0.50013 0 0 0.50082 170.98109 316.73279] CT
0.149 GC
N
-13.578 20.051 M
-13.578 18.426 -12.343 17.161 QT
-11.812 16.676 -11.109 16.332 QT
-10.406 15.989 -9.765 15.989 QT
-9.593 15.989 L
-9.406 16.082 -9.406 16.207 QT
-9.406 16.348 -9.5 16.481 QT
-9.593 16.614 -9.687 16.7 QT
-9.781 16.786 -9.984 16.942 QT
-10.172 17.082 -10.382 17.2 QT
-10.593 17.317 -10.672 17.387 QT
-10.75 17.457 -10.843 17.661 QT
-11.078 18.239 -11.078 18.848 QT
-11.078 19.957 -10.281 20.778 QT
-9.484 21.598 -8.304 22.036 QT
-7.125 22.473 -6.015 22.473 QT
-4.593 22.473 -3.343 22.036 QT
-2.093 21.598 -1.297 20.684 QT
-0.5 19.77 -0.5 18.332 QT
-0.5 17.457 -0.914 16.762 QT
-1.328 16.067 -2.039 15.52 QT
-2.75 14.973 -3.437 14.621 QT
-4.125 14.27 -5.062 13.848 QT
-6.687 13.098 -7.711 12.153 QT
-8.734 11.207 -8.734 9.832 QT
-8.734 8.145 -7.406 6.754 QT
-6.078 5.364 -4.14 4.567 QT
-2.203 3.77 -0.64 3.77 QT
-0.468 3.77 L
0.469 3.77 1.485 4.028 QT
2.5 4.286 3.203 4.887 QT
3.907 5.489 3.907 6.473 QT
3.907 7.645 3.313 8.239 QT
2.328 8.973 1.578 9.036 QT
1.407 9.036 L
1.203 8.942 1.203 8.801 QT
1.266 8.551 1.297 8.442 QT
1.328 8.332 1.368 8.114 QT
1.407 7.895 1.407 7.707 QT
1.407 6.473 0.172 5.95 QT
-1.062 5.426 -2.515 5.426 QT
-4.109 5.426 -5.179 6.262 QT
-6.25 7.098 -6.25 8.582 QT
-6.25 10.692 -2.968 12.207 QT
-1.593 12.817 -0.539 13.426 QT
0.516 14.036 1.258 14.95 QT
2 15.864 2 17.114 QT
2 19.129 0.391 20.746 QT
-1.218 22.364 -3.57 23.246 QT
-5.922 24.129 -7.89 24.129 QT
-8.031 24.129 L
-9.203 24.129 -10.515 23.637 QT
-11.828 23.145 -12.703 22.215 QT
-13.578 21.286 -13.578 20.051 QT
cp
f
GR
GS
[0.50013 0 0 0.50082 170.98109 316.73279] CT
0.149 GC
N
4.737 27.72 M
4.737 27.017 L
7.237 27.017 7.237 26.376 QT
7.237 15.876 L
6.206 16.376 4.612 16.376 QT
4.612 15.673 L
7.065 15.673 8.315 14.392 QT
8.597 14.392 L
8.675 14.392 8.737 14.446 QT
8.8 14.501 8.8 14.579 QT
8.8 26.376 L
8.8 27.017 11.3 27.017 QT
11.3 27.72 L
4.737 27.72 L
cp
f
GR
GS
[0.50013 0 0 0.50082 316.89329 316.73279] CT
0.149 GC
N
/f995249781{-13.578 20.051 M
-13.578 18.426 -12.343 17.161 QT
-11.812 16.676 -11.109 16.332 QT
-10.406 15.989 -9.765 15.989 QT
-9.593 15.989 L
-9.406 16.082 -9.406 16.207 QT
-9.406 16.348 -9.5 16.481 QT
-9.593 16.614 -9.687 16.7 QT
-9.781 16.786 -9.984 16.942 QT
-10.172 17.082 -10.382 17.2 QT
-10.593 17.317 -10.672 17.387 QT
-10.75 17.457 -10.843 17.661 QT
-11.078 18.239 -11.078 18.848 QT
-11.078 19.957 -10.281 20.778 QT
-9.484 21.598 -8.304 22.036 QT
-7.125 22.473 -6.015 22.473 QT
-4.593 22.473 -3.343 22.036 QT
-2.093 21.598 -1.297 20.684 QT
-0.5 19.77 -0.5 18.332 QT
-0.5 17.457 -0.914 16.762 QT
-1.328 16.067 -2.039 15.52 QT
-2.75 14.973 -3.437 14.621 QT
-4.125 14.27 -5.062 13.848 QT
-6.687 13.098 -7.711 12.153 QT
-8.734 11.207 -8.734 9.832 QT
-8.734 8.145 -7.406 6.754 QT
-6.078 5.364 -4.14 4.567 QT
-2.203 3.77 -0.64 3.77 QT
-0.468 3.77 L
0.469 3.77 1.485 4.028 QT
2.5 4.286 3.203 4.887 QT
3.907 5.489 3.907 6.473 QT
3.907 7.645 3.313 8.239 QT
2.328 8.973 1.578 9.036 QT
1.407 9.036 L
1.203 8.942 1.203 8.801 QT
1.266 8.551 1.297 8.442 QT
1.328 8.332 1.368 8.114 QT
1.407 7.895 1.407 7.707 QT
1.407 6.473 0.172 5.95 QT
-1.062 5.426 -2.515 5.426 QT
-4.109 5.426 -5.179 6.262 QT
-6.25 7.098 -6.25 8.582 QT
-6.25 10.692 -2.968 12.207 QT
-1.593 12.817 -0.539 13.426 QT
0.516 14.036 1.258 14.95 QT
2 15.864 2 17.114 QT
2 19.129 0.391 20.746 QT
-1.218 22.364 -3.57 23.246 QT
-5.922 24.129 -7.89 24.129 QT
-8.031 24.129 L
-9.203 24.129 -10.515 23.637 QT
-11.828 23.145 -12.703 22.215 QT
-13.578 21.286 -13.578 20.051 QT
cp}def
f995249781
f
GR
GS
[0.50013 0 0 0.50082 316.89329 316.73279] CT
0.149 GC
N
/f2141602642{3.878 27.72 M
3.878 27.189 L
3.878 27.126 3.909 27.079 QT
7.018 23.642 L
7.722 22.876 8.159 22.36 QT
8.597 21.845 9.026 21.165 QT
9.456 20.485 9.706 19.79 QT
9.956 19.095 9.956 18.314 QT
9.956 17.501 9.651 16.751 QT
9.347 16.001 8.753 15.548 QT
8.159 15.095 7.3 15.095 QT
6.44 15.095 5.745 15.618 QT
5.05 16.142 4.768 16.97 QT
4.847 16.954 4.972 16.954 QT
5.425 16.954 5.745 17.259 QT
6.065 17.564 6.065 18.048 QT
6.065 18.501 5.745 18.821 QT
5.425 19.142 4.972 19.142 QT
4.503 19.142 4.19 18.814 QT
3.878 18.485 3.878 18.048 QT
3.878 17.282 4.159 16.626 QT
4.44 15.97 4.972 15.454 QT
5.503 14.939 6.175 14.665 QT
6.847 14.392 7.597 14.392 QT
8.737 14.392 9.722 14.876 QT
10.706 15.36 11.284 16.243 QT
11.862 17.126 11.862 18.314 QT
11.862 19.189 11.479 19.97 QT
11.097 20.751 10.503 21.392 QT
9.909 22.032 8.979 22.837 QT
8.05 23.642 7.768 23.923 QT
5.503 26.095 L
7.425 26.095 L
8.831 26.095 9.784 26.071 QT
10.737 26.048 10.8 26.001 QT
11.034 25.751 11.284 24.157 QT
11.862 24.157 L
11.3 27.72 L
3.878 27.72 L
cp}def
f2141602642
f
GR
GS
[0.50013 0 0 0.50082 462.80549 316.73279] CT
0.149 GC
N
f995249781
f
GR
GS
[0.50013 0 0 0.50082 462.80549 316.73279] CT
0.149 GC
N
/f-1059236770{4.784 26.173 M
5.253 26.86 6.042 27.189 QT
6.831 27.517 7.737 27.517 QT
8.909 27.517 9.393 26.532 QT
9.878 25.548 9.878 24.282 QT
9.878 23.72 9.776 23.15 QT
9.675 22.579 9.432 22.095 QT
9.19 21.61 8.761 21.314 QT
8.331 21.017 7.722 21.017 QT
6.393 21.017 L
6.222 21.017 6.222 20.829 QT
6.222 20.657 L
6.222 20.501 6.393 20.501 QT
7.503 20.407 L
8.206 20.407 8.667 19.884 QT
9.128 19.36 9.347 18.603 QT
9.565 17.845 9.565 17.157 QT
9.565 16.204 9.112 15.587 QT
8.659 14.97 7.737 14.97 QT
6.987 14.97 6.292 15.259 QT
5.597 15.548 5.19 16.142 QT
5.222 16.126 5.253 16.118 QT
5.284 16.11 5.315 16.11 QT
5.768 16.11 6.073 16.423 QT
6.378 16.735 6.378 17.189 QT
6.378 17.61 6.073 17.923 QT
5.768 18.235 5.315 18.235 QT
4.878 18.235 4.565 17.923 QT
4.253 17.61 4.253 17.189 QT
4.253 16.329 4.768 15.689 QT
5.284 15.048 6.104 14.72 QT
6.925 14.392 7.737 14.392 QT
8.347 14.392 9.018 14.579 QT
9.69 14.767 10.237 15.103 QT
10.784 15.439 11.136 15.962 QT
11.487 16.485 11.487 17.157 QT
11.487 18.001 11.112 18.712 QT
10.737 19.423 10.081 19.946 QT
9.425 20.47 8.643 20.72 QT
9.503 20.876 10.284 21.368 QT
11.065 21.86 11.542 22.618 QT
12.018 23.376 12.018 24.267 QT
12.018 25.36 11.417 26.259 QT
10.815 27.157 9.823 27.657 QT
8.831 28.157 7.737 28.157 QT
6.8 28.157 5.862 27.798 QT
4.925 27.439 4.323 26.728 QT
3.722 26.017 3.722 25.017 QT
3.722 24.532 4.05 24.196 QT
4.378 23.86 4.878 23.86 QT
5.206 23.86 5.472 24.009 QT
5.737 24.157 5.893 24.431 QT
6.05 24.704 6.05 25.017 QT
6.05 25.517 5.706 25.845 QT
5.362 26.173 4.878 26.173 QT
4.784 26.173 L
cp}def
f-1059236770
f
GR
GS
[0.50013 0 0 0.50082 608.71768 316.73279] CT
0.149 GC
N
f995249781
f
GR
GS
[0.50013 0 0 0.50082 608.71768 316.73279] CT
0.149 GC
N
/f492370512{3.44 24.423 M
3.44 23.72 L
9.612 14.501 L
9.69 14.392 9.815 14.392 QT
10.112 14.392 L
10.347 14.392 10.347 14.626 QT
10.347 23.72 L
12.3 23.72 L
12.3 24.423 L
10.347 24.423 L
10.347 26.376 L
10.347 26.798 10.932 26.907 QT
11.518 27.017 12.284 27.017 QT
12.284 27.72 L
6.768 27.72 L
6.768 27.017 L
7.55 27.017 8.136 26.907 QT
8.722 26.798 8.722 26.376 QT
8.722 24.423 L
3.44 24.423 L
cp
4.097 23.72 M
8.831 23.72 L
8.831 16.642 L
4.097 23.72 L
cp}def
f492370512
f
GR
GS
[0.50013 0 0 0.50082 389.84966 334.46167] CT
0.149 GC
N
/f-1473309700{-57.028 34.162 M
-57.028 24.834 L
-57.028 24.522 -56.684 24.522 QT
-56.184 24.522 L
-56.075 24.522 -55.973 24.615 QT
-55.872 24.709 -55.872 24.834 QT
-55.872 28.756 -53.442 30.912 QT
-51.012 33.069 -47.075 33.069 QT
-45.684 33.069 -44.512 32.272 QT
-43.34 31.475 -42.684 30.17 QT
-42.028 28.865 -42.028 27.49 QT
-42.028 26.272 -42.52 25.131 QT
-43.012 23.99 -43.926 23.147 QT
-44.84 22.303 -45.997 22.037 QT
-51.184 20.772 L
-53.762 20.084 -55.395 17.967 QT
-57.028 15.85 -57.028 13.209 QT
-57.028 11.131 -55.973 9.319 QT
-54.919 7.506 -53.129 6.451 QT
-51.34 5.397 -49.278 5.397 QT
-45.278 5.397 -42.903 8.115 QT
-41.262 5.506 L
-41.153 5.397 -40.997 5.397 QT
-40.715 5.397 L
-40.606 5.397 -40.497 5.483 QT
-40.387 5.569 -40.387 5.725 QT
-40.387 15.006 L
-40.387 15.35 -40.715 15.35 QT
-41.184 15.35 L
-41.559 15.35 -41.559 15.006 QT
-41.559 13.99 -41.903 12.78 QT
-42.247 11.569 -42.848 10.451 QT
-43.45 9.334 -44.153 8.631 QT
-46.09 6.678 -49.278 6.678 QT
-50.637 6.678 -51.794 7.373 QT
-52.95 8.069 -53.629 9.264 QT
-54.309 10.459 -54.309 11.756 QT
-54.309 13.475 -53.247 14.873 QT
-52.184 16.272 -50.465 16.725 QT
-45.278 17.99 L
-43.981 18.303 -42.84 19.115 QT
-41.7 19.928 -40.934 20.998 QT
-40.169 22.069 -39.739 23.389 QT
-39.309 24.709 -39.309 26.115 QT
-39.309 28.287 -40.309 30.209 QT
-41.309 32.131 -43.114 33.303 QT
-44.919 34.475 -47.075 34.475 QT
-48.403 34.475 -49.786 34.186 QT
-51.169 33.897 -52.34 33.287 QT
-53.512 32.678 -54.465 31.725 QT
-56.153 34.365 L
-56.262 34.475 -56.45 34.475 QT
-56.684 34.475 L
-57.028 34.475 -57.028 34.162 QT
cp}def
f-1473309700
f
GR
GS
[0.50013 0 0 0.50082 389.84966 334.46167] CT
0.149 GC
N
/f2134662005{-35.821 33.6 M
-35.821 32.194 L
-34.462 32.194 -33.579 31.975 QT
-32.696 31.756 -32.696 30.928 QT
-32.696 9.928 L
-32.696 8.85 -33.017 8.373 QT
-33.337 7.897 -33.946 7.787 QT
-34.556 7.678 -35.821 7.678 QT
-35.821 6.272 L
-29.884 5.85 L
-29.884 30.928 L
-29.884 31.756 -29.009 31.975 QT
-28.134 32.194 -26.774 32.194 QT
-26.774 33.6 L
-35.821 33.6 L
cp}def
f2134662005
f
GR
GS
[0.50013 0 0 0.50082 389.84966 334.46167] CT
0.149 GC
N
/f1709067569{-15.944 34.053 M
-18.351 34.053 -20.398 32.826 QT
-22.444 31.6 -23.64 29.553 QT
-24.835 27.506 -24.835 25.084 QT
-24.835 23.24 -24.179 21.545 QT
-23.523 19.85 -22.304 18.514 QT
-21.085 17.178 -19.46 16.42 QT
-17.835 15.662 -15.944 15.662 QT
-13.476 15.662 -11.46 16.967 QT
-9.444 18.272 -8.273 20.444 QT
-7.101 22.615 -7.101 25.084 QT
-7.101 27.49 -8.288 29.545 QT
-9.476 31.6 -11.515 32.826 QT
-13.554 34.053 -15.944 34.053 QT
cp
-15.944 32.881 M
-12.741 32.881 -11.663 30.553 QT
-10.585 28.225 -10.585 24.631 QT
-10.585 22.615 -10.804 21.303 QT
-11.023 19.99 -11.741 18.912 QT
-12.194 18.24 -12.89 17.748 QT
-13.585 17.256 -14.351 16.99 QT
-15.116 16.725 -15.944 16.725 QT
-17.194 16.725 -18.319 17.287 QT
-19.444 17.85 -20.179 18.912 QT
-20.929 20.037 -21.132 21.397 QT
-21.335 22.756 -21.335 24.631 QT
-21.335 26.881 -20.944 28.67 QT
-20.554 30.459 -19.374 31.67 QT
-18.194 32.881 -15.944 32.881 QT
cp}def
f1709067569
f
GR
GS
[0.50013 0 0 0.50082 389.84966 334.46167] CT
0.149 GC
N
/f-1336169307{-1.866 28.787 M
-1.866 17.756 L
-5.179 17.756 L
-5.179 16.725 L
-2.569 16.725 -1.335 14.28 QT
-0.101 11.834 -0.101 8.99 QT
1.056 8.99 L
1.056 16.35 L
6.696 16.35 L
6.696 17.756 L
1.056 17.756 L
1.056 28.709 L
1.056 30.381 1.61 31.631 QT
2.165 32.881 3.602 32.881 QT
4.977 32.881 5.579 31.561 QT
6.181 30.24 6.181 28.709 QT
6.181 26.35 L
7.337 26.35 L
7.337 28.787 L
7.337 30.037 6.876 31.264 QT
6.415 32.49 5.517 33.272 QT
4.618 34.053 3.337 34.053 QT
0.931 34.053 -0.468 32.615 QT
-1.866 31.178 -1.866 28.787 QT
cp}def
f-1336169307
f
GR
GS
[0.50013 0 0 0.50082 389.84966 334.46167] CT
0.149 GC
N
/f-297017077{23.663 28.631 M
23.663 26.334 25.429 24.522 QT
26.195 23.819 27.187 23.326 QT
28.179 22.834 29.101 22.834 QT
29.351 22.834 L
29.632 22.975 29.632 23.147 QT
29.632 23.365 29.491 23.553 QT
29.351 23.74 29.218 23.858 QT
29.085 23.975 28.788 24.209 QT
28.538 24.397 28.234 24.561 QT
27.929 24.725 27.812 24.834 QT
27.695 24.944 27.554 25.24 QT
27.226 26.053 27.226 26.912 QT
27.226 28.506 28.366 29.686 QT
29.507 30.865 31.195 31.49 QT
32.882 32.115 34.476 32.115 QT
36.507 32.115 38.288 31.49 QT
40.07 30.865 41.202 29.553 QT
42.335 28.24 42.335 26.194 QT
42.335 24.944 41.741 23.951 QT
41.148 22.959 40.132 22.178 QT
39.116 21.397 38.14 20.897 QT
37.163 20.397 35.82 19.787 QT
33.491 18.709 32.038 17.358 QT
30.585 16.006 30.585 14.053 QT
30.585 11.647 32.476 9.655 QT
34.366 7.662 37.14 6.53 QT
39.913 5.397 42.148 5.397 QT
42.382 5.397 L
43.726 5.397 45.179 5.756 QT
46.632 6.115 47.632 6.975 QT
48.632 7.834 48.632 9.24 QT
48.632 10.928 47.788 11.756 QT
46.382 12.819 45.304 12.912 QT
45.07 12.912 L
44.788 12.772 44.788 12.569 QT
44.866 12.209 44.913 12.053 QT
44.96 11.897 45.015 11.584 QT
45.07 11.272 45.07 11.006 QT
45.07 9.24 43.304 8.498 QT
41.538 7.756 39.476 7.756 QT
37.179 7.756 35.655 8.951 QT
34.132 10.147 34.132 12.272 QT
34.132 15.272 38.82 17.444 QT
40.773 18.303 42.28 19.17 QT
43.788 20.037 44.851 21.35 QT
45.913 22.662 45.913 24.444 QT
45.913 27.334 43.609 29.639 QT
41.304 31.944 37.945 33.209 QT
34.585 34.475 31.788 34.475 QT
31.585 34.475 L
29.898 34.475 28.023 33.772 QT
26.148 33.069 24.905 31.74 QT
23.663 30.412 23.663 28.631 QT
cp}def
f-297017077
f
GR
GS
[0.50013 0 0 0.50082 389.84966 334.46167] CT
0.149 GC
N
/f458003241{48.901 37.334 M
48.901 36.912 48.979 36.553 QT
51.011 28.506 L
48.073 28.506 L
47.776 28.506 47.776 28.147 QT
47.886 27.522 48.151 27.522 QT
51.261 27.522 L
52.37 22.959 L
52.479 22.584 52.807 22.326 QT
53.136 22.069 53.557 22.069 QT
53.901 22.069 54.143 22.279 QT
54.386 22.49 54.386 22.85 QT
54.386 22.928 54.378 22.975 QT
54.37 23.022 54.354 23.084 QT
53.245 27.522 L
56.12 27.522 L
56.417 27.522 56.417 27.897 QT
56.401 27.959 56.354 28.123 QT
56.307 28.287 56.245 28.397 QT
56.182 28.506 56.042 28.506 QT
52.995 28.506 L
50.979 36.6 L
50.776 37.397 50.776 37.975 QT
50.776 39.178 51.604 39.178 QT
52.823 39.178 53.776 38.022 QT
54.729 36.865 55.229 35.49 QT
55.339 35.319 55.448 35.319 QT
55.792 35.319 L
55.901 35.319 55.971 35.397 QT
56.042 35.475 56.042 35.569 QT
56.042 35.615 56.011 35.647 QT
55.401 37.35 54.221 38.631 QT
53.042 39.912 51.526 39.912 QT
50.417 39.912 49.659 39.186 QT
48.901 38.459 48.901 37.334 QT
cp}def
f458003241
f
GR
GS
[0.50013 0 0 0.50082 0 -0.0831] CT
0.149 GC
2 setlinecap
1 LJ
4 LW
N
196 623 M
196 54 L
S
GR
GS
[0.50013 0 0 0.50082 0 -0.0831] CT
0.149 GC
2 setlinecap
1 LJ
4 LW
N
1363 623 M
1363 54 L
S
GR
GS
[0.50013 0 0 0.50082 0 -0.0831] CT
0.149 GC
2 setlinecap
1 LJ
4 LW
N
196 623 M
207.67 623 L
S
GR
GS
[0.50013 0 0 0.50082 0 -0.0831] CT
0.149 GC
2 setlinecap
1 LJ
4 LW
N
196 433.333 M
207.67 433.333 L
S
GR
GS
[0.50013 0 0 0.50082 0 -0.0831] CT
0.149 GC
2 setlinecap
1 LJ
4 LW
N
196 243.667 M
207.67 243.667 L
S
GR
GS
[0.50013 0 0 0.50082 0 -0.0831] CT
0.149 GC
2 setlinecap
1 LJ
4 LW
N
196 54 M
207.67 54 L
S
GR
GS
[0.50013 0 0 0.50082 0 -0.0831] CT
0.149 GC
2 setlinecap
1 LJ
4 LW
N
1363 623 M
1351.33 623 L
S
GR
GS
[0.50013 0 0 0.50082 0 -0.0831] CT
0.149 GC
2 setlinecap
1 LJ
4 LW
N
1363 433.333 M
1351.33 433.333 L
S
GR
GS
[0.50013 0 0 0.50082 0 -0.0831] CT
0.149 GC
2 setlinecap
1 LJ
4 LW
N
1363 243.667 M
1351.33 243.667 L
S
GR
GS
[0.50013 0 0 0.50082 0 -0.0831] CT
0.149 GC
2 setlinecap
1 LJ
4 LW
N
1363 54 M
1351.33 54 L
S
GR
GS
[0.50013 0 0 0.50082 93.22376 311.92497] CT
0.149 GC
N
/f-164822438{-11.563 3.532 M
-11.281 4.361 -10.688 5.025 QT
-10.094 5.689 -9.281 6.064 QT
-8.469 6.439 -7.594 6.439 QT
-5.563 6.439 -4.797 4.868 QT
-4.031 3.298 -4.031 1.064 QT
-4.031 0.095 -4.063 -0.569 QT
-4.094 -1.233 -4.25 -1.858 QT
-4.516 -2.843 -5.164 -3.577 QT
-5.813 -4.311 -6.75 -4.311 QT
-7.703 -4.311 -8.375 -4.022 QT
-9.047 -3.733 -9.469 -3.35 QT
-9.891 -2.968 -10.219 -2.546 QT
-10.547 -2.124 -10.641 -2.093 QT
-10.953 -2.093 L
-11.016 -2.093 -11.117 -2.186 QT
-11.219 -2.28 -11.219 -2.358 QT
-11.219 -11.718 L
-11.219 -11.78 -11.133 -11.858 QT
-11.047 -11.936 -10.953 -11.936 QT
-10.875 -11.936 L
-8.984 -11.03 -6.859 -11.03 QT
-4.781 -11.03 -2.859 -11.936 QT
-2.781 -11.936 L
-2.672 -11.936 -2.594 -11.866 QT
-2.516 -11.796 -2.516 -11.718 QT
-2.516 -11.452 L
-2.516 -11.311 -2.563 -11.311 QT
-3.531 -10.046 -4.969 -9.335 QT
-6.406 -8.624 -7.953 -8.624 QT
-9.078 -8.624 -10.25 -8.936 QT
-10.25 -3.639 L
-9.328 -4.389 -8.594 -4.718 QT
-7.859 -5.046 -6.719 -5.046 QT
-5.188 -5.046 -3.961 -4.155 QT
-2.734 -3.264 -2.078 -1.835 QT
-1.422 -0.405 -1.422 1.079 QT
-1.422 2.767 -2.25 4.204 QT
-3.078 5.642 -4.5 6.486 QT
-5.922 7.329 -7.594 7.329 QT
-8.969 7.329 -10.125 6.618 QT
-11.281 5.907 -11.945 4.704 QT
-12.609 3.501 -12.609 2.157 QT
-12.609 1.517 -12.195 1.126 QT
-11.781 0.736 -11.172 0.736 QT
-10.547 0.736 -10.133 1.134 QT
-9.719 1.532 -9.719 2.157 QT
-9.719 2.751 -10.133 3.173 QT
-10.547 3.595 -11.172 3.595 QT
-11.266 3.595 -11.391 3.571 QT
-11.516 3.548 -11.563 3.532 QT
cp}def
f-164822438
f
GR
GS
[0.50013 0 0 0.50082 93.22376 216.93697] CT
0.149 GC
N
/f907223436{-25.406 6.72 M
-25.406 5.736 L
-21.906 5.736 -21.906 4.845 QT
-21.906 -9.858 L
-23.344 -9.155 -25.563 -9.155 QT
-25.563 -10.139 L
-22.141 -10.139 -20.391 -11.936 QT
-19.984 -11.936 L
-19.891 -11.936 -19.805 -11.858 QT
-19.719 -11.78 -19.719 -11.686 QT
-19.719 4.845 L
-19.719 5.736 -16.219 5.736 QT
-16.219 6.72 L
-25.406 6.72 L
cp}def
f907223436
f
GR
GS
[0.50013 0 0 0.50082 93.22376 216.93697] CT
0.149 GC
N
/f-452148270{-7 7.329 M
-10.438 7.329 -11.672 4.509 QT
-12.906 1.689 -12.906 -2.202 QT
-12.906 -4.639 -12.461 -6.788 QT
-12.016 -8.936 -10.695 -10.436 QT
-9.375 -11.936 -7 -11.936 QT
-5.156 -11.936 -3.977 -11.03 QT
-2.797 -10.124 -2.188 -8.694 QT
-1.578 -7.264 -1.352 -5.632 QT
-1.125 -3.999 -1.125 -2.202 QT
-1.125 0.204 -1.57 2.298 QT
-2.016 4.392 -3.313 5.861 QT
-4.609 7.329 -7 7.329 QT
cp
-7 6.611 M
-5.438 6.611 -4.672 5.009 QT
-3.906 3.407 -3.727 1.47 QT
-3.547 -0.468 -3.547 -2.655 QT
-3.547 -4.764 -3.727 -6.546 QT
-3.906 -8.327 -4.664 -9.764 QT
-5.422 -11.202 -7 -11.202 QT
-8.578 -11.202 -9.344 -9.757 QT
-10.109 -8.311 -10.289 -6.538 QT
-10.469 -4.764 -10.469 -2.655 QT
-10.469 -1.108 -10.398 0.275 QT
-10.328 1.657 -10 3.126 QT
-9.672 4.595 -8.938 5.603 QT
-8.203 6.611 -7 6.611 QT
cp}def
f-452148270
f
GR
GS
[0.50013 0 0 0.50082 93.22376 121.94895] CT
0.149 GC
N
f907223436
f
GR
GS
[0.50013 0 0 0.50082 93.22376 121.94895] CT
0.149 GC
N
f-164822438
f
GR
GS
[0.50013 0 0 0.50082 93.22376 26.96094] CT
0.149 GC
N
/f847596592{-26.609 6.72 M
-26.609 5.97 L
-26.609 5.892 -26.547 5.814 QT
-22.203 1.001 L
-21.219 -0.061 -20.602 -0.788 QT
-19.984 -1.514 -19.383 -2.46 QT
-18.781 -3.405 -18.438 -4.382 QT
-18.094 -5.358 -18.094 -6.452 QT
-18.094 -7.593 -18.516 -8.639 QT
-18.938 -9.686 -19.774 -10.319 QT
-20.609 -10.952 -21.813 -10.952 QT
-23.016 -10.952 -23.992 -10.218 QT
-24.969 -9.483 -25.359 -8.327 QT
-25.25 -8.343 -25.063 -8.343 QT
-24.438 -8.343 -23.992 -7.921 QT
-23.547 -7.499 -23.547 -6.827 QT
-23.547 -6.186 -23.992 -5.741 QT
-24.438 -5.296 -25.063 -5.296 QT
-25.719 -5.296 -26.164 -5.757 QT
-26.609 -6.218 -26.609 -6.827 QT
-26.609 -7.889 -26.211 -8.811 QT
-25.813 -9.733 -25.07 -10.452 QT
-24.328 -11.171 -23.391 -11.554 QT
-22.453 -11.936 -21.391 -11.936 QT
-19.797 -11.936 -18.414 -11.257 QT
-17.031 -10.577 -16.227 -9.343 QT
-15.422 -8.108 -15.422 -6.452 QT
-15.422 -5.233 -15.953 -4.139 QT
-16.484 -3.046 -17.32 -2.147 QT
-18.156 -1.249 -19.453 -0.116 QT
-20.75 1.017 -21.156 1.407 QT
-24.328 4.454 L
-21.641 4.454 L
-19.656 4.454 -18.328 4.415 QT
-17 4.376 -16.906 4.314 QT
-16.578 3.954 -16.234 1.736 QT
-15.422 1.736 L
-16.219 6.72 L
-26.609 6.72 L
cp}def
f847596592
f
GR
GS
[0.50013 0 0 0.50082 93.22376 26.96094] CT
0.149 GC
N
f-452148270
f
GR
GS
[0 -0.50082 0.50013 0 76.21939 169.44282] CT
0.149 GC
N
/f26230270{-111.872 -13.838 M
-111.872 -23.166 L
-111.872 -23.478 -111.529 -23.478 QT
-111.029 -23.478 L
-110.919 -23.478 -110.818 -23.385 QT
-110.716 -23.291 -110.716 -23.166 QT
-110.716 -19.244 -108.286 -17.088 QT
-105.857 -14.931 -101.919 -14.931 QT
-100.529 -14.931 -99.357 -15.728 QT
-98.185 -16.525 -97.529 -17.83 QT
-96.872 -19.135 -96.872 -20.51 QT
-96.872 -21.728 -97.365 -22.869 QT
-97.857 -24.01 -98.771 -24.853 QT
-99.685 -25.697 -100.841 -25.963 QT
-106.029 -27.228 L
-108.607 -27.916 -110.24 -30.033 QT
-111.872 -32.15 -111.872 -34.791 QT
-111.872 -36.869 -110.818 -38.681 QT
-109.763 -40.494 -107.974 -41.549 QT
-106.185 -42.603 -104.122 -42.603 QT
-100.122 -42.603 -97.747 -39.885 QT
-96.107 -42.494 L
-95.997 -42.603 -95.841 -42.603 QT
-95.56 -42.603 L
-95.451 -42.603 -95.341 -42.517 QT
-95.232 -42.431 -95.232 -42.275 QT
-95.232 -32.994 L
-95.232 -32.65 -95.56 -32.65 QT
-96.029 -32.65 L
-96.404 -32.65 -96.404 -32.994 QT
-96.404 -34.01 -96.747 -35.22 QT
-97.091 -36.431 -97.693 -37.549 QT
-98.294 -38.666 -98.997 -39.369 QT
-100.935 -41.322 -104.122 -41.322 QT
-105.482 -41.322 -106.638 -40.627 QT
-107.794 -39.931 -108.474 -38.736 QT
-109.154 -37.541 -109.154 -36.244 QT
-109.154 -34.525 -108.091 -33.127 QT
-107.029 -31.728 -105.31 -31.275 QT
-100.122 -30.01 L
-98.826 -29.697 -97.685 -28.885 QT
-96.544 -28.072 -95.779 -27.002 QT
-95.013 -25.931 -94.583 -24.611 QT
-94.154 -23.291 -94.154 -21.885 QT
-94.154 -19.713 -95.154 -17.791 QT
-96.154 -15.869 -97.958 -14.697 QT
-99.763 -13.525 -101.919 -13.525 QT
-103.247 -13.525 -104.63 -13.814 QT
-106.013 -14.103 -107.185 -14.713 QT
-108.357 -15.322 -109.31 -16.275 QT
-110.997 -13.635 L
-111.107 -13.525 -111.294 -13.525 QT
-111.529 -13.525 L
-111.872 -13.525 -111.872 -13.838 QT
cp}def
f26230270
f
GR
GS
[0 -0.50082 0.50013 0 76.21939 169.44282] CT
0.149 GC
N
/f107663773{-90.869 -14.4 M
-90.869 -15.806 L
-86.541 -15.806 -86.541 -17.072 QT
-86.541 -39.056 L
-86.541 -40.322 -90.869 -40.322 QT
-90.869 -41.728 L
-78.494 -41.728 L
-78.494 -40.322 L
-82.822 -40.322 -82.822 -39.056 QT
-82.822 -17.072 L
-82.822 -15.806 -78.494 -15.806 QT
-78.494 -14.4 L
-90.869 -14.4 L
cp}def
f107663773
f
GR
GS
[0 -0.50082 0.50013 0 76.21939 169.44282] CT
0.149 GC
N
/f2117963842{-76.221 -14.4 M
-76.221 -15.806 L
-72.096 -15.806 -72.096 -18.166 QT
-72.096 -40.088 L
-73.409 -40.322 -76.221 -40.322 QT
-76.221 -41.728 L
-68.565 -41.728 L
-68.378 -41.728 -68.299 -41.572 QT
-54.128 -20.728 L
-54.128 -37.963 L
-54.128 -40.322 -58.253 -40.322 QT
-58.253 -41.728 L
-48.737 -41.728 L
-48.737 -40.322 L
-52.846 -40.322 -52.846 -37.963 QT
-52.846 -14.76 L
-52.846 -14.635 -53.003 -14.517 QT
-53.159 -14.4 -53.253 -14.4 QT
-53.737 -14.4 L
-53.94 -14.4 -54.018 -14.556 QT
-70.815 -39.291 L
-70.815 -18.166 L
-70.815 -15.806 -66.69 -15.806 QT
-66.69 -14.4 L
-76.221 -14.4 L
cp}def
f2117963842
f
GR
GS
[0 -0.50082 0.50013 0 76.21939 169.44282] CT
0.149 GC
N
/f-1181705784{-46.128 -14.4 M
-46.128 -15.806 L
-42.003 -15.806 -42.003 -17.072 QT
-42.003 -39.056 L
-42.003 -40.322 -46.128 -40.322 QT
-46.128 -41.728 L
-33.565 -41.728 L
-31.315 -41.728 -28.846 -40.916 QT
-26.378 -40.103 -24.721 -38.447 QT
-23.065 -36.791 -23.065 -34.478 QT
-23.065 -32.806 -24.065 -31.486 QT
-25.065 -30.166 -26.643 -29.275 QT
-28.221 -28.385 -29.862 -27.994 QT
-28.065 -27.369 -26.713 -26.002 QT
-25.362 -24.635 -25.096 -22.885 QT
-24.518 -19.322 L
-24.128 -16.916 -23.698 -15.736 QT
-23.268 -14.556 -21.815 -14.556 QT
-20.565 -14.556 -19.948 -15.72 QT
-19.331 -16.885 -19.331 -18.244 QT
-19.331 -18.385 -19.206 -18.494 QT
-19.081 -18.603 -18.94 -18.603 QT
-18.565 -18.603 L
-18.174 -18.603 -18.174 -18.072 QT
-18.174 -16.978 -18.604 -15.931 QT
-19.034 -14.885 -19.846 -14.205 QT
-20.659 -13.525 -21.768 -13.525 QT
-24.659 -13.525 -26.737 -14.963 QT
-28.815 -16.4 -28.815 -19.166 QT
-28.815 -22.728 L
-28.815 -24.713 -30.206 -26.142 QT
-31.596 -27.572 -33.612 -27.572 QT
-38.409 -27.572 L
-38.409 -17.072 L
-38.409 -15.806 -34.284 -15.806 QT
-34.284 -14.4 L
-46.128 -14.4 L
cp
-38.409 -28.603 M
-34.128 -28.603 L
-30.815 -28.603 -29.073 -29.939 QT
-27.331 -31.275 -27.331 -34.478 QT
-27.331 -37.666 -29.049 -38.994 QT
-30.768 -40.322 -34.128 -40.322 QT
-36.378 -40.322 L
-37.096 -40.322 -37.503 -40.26 QT
-37.909 -40.197 -38.159 -39.916 QT
-38.409 -39.635 -38.409 -39.056 QT
-38.409 -28.603 L
cp}def
f-1181705784
f
GR
GS
[0 -0.50082 0.50013 0 76.21939 169.44282] CT
0.149 GC
N
/f2080597777{10.885 -13.525 M
7.088 -13.525 4.049 -15.549 QT
1.01 -17.572 -0.709 -20.916 QT
-2.428 -24.26 -2.428 -27.963 QT
-2.428 -30.697 -1.443 -33.369 QT
-0.459 -36.041 1.307 -38.111 QT
3.072 -40.181 5.557 -41.392 QT
8.041 -42.603 10.885 -42.603 QT
13.728 -42.603 16.213 -41.385 QT
18.697 -40.166 20.478 -38.072 QT
22.26 -35.978 23.213 -33.385 QT
24.166 -30.791 24.166 -27.963 QT
24.166 -24.26 22.447 -20.916 QT
20.728 -17.572 17.682 -15.549 QT
14.635 -13.525 10.885 -13.525 QT
cp
4.088 -18.447 M
4.853 -17.338 5.9 -16.463 QT
6.947 -15.588 8.228 -15.095 QT
9.51 -14.603 10.885 -14.603 QT
12.9 -14.603 14.666 -15.642 QT
16.432 -16.681 17.65 -18.447 QT
20.135 -22.025 20.135 -27.963 QT
20.135 -33.947 17.65 -37.65 QT
16.463 -39.4 14.689 -40.486 QT
12.916 -41.572 10.885 -41.572 QT
8.822 -41.572 7.057 -40.486 QT
5.291 -39.4 4.088 -37.65 QT
2.744 -35.635 2.182 -33.205 QT
1.619 -30.775 1.619 -27.963 QT
1.619 -26.135 1.838 -24.486 QT
2.057 -22.838 2.619 -21.306 QT
3.182 -19.775 4.088 -18.447 QT
cp
3.885 -25.119 M
3.885 -31.041 L
5.057 -31.041 L
5.057 -29.681 L
16.697 -29.681 L
16.697 -31.041 L
17.838 -31.041 L
17.838 -25.119 L
16.697 -25.119 L
16.697 -26.478 L
5.057 -26.478 L
5.057 -25.119 L
3.885 -25.119 L
cp}def
f2080597777
f
GR
GS
[0 -0.50082 0.50013 0 76.21939 169.44282] CT
0.149 GC
N
/f-115914688{26.933 -37.513 M
26.933 -39.138 28.168 -40.404 QT
28.699 -40.888 29.402 -41.232 QT
30.105 -41.576 30.746 -41.576 QT
30.918 -41.576 L
31.105 -41.482 31.105 -41.357 QT
31.105 -41.216 31.011 -41.083 QT
30.918 -40.951 30.824 -40.865 QT
30.73 -40.779 30.527 -40.623 QT
30.34 -40.482 30.129 -40.365 QT
29.918 -40.248 29.84 -40.177 QT
29.761 -40.107 29.668 -39.904 QT
29.433 -39.326 29.433 -38.716 QT
29.433 -37.607 30.23 -36.787 QT
31.027 -35.966 32.207 -35.529 QT
33.386 -35.091 34.496 -35.091 QT
35.918 -35.091 37.168 -35.529 QT
38.418 -35.966 39.215 -36.88 QT
40.011 -37.794 40.011 -39.232 QT
40.011 -40.107 39.597 -40.802 QT
39.183 -41.498 38.472 -42.044 QT
37.761 -42.591 37.074 -42.943 QT
36.386 -43.294 35.449 -43.716 QT
33.824 -44.466 32.801 -45.412 QT
31.777 -46.357 31.777 -47.732 QT
31.777 -49.419 33.105 -50.81 QT
34.433 -52.201 36.371 -52.998 QT
38.308 -53.794 39.871 -53.794 QT
40.043 -53.794 L
40.98 -53.794 41.996 -53.537 QT
43.011 -53.279 43.715 -52.677 QT
44.418 -52.076 44.418 -51.091 QT
44.418 -49.919 43.824 -49.326 QT
42.84 -48.591 42.09 -48.529 QT
41.918 -48.529 L
41.715 -48.623 41.715 -48.763 QT
41.777 -49.013 41.808 -49.123 QT
41.84 -49.232 41.879 -49.451 QT
41.918 -49.669 41.918 -49.857 QT
41.918 -51.091 40.683 -51.615 QT
39.449 -52.138 37.996 -52.138 QT
36.402 -52.138 35.332 -51.302 QT
34.261 -50.466 34.261 -48.982 QT
34.261 -46.873 37.543 -45.357 QT
38.918 -44.748 39.972 -44.138 QT
41.027 -43.529 41.769 -42.615 QT
42.511 -41.701 42.511 -40.451 QT
42.511 -38.435 40.902 -36.818 QT
39.293 -35.201 36.941 -34.318 QT
34.59 -33.435 32.621 -33.435 QT
32.48 -33.435 L
31.308 -33.435 29.996 -33.927 QT
28.683 -34.419 27.808 -35.349 QT
26.933 -36.279 26.933 -37.513 QT
cp}def
f-115914688
f
GR
GS
[0 -0.50082 0.50013 0 76.21939 169.44282] CT
0.149 GC
N
/f640313584{44.623 -31.469 M
44.623 -31.766 44.686 -32.016 QT
46.139 -37.766 L
44.03 -37.766 L
43.826 -37.766 43.826 -38.032 QT
43.905 -38.469 44.092 -38.469 QT
46.311 -38.469 L
47.108 -41.735 L
47.186 -42.001 47.42 -42.18 QT
47.655 -42.36 47.951 -42.36 QT
48.201 -42.36 48.373 -42.212 QT
48.545 -42.063 48.545 -41.813 QT
48.545 -41.751 48.537 -41.719 QT
48.53 -41.688 48.53 -41.641 QT
47.733 -38.469 L
49.78 -38.469 L
49.998 -38.469 49.998 -38.204 QT
49.983 -38.157 49.951 -38.04 QT
49.92 -37.923 49.873 -37.844 QT
49.826 -37.766 49.733 -37.766 QT
47.545 -37.766 L
46.108 -31.985 L
45.967 -31.423 45.967 -31.001 QT
45.967 -30.141 46.561 -30.141 QT
47.436 -30.141 48.116 -30.969 QT
48.795 -31.798 49.155 -32.782 QT
49.233 -32.907 49.311 -32.907 QT
49.545 -32.907 L
49.623 -32.907 49.678 -32.852 QT
49.733 -32.798 49.733 -32.719 QT
49.733 -32.688 49.701 -32.673 QT
49.264 -31.454 48.428 -30.54 QT
47.592 -29.626 46.498 -29.626 QT
45.717 -29.626 45.17 -30.141 QT
44.623 -30.657 44.623 -31.469 QT
cp}def
f640313584
f
GR
GS
[0 -0.50082 0.50013 0 76.21939 169.44282] CT
0.149 GC
N
/f-68725098{55.392 -28.998 M
55.392 -29.123 55.502 -29.232 QT
56.502 -30.201 57.064 -31.474 QT
57.627 -32.748 57.627 -34.154 QT
57.627 -34.498 L
57.174 -34.044 56.502 -34.044 QT
55.861 -34.044 55.416 -34.498 QT
54.971 -34.951 54.971 -35.591 QT
54.971 -36.248 55.416 -36.685 QT
55.861 -37.123 56.502 -37.123 QT
57.502 -37.123 57.932 -36.201 QT
58.361 -35.279 58.361 -34.154 QT
58.361 -32.591 57.736 -31.193 QT
57.111 -29.794 55.971 -28.669 QT
55.861 -28.623 55.799 -28.623 QT
55.658 -28.623 55.525 -28.74 QT
55.392 -28.857 55.392 -28.998 QT
cp}def
f-68725098
f
GR
GS
[0 -0.50082 0.50013 0 76.21939 169.44282] CT
0.149 GC
N
/f812827313{60.889 -37.513 M
60.889 -39.138 62.123 -40.404 QT
62.655 -40.888 63.358 -41.232 QT
64.061 -41.576 64.701 -41.576 QT
64.873 -41.576 L
65.061 -41.482 65.061 -41.357 QT
65.061 -41.216 64.967 -41.083 QT
64.873 -40.951 64.78 -40.865 QT
64.686 -40.779 64.483 -40.623 QT
64.295 -40.482 64.084 -40.365 QT
63.873 -40.248 63.795 -40.177 QT
63.717 -40.107 63.623 -39.904 QT
63.389 -39.326 63.389 -38.716 QT
63.389 -37.607 64.186 -36.787 QT
64.983 -35.966 66.162 -35.529 QT
67.342 -35.091 68.451 -35.091 QT
69.873 -35.091 71.123 -35.529 QT
72.373 -35.966 73.17 -36.88 QT
73.967 -37.794 73.967 -39.232 QT
73.967 -40.107 73.553 -40.802 QT
73.139 -41.498 72.428 -42.044 QT
71.717 -42.591 71.03 -42.943 QT
70.342 -43.294 69.405 -43.716 QT
67.78 -44.466 66.756 -45.412 QT
65.733 -46.357 65.733 -47.732 QT
65.733 -49.419 67.061 -50.81 QT
68.389 -52.201 70.326 -52.998 QT
72.264 -53.794 73.826 -53.794 QT
73.998 -53.794 L
74.936 -53.794 75.951 -53.537 QT
76.967 -53.279 77.67 -52.677 QT
78.373 -52.076 78.373 -51.091 QT
78.373 -49.919 77.78 -49.326 QT
76.795 -48.591 76.045 -48.529 QT
75.873 -48.529 L
75.67 -48.623 75.67 -48.763 QT
75.733 -49.013 75.764 -49.123 QT
75.795 -49.232 75.834 -49.451 QT
75.873 -49.669 75.873 -49.857 QT
75.873 -51.091 74.639 -51.615 QT
73.405 -52.138 71.951 -52.138 QT
70.358 -52.138 69.287 -51.302 QT
68.217 -50.466 68.217 -48.982 QT
68.217 -46.873 71.498 -45.357 QT
72.873 -44.748 73.928 -44.138 QT
74.983 -43.529 75.725 -42.615 QT
76.467 -41.701 76.467 -40.451 QT
76.467 -38.435 74.858 -36.818 QT
73.248 -35.201 70.897 -34.318 QT
68.545 -33.435 66.576 -33.435 QT
66.436 -33.435 L
65.264 -33.435 63.951 -33.927 QT
62.639 -34.419 61.764 -35.349 QT
60.889 -36.279 60.889 -37.513 QT
cp}def
f812827313
f
GR
GS
[0 -0.50082 0.50013 0 76.21939 169.44282] CT
0.149 GC
N
/f1077465859{78.579 -31.469 M
78.579 -31.766 78.641 -32.016 QT
80.095 -37.766 L
77.985 -37.766 L
77.782 -37.766 77.782 -38.032 QT
77.86 -38.469 78.048 -38.469 QT
80.266 -38.469 L
81.063 -41.735 L
81.141 -42.001 81.376 -42.18 QT
81.61 -42.36 81.907 -42.36 QT
82.157 -42.36 82.329 -42.212 QT
82.501 -42.063 82.501 -41.813 QT
82.501 -41.751 82.493 -41.719 QT
82.485 -41.688 82.485 -41.641 QT
81.688 -38.469 L
83.735 -38.469 L
83.954 -38.469 83.954 -38.204 QT
83.938 -38.157 83.907 -38.04 QT
83.876 -37.923 83.829 -37.844 QT
83.782 -37.766 83.688 -37.766 QT
81.501 -37.766 L
80.063 -31.985 L
79.923 -31.423 79.923 -31.001 QT
79.923 -30.141 80.516 -30.141 QT
81.391 -30.141 82.071 -30.969 QT
82.751 -31.798 83.11 -32.782 QT
83.188 -32.907 83.266 -32.907 QT
83.501 -32.907 L
83.579 -32.907 83.634 -32.852 QT
83.688 -32.798 83.688 -32.719 QT
83.688 -32.688 83.657 -32.673 QT
83.22 -31.454 82.384 -30.54 QT
81.548 -29.626 80.454 -29.626 QT
79.673 -29.626 79.126 -30.141 QT
78.579 -30.657 78.579 -31.469 QT
cp}def
f1077465859
f
GR
GS
[0 -0.50082 0.50013 0 76.21939 169.44282] CT
0.149 GC
N
/f1034978472{86.614 -34.438 M
86.442 -34.438 86.332 -34.571 QT
86.223 -34.704 86.223 -34.844 QT
86.223 -34.985 86.332 -35.118 QT
86.442 -35.251 86.614 -35.251 QT
98.082 -35.251 L
98.239 -35.251 98.34 -35.118 QT
98.442 -34.985 98.442 -34.844 QT
98.442 -34.704 98.34 -34.571 QT
98.239 -34.438 98.082 -34.438 QT
86.614 -34.438 L
cp}def
f1034978472
f
GR
GS
[0 -0.50082 0.50013 0 76.21939 169.44282] CT
0.149 GC
N
/f70629400{101.982 -29.844 M
101.982 -30.548 L
104.482 -30.548 104.482 -31.188 QT
104.482 -41.688 L
103.451 -41.188 101.857 -41.188 QT
101.857 -41.891 L
104.31 -41.891 105.56 -43.173 QT
105.841 -43.173 L
105.919 -43.173 105.982 -43.118 QT
106.044 -43.063 106.044 -42.985 QT
106.044 -31.188 L
106.044 -30.548 108.544 -30.548 QT
108.544 -29.844 L
101.982 -29.844 L
cp}def
f70629400
f
GR
GS
[0 -0.50082 0.50013 0 76.21939 169.44282] CT
0.149 GC
N
/f944449582{28.621 -5.327 M
28.621 -5.843 28.84 -6.421 QT
31.105 -12.452 L
31.48 -13.468 31.48 -14.124 QT
31.48 -14.968 30.871 -14.968 QT
29.761 -14.968 29.043 -13.819 QT
28.324 -12.671 27.98 -11.265 QT
27.918 -11.093 27.746 -11.093 QT
27.418 -11.093 L
27.183 -11.093 27.183 -11.358 QT
27.183 -11.437 L
27.636 -13.108 28.566 -14.397 QT
29.496 -15.687 30.918 -15.687 QT
31.918 -15.687 32.605 -15.03 QT
33.293 -14.374 33.293 -13.358 QT
33.293 -12.843 33.058 -12.265 QT
30.793 -6.249 L
30.418 -5.327 30.418 -4.577 QT
30.418 -3.733 31.058 -3.733 QT
32.152 -3.733 32.879 -4.905 QT
33.605 -6.077 33.918 -7.421 QT
33.965 -7.593 34.136 -7.593 QT
34.48 -7.593 L
34.59 -7.593 34.652 -7.515 QT
34.715 -7.437 34.715 -7.343 QT
34.715 -7.312 34.699 -7.265 QT
34.308 -5.671 33.355 -4.335 QT
32.402 -2.999 30.996 -2.999 QT
30.011 -2.999 29.316 -3.679 QT
28.621 -4.358 28.621 -5.327 QT
cp
31.777 -20.28 M
31.777 -20.874 32.269 -21.351 QT
32.761 -21.827 33.355 -21.827 QT
33.824 -21.827 34.136 -21.53 QT
34.449 -21.233 34.449 -20.78 QT
34.449 -20.155 33.949 -19.687 QT
33.449 -19.218 32.84 -19.218 QT
32.402 -19.218 32.09 -19.522 QT
31.777 -19.827 31.777 -20.28 QT
cp}def
f944449582
f
GR
GS
[0.50013 0 0 0.50082 170.98109 43.88738] CT
0 0 1 RC
10.0 ML
3.6 LW
N
-16 0 M
0 21.28 L
16 0 L
0 -21.28 L
cp
S
GR
GS
[0.50013 0 0 0.50082 316.89329 151.00234] CT
0 0 1 RC
10.0 ML
3.6 LW
N
-16 0 M
0 21.28 L
16 0 L
0 -21.28 L
cp
S
GR
GS
[0.50013 0 0 0.50082 462.80549 260.91555] CT
0 0 1 RC
10.0 ML
3.6 LW
N
-16 0 M
0 21.28 L
16 0 L
0 -21.28 L
cp
S
GR
GS
[0.50013 0 0 0.50082 608.71768 269.18704] CT
0 0 1 RC
10.0 ML
3.6 LW
N
-16 0 M
0 21.28 L
16 0 L
0 -21.28 L
cp
S
GR
GS
[0.50013 0 0 0.50082 0 -0.0831] CT
1 0 0 RC
1 LJ
4.6 LW
N
341.875 92.63 M
341.875 97.756 L
S
GR
GS
[0.50013 0 0 0.50082 0 -0.0831] CT
1 0 0 RC
1 LJ
4.6 LW
N
633.625 282.877 M
633.625 292.288 L
S
GR
GS
[0.50013 0 0 0.50082 0 -0.0831] CT
1 0 0 RC
1 LJ
4.6 LW
N
925.375 511.112 M
925.375 534.62 L
S
GR
GS
[0.50013 0 0 0.50082 0 -0.0831] CT
1 0 0 RC
1 LJ
4.6 LW
N
1217.125 544.759 M
1217.125 562.443 L
S
GR
GS
[0.50013 0 0 0.50082 0 -0.0831] CT
1 0 0 RC
1 LJ
4.6 LW
N
341.875 92.63 M
341.875 87.504 L
S
GR
GS
[0.50013 0 0 0.50082 0 -0.0831] CT
1 0 0 RC
1 LJ
4.6 LW
N
633.625 282.877 M
633.625 273.467 L
S
GR
GS
[0.50013 0 0 0.50082 0 -0.0831] CT
1 0 0 RC
1 LJ
4.6 LW
N
925.375 511.112 M
925.375 487.603 L
S
GR
GS
[0.50013 0 0 0.50082 0 -0.0831] CT
1 0 0 RC
1 LJ
4.6 LW
N
1217.125 544.759 M
1217.125 527.076 L
S
GR
GS
[0.50013 0 0 0.50082 170.98109 46.30752] CT
1 0 0 RC
10.0 ML
4.6 LW
N
-11.314 -11.314 M
11.314 11.314 L
-11.314 11.314 M
11.314 -11.314 L
S
GR
GS
[0.50013 0 0 0.50082 316.89329 141.58619] CT
1 0 0 RC
10.0 ML
4.6 LW
N
-11.314 -11.314 M
11.314 11.314 L
-11.314 11.314 M
11.314 -11.314 L
S
GR
GS
[0.50013 0 0 0.50082 462.80549 255.8895] CT
1 0 0 RC
10.0 ML
4.6 LW
N
-11.314 -11.314 M
11.314 11.314 L
-11.314 11.314 M
11.314 -11.314 L
S
GR
GS
[0.50013 0 0 0.50082 608.71768 272.74077] CT
1 0 0 RC
10.0 ML
4.6 LW
N
-11.314 -11.314 M
11.314 11.314 L
-11.314 11.314 M
11.314 -11.314 L
S
GR
GS
[0.50013 0 0 0.50082 170.98109 48.8747] CT
1 0 0 RC
N
-6 0 M
6 0 L
f
GR
GS
[0.50013 0 0 0.50082 170.98109 48.8747] CT
1 0 0 RC
10.0 ML
4.6 LW
N
-6 0 M
6 0 L
S
GR
GS
[0.50013 0 0 0.50082 316.89329 146.29917] CT
1 0 0 RC
N
/f301521038{-6 0 M
6 0 L}def
f301521038
f
GR
GS
[0.50013 0 0 0.50082 316.89329 146.29917] CT
1 0 0 RC
10.0 ML
4.6 LW
N
-6 0 M
6 0 L
S
GR
GS
[0.50013 0 0 0.50082 462.80549 267.66271] CT
1 0 0 RC
N
f301521038
f
GR
GS
[0.50013 0 0 0.50082 462.80549 267.66271] CT
1 0 0 RC
10.0 ML
4.6 LW
N
-6 0 M
6 0 L
S
GR
GS
[0.50013 0 0 0.50082 608.71768 281.59705] CT
1 0 0 RC
N
f301521038
f
GR
GS
[0.50013 0 0 0.50082 608.71768 281.59705] CT
1 0 0 RC
10.0 ML
4.6 LW
N
-6 0 M
6 0 L
S
GR
GS
[0.50013 0 0 0.50082 170.98109 43.7403] CT
1 0 0 RC
N
f301521038
f
GR
GS
[0.50013 0 0 0.50082 170.98109 43.7403] CT
1 0 0 RC
10.0 ML
4.6 LW
N
-6 0 M
6 0 L
S
GR
GS
[0.50013 0 0 0.50082 316.89329 136.87323] CT
1 0 0 RC
N
f301521038
f
GR
GS
[0.50013 0 0 0.50082 316.89329 136.87323] CT
1 0 0 RC
10.0 ML
4.6 LW
N
-6 0 M
6 0 L
S
GR
GS
[0.50013 0 0 0.50082 462.80549 244.1163] CT
1 0 0 RC
N
f301521038
f
GR
GS
[0.50013 0 0 0.50082 462.80549 244.1163] CT
1 0 0 RC
10.0 ML
4.6 LW
N
-6 0 M
6 0 L
S
GR
GS
[0.50013 0 0 0.50082 608.71768 263.88449] CT
1 0 0 RC
N
f301521038
f
GR
GS
[0.50013 0 0 0.50082 608.71768 263.88449] CT
1 0 0 RC
10.0 ML
4.6 LW
N
-6 0 M
6 0 L
S
GR
GS
[0.50013 0 0 0.50082 0 -0.0831] CT
1 GC
N
/f199361364{1347 163 M
1347 70 L
1092 70 L
1092 163 L
cp}def
f199361364
f
GR
GS
[0.50013 0 0 0.50082 581.45359 47.27421] CT
N
/f-940789169{6.078 8.64 M
6.078 7.374 L
7.891 7.374 9.594 7.171 QT
11.297 6.968 11.297 6.234 QT
11.297 -13.548 L
11.297 -14.313 10.867 -14.501 QT
10.438 -14.688 9.469 -14.688 QT
7.969 -14.688 L
5 -14.688 3.75 -13.391 QT
3.094 -12.735 2.813 -11.305 QT
2.531 -9.876 2.344 -7.704 QT
1.297 -7.704 L
1.984 -15.954 L
23.984 -15.954 L
24.656 -7.704 L
23.609 -7.704 L
23.391 -10.032 23.141 -11.391 QT
22.891 -12.751 22.219 -13.391 QT
20.953 -14.688 18 -14.688 QT
16.484 -14.688 L
15.844 -14.688 15.484 -14.634 QT
15.125 -14.579 14.891 -14.329 QT
14.656 -14.079 14.656 -13.548 QT
14.656 6.234 L
14.656 6.968 16.367 7.171 QT
18.078 7.374 19.859 7.374 QT
19.859 8.64 L
6.078 8.64 L
cp}def
f-940789169
f
GR
GS
[0.50013 0 0 0.50082 581.45359 47.27421] CT
N
/f415311630{27.078 8.64 M
27.078 7.374 L
28.297 7.374 29.094 7.179 QT
29.891 6.984 29.891 6.234 QT
29.891 -12.673 L
29.891 -13.626 29.602 -14.063 QT
29.313 -14.501 28.766 -14.595 QT
28.219 -14.688 27.078 -14.688 QT
27.078 -15.954 L
32.422 -16.345 L
32.422 -3.97 L
33.172 -5.454 34.523 -6.36 QT
35.875 -7.266 37.516 -7.266 QT
40.016 -7.266 41.273 -6.071 QT
42.531 -4.876 42.531 -2.423 QT
42.531 6.234 L
42.531 6.984 43.32 7.179 QT
44.109 7.374 45.344 7.374 QT
45.344 8.64 L
37.094 8.64 L
37.094 7.374 L
38.328 7.374 39.117 7.179 QT
39.906 6.984 39.906 6.234 QT
39.906 -2.313 L
39.906 -4.063 39.398 -5.204 QT
38.891 -6.345 37.297 -6.345 QT
35.219 -6.345 33.867 -4.673 QT
32.516 -3.001 32.516 -0.876 QT
32.516 6.234 L
32.516 6.984 33.313 7.179 QT
34.109 7.374 35.313 7.374 QT
35.313 8.64 L
27.078 8.64 L
cp}def
f415311630
f
GR
GS
[0.50013 0 0 0.50082 581.45359 47.27421] CT
N
/f1428042348{54.969 9.046 M
52.766 9.046 50.93 7.89 QT
49.094 6.734 48.047 4.812 QT
47 2.89 47 0.749 QT
47 -1.36 47.961 -3.259 QT
48.922 -5.157 50.633 -6.329 QT
52.344 -7.501 54.453 -7.501 QT
56.109 -7.501 57.328 -6.946 QT
58.547 -6.391 59.344 -5.407 QT
60.141 -4.423 60.539 -3.087 QT
60.938 -1.751 60.938 -0.157 QT
60.938 0.327 60.578 0.327 QT
50.156 0.327 L
50.156 0.718 L
50.156 3.702 51.359 5.843 QT
52.563 7.984 55.281 7.984 QT
56.391 7.984 57.328 7.491 QT
58.266 6.999 58.961 6.124 QT
59.656 5.249 59.906 4.249 QT
59.938 4.124 60.039 4.023 QT
60.141 3.921 60.25 3.921 QT
60.578 3.921 L
60.938 3.921 60.938 4.39 QT
60.438 6.421 58.75 7.734 QT
57.063 9.046 54.969 9.046 QT
cp
50.188 -0.579 M
58.391 -0.579 L
58.391 -1.923 58.016 -3.313 QT
57.641 -4.704 56.758 -5.626 QT
55.875 -6.548 54.453 -6.548 QT
52.422 -6.548 51.305 -4.641 QT
50.188 -2.735 50.188 -0.579 QT
cp}def
f1428042348
f
GR
GS
[0.50013 0 0 0.50082 581.45359 47.27421] CT
N
/f-592864870{71 9.046 M
68.844 9.046 66.992 7.945 QT
65.141 6.843 64.07 4.999 QT
63 3.155 63 0.968 QT
63 -0.673 63.594 -2.204 QT
64.188 -3.735 65.281 -4.938 QT
66.375 -6.141 67.836 -6.821 QT
69.297 -7.501 71 -7.501 QT
73.219 -7.501 75.039 -6.329 QT
76.859 -5.157 77.914 -3.196 QT
78.969 -1.235 78.969 0.968 QT
78.969 3.14 77.891 4.991 QT
76.813 6.843 74.977 7.945 QT
73.141 9.046 71 9.046 QT
cp
71 7.984 M
73.891 7.984 74.852 5.898 QT
75.813 3.812 75.813 0.577 QT
75.813 -1.235 75.625 -2.423 QT
75.438 -3.61 74.781 -4.579 QT
74.375 -5.173 73.75 -5.626 QT
73.125 -6.079 72.43 -6.313 QT
71.734 -6.548 71 -6.548 QT
69.875 -6.548 68.867 -6.04 QT
67.859 -5.532 67.188 -4.579 QT
66.516 -3.563 66.336 -2.337 QT
66.156 -1.11 66.156 0.577 QT
66.156 2.593 66.508 4.202 QT
66.859 5.812 67.922 6.898 QT
68.984 7.984 71 7.984 QT
cp}def
f-592864870
f
GR
GS
[0.50013 0 0 0.50082 581.45359 47.27421] CT
N
/f-1677662694{80.938 8.64 M
80.938 7.374 L
82.156 7.374 82.953 7.179 QT
83.75 6.984 83.75 6.234 QT
83.75 -3.595 L
83.75 -4.563 83.461 -4.993 QT
83.172 -5.423 82.625 -5.516 QT
82.078 -5.61 80.938 -5.61 QT
80.938 -6.876 L
86.078 -7.266 L
86.078 -3.751 L
86.656 -5.313 87.735 -6.29 QT
88.813 -7.266 90.344 -7.266 QT
91.406 -7.266 92.25 -6.634 QT
93.094 -6.001 93.094 -4.97 QT
93.094 -4.313 92.633 -3.829 QT
92.172 -3.345 91.485 -3.345 QT
90.813 -3.345 90.336 -3.821 QT
89.86 -4.298 89.86 -4.97 QT
89.86 -5.938 90.547 -6.345 QT
90.344 -6.345 L
88.875 -6.345 87.953 -5.29 QT
87.031 -4.235 86.649 -2.665 QT
86.266 -1.095 86.266 0.327 QT
86.266 6.234 L
86.266 7.374 89.75 7.374 QT
89.75 8.64 L
80.938 8.64 L
cp}def
f-1677662694
f
GR
GS
[0.50013 0 0 0.50082 581.45359 47.27421] CT
N
/f-414374047{103.069 9.046 M
100.866 9.046 99.03 7.89 QT
97.194 6.734 96.147 4.812 QT
95.1 2.89 95.1 0.749 QT
95.1 -1.36 96.061 -3.259 QT
97.022 -5.157 98.733 -6.329 QT
100.444 -7.501 102.553 -7.501 QT
104.21 -7.501 105.428 -6.946 QT
106.647 -6.391 107.444 -5.407 QT
108.241 -4.423 108.639 -3.087 QT
109.038 -1.751 109.038 -0.157 QT
109.038 0.327 108.678 0.327 QT
98.256 0.327 L
98.256 0.718 L
98.256 3.702 99.46 5.843 QT
100.663 7.984 103.381 7.984 QT
104.491 7.984 105.428 7.491 QT
106.366 6.999 107.061 6.124 QT
107.756 5.249 108.006 4.249 QT
108.038 4.124 108.139 4.023 QT
108.241 3.921 108.35 3.921 QT
108.678 3.921 L
109.038 3.921 109.038 4.39 QT
108.538 6.421 106.85 7.734 QT
105.163 9.046 103.069 9.046 QT
cp
98.288 -0.579 M
106.491 -0.579 L
106.491 -1.923 106.116 -3.313 QT
105.741 -4.704 104.858 -5.626 QT
103.975 -6.548 102.553 -6.548 QT
100.522 -6.548 99.405 -4.641 QT
98.288 -2.735 98.288 -0.579 QT
cp}def
f-414374047
f
GR
GS
[0.50013 0 0 0.50082 581.45359 47.27421] CT
N
/f1859378714{113.772 4.312 M
113.772 -5.61 L
110.788 -5.61 L
110.788 -6.548 L
113.147 -6.548 114.249 -8.743 QT
115.35 -10.938 115.35 -13.516 QT
116.397 -13.516 L
116.397 -6.876 L
121.475 -6.876 L
121.475 -5.61 L
116.397 -5.61 L
116.397 4.249 L
116.397 5.734 116.897 6.859 QT
117.397 7.984 118.694 7.984 QT
119.928 7.984 120.475 6.796 QT
121.022 5.609 121.022 4.249 QT
121.022 2.124 L
122.053 2.124 L
122.053 4.312 L
122.053 5.437 121.639 6.538 QT
121.225 7.64 120.42 8.343 QT
119.616 9.046 118.444 9.046 QT
116.288 9.046 115.03 7.749 QT
113.772 6.452 113.772 4.312 QT
cp}def
f1859378714
f
GR
GS
[0.50013 0 0 0.50082 581.45359 47.27421] CT
N
/f-1357462245{125.21 8.64 M
125.21 7.374 L
126.444 7.374 127.233 7.179 QT
128.022 6.984 128.022 6.234 QT
128.022 -3.595 L
128.022 -4.985 127.483 -5.298 QT
126.944 -5.61 125.366 -5.61 QT
125.366 -6.876 L
130.553 -7.266 L
130.553 6.234 L
130.553 6.984 131.241 7.179 QT
131.928 7.374 133.069 7.374 QT
133.069 8.64 L
125.21 8.64 L
cp
126.741 -13.454 M
126.741 -14.251 127.335 -14.845 QT
127.928 -15.438 128.71 -15.438 QT
129.21 -15.438 129.686 -15.18 QT
130.163 -14.923 130.428 -14.446 QT
130.694 -13.97 130.694 -13.454 QT
130.694 -12.688 130.092 -12.087 QT
129.491 -11.485 128.71 -11.485 QT
127.928 -11.485 127.335 -12.087 QT
126.741 -12.688 126.741 -13.454 QT
cp}def
f-1357462245
f
GR
GS
[0.50013 0 0 0.50082 581.45359 47.27421] CT
N
/f-1120834994{143.069 9.046 M
140.881 9.046 139.108 7.913 QT
137.335 6.78 136.319 4.89 QT
135.303 2.999 135.303 0.874 QT
135.303 -1.251 136.311 -3.204 QT
137.319 -5.157 139.1 -6.329 QT
140.881 -7.501 143.069 -7.501 QT
145.178 -7.501 146.905 -6.673 QT
148.631 -5.845 148.631 -3.97 QT
148.631 -3.266 148.131 -2.743 QT
147.631 -2.22 146.913 -2.22 QT
146.194 -2.22 145.694 -2.743 QT
145.194 -3.266 145.194 -3.97 QT
145.194 -4.595 145.6 -5.063 QT
146.006 -5.532 146.6 -5.657 QT
145.35 -6.438 143.1 -6.438 QT
141.381 -6.438 140.327 -5.298 QT
139.272 -4.157 138.85 -2.47 QT
138.428 -0.782 138.428 0.874 QT
138.428 2.609 138.944 4.234 QT
139.46 5.859 140.616 6.921 QT
141.772 7.984 143.506 7.984 QT
145.21 7.984 146.405 6.937 QT
147.6 5.89 148.038 4.202 QT
148.038 3.999 148.319 3.999 QT
148.756 3.999 L
148.866 3.999 148.952 4.093 QT
149.038 4.187 149.038 4.312 QT
149.038 4.421 L
148.491 6.546 146.874 7.796 QT
145.256 9.046 143.069 9.046 QT
cp}def
f-1120834994
f
GR
GS
[0.50013 0 0 0.50082 581.45359 47.27421] CT
N
/f1780640390{151.538 5.109 M
151.538 2.968 153.225 1.616 QT
154.913 0.265 157.28 -0.282 QT
159.647 -0.829 161.772 -0.829 QT
161.772 -2.313 L
161.772 -3.345 161.319 -4.321 QT
160.866 -5.298 159.999 -5.923 QT
159.131 -6.548 158.1 -6.548 QT
155.71 -6.548 154.46 -5.47 QT
155.147 -5.47 155.592 -4.954 QT
156.038 -4.438 156.038 -3.751 QT
156.038 -3.032 155.53 -2.524 QT
155.022 -2.016 154.319 -2.016 QT
153.6 -2.016 153.092 -2.524 QT
152.585 -3.032 152.585 -3.751 QT
152.585 -5.657 154.303 -6.579 QT
156.022 -7.501 158.1 -7.501 QT
159.553 -7.501 161.03 -6.876 QT
162.506 -6.251 163.452 -5.087 QT
164.397 -3.923 164.397 -2.376 QT
164.397 5.718 L
164.397 6.421 164.694 7.015 QT
164.991 7.609 165.616 7.609 QT
166.225 7.609 166.514 7.007 QT
166.803 6.405 166.803 5.718 QT
166.803 3.421 L
167.85 3.421 L
167.85 5.718 L
167.85 6.53 167.428 7.257 QT
167.006 7.984 166.296 8.421 QT
165.585 8.859 164.756 8.859 QT
163.71 8.859 162.944 8.038 QT
162.178 7.218 162.085 6.093 QT
161.428 7.437 160.124 8.241 QT
158.819 9.046 157.35 9.046 QT
155.975 9.046 154.647 8.64 QT
153.319 8.234 152.428 7.366 QT
151.538 6.499 151.538 5.109 QT
cp
154.46 5.109 M
154.46 6.374 155.389 7.234 QT
156.319 8.093 157.585 8.093 QT
158.756 8.093 159.702 7.515 QT
160.647 6.937 161.21 5.937 QT
161.772 4.937 161.772 3.827 QT
161.772 0.077 L
160.131 0.077 158.421 0.616 QT
156.71 1.155 155.585 2.296 QT
154.46 3.437 154.46 5.109 QT
cp}def
f1780640390
f
GR
GS
[0.50013 0 0 0.50082 581.45359 47.27421] CT
N
/f-1269037515{169.21 8.64 M
169.21 7.374 L
170.444 7.374 171.233 7.179 QT
172.022 6.984 172.022 6.234 QT
172.022 -12.673 L
172.022 -13.626 171.733 -14.063 QT
171.444 -14.501 170.897 -14.595 QT
170.35 -14.688 169.21 -14.688 QT
169.21 -15.954 L
174.553 -16.345 L
174.553 6.234 L
174.553 6.984 175.342 7.179 QT
176.132 7.374 177.35 7.374 QT
177.35 8.64 L
169.21 8.64 L
cp}def
f-1269037515
f
GR
GS
[0.50013 0 0 0.50082 564.17209 47.27421] CT
0 0 1 RC
10.0 ML
3.6 LW
N
-16 0 M
0 21.28 L
16 0 L
0 -21.28 L
cp
S
GR
GS
[0.50013 0 0 0.50082 581.45359 69.2496] CT
N
/f-1306156624{1.203 8.64 M
1.203 7.374 L
4.906 7.374 4.906 6.234 QT
4.906 -13.548 L
4.906 -14.688 1.203 -14.688 QT
1.203 -15.954 L
14.016 -15.954 L
15.984 -15.954 17.953 -15.141 QT
19.922 -14.329 21.195 -12.782 QT
22.469 -11.235 22.469 -9.188 QT
22.469 -7.188 21.188 -5.673 QT
19.906 -4.157 17.953 -3.376 QT
16 -2.595 14.016 -2.595 QT
8.25 -2.595 L
8.25 6.234 L
8.25 7.374 11.953 7.374 QT
11.953 8.64 L
1.203 8.64 L
cp
8.141 -3.673 M
13.031 -3.673 L
15.016 -3.673 16.242 -4.243 QT
17.469 -4.813 18.039 -6.016 QT
18.609 -7.22 18.609 -9.188 QT
18.609 -12.126 17.32 -13.407 QT
16.031 -14.688 13.031 -14.688 QT
9.969 -14.688 L
9.313 -14.688 8.953 -14.634 QT
8.594 -14.579 8.367 -14.329 QT
8.141 -14.079 8.141 -13.548 QT
8.141 -3.673 L
cp}def
f-1306156624
f
GR
GS
[0.50013 0 0 0.50082 581.45359 69.2496] CT
N
/f1129102190{25.438 8.64 M
25.438 7.374 L
26.656 7.374 27.453 7.179 QT
28.25 6.984 28.25 6.234 QT
28.25 -3.595 L
28.25 -4.563 27.961 -4.993 QT
27.672 -5.423 27.125 -5.516 QT
26.578 -5.61 25.438 -5.61 QT
25.438 -6.876 L
30.578 -7.266 L
30.578 -3.751 L
31.156 -5.313 32.234 -6.29 QT
33.313 -7.266 34.844 -7.266 QT
35.906 -7.266 36.75 -6.634 QT
37.594 -6.001 37.594 -4.97 QT
37.594 -4.313 37.133 -3.829 QT
36.672 -3.345 35.984 -3.345 QT
35.313 -3.345 34.836 -3.821 QT
34.359 -4.298 34.359 -4.97 QT
34.359 -5.938 35.047 -6.345 QT
34.844 -6.345 L
33.375 -6.345 32.453 -5.29 QT
31.531 -4.235 31.148 -2.665 QT
30.766 -1.095 30.766 0.327 QT
30.766 6.234 L
30.766 7.374 34.25 7.374 QT
34.25 8.64 L
25.438 8.64 L
cp}def
f1129102190
f
GR
GS
[0.50013 0 0 0.50082 581.45359 69.2496] CT
N
/f485510133{40.038 5.109 M
40.038 2.968 41.725 1.616 QT
43.413 0.265 45.78 -0.282 QT
48.147 -0.829 50.272 -0.829 QT
50.272 -2.313 L
50.272 -3.345 49.819 -4.321 QT
49.366 -5.298 48.499 -5.923 QT
47.631 -6.548 46.6 -6.548 QT
44.209 -6.548 42.959 -5.47 QT
43.647 -5.47 44.092 -4.954 QT
44.538 -4.438 44.538 -3.751 QT
44.538 -3.032 44.03 -2.524 QT
43.522 -2.016 42.819 -2.016 QT
42.1 -2.016 41.592 -2.524 QT
41.084 -3.032 41.084 -3.751 QT
41.084 -5.657 42.803 -6.579 QT
44.522 -7.501 46.6 -7.501 QT
48.053 -7.501 49.53 -6.876 QT
51.006 -6.251 51.952 -5.087 QT
52.897 -3.923 52.897 -2.376 QT
52.897 5.718 L
52.897 6.421 53.194 7.015 QT
53.491 7.609 54.116 7.609 QT
54.725 7.609 55.014 7.007 QT
55.303 6.405 55.303 5.718 QT
55.303 3.421 L
56.35 3.421 L
56.35 5.718 L
56.35 6.53 55.928 7.257 QT
55.506 7.984 54.795 8.421 QT
54.084 8.859 53.256 8.859 QT
52.209 8.859 51.444 8.038 QT
50.678 7.218 50.584 6.093 QT
49.928 7.437 48.624 8.241 QT
47.319 9.046 45.85 9.046 QT
44.475 9.046 43.147 8.64 QT
41.819 8.234 40.928 7.366 QT
40.038 6.499 40.038 5.109 QT
cp
42.959 5.109 M
42.959 6.374 43.889 7.234 QT
44.819 8.093 46.084 8.093 QT
47.256 8.093 48.202 7.515 QT
49.147 6.937 49.709 5.937 QT
50.272 4.937 50.272 3.827 QT
50.272 0.077 L
48.631 0.077 46.92 0.616 QT
45.209 1.155 44.084 2.296 QT
42.959 3.437 42.959 5.109 QT
cp}def
f485510133
f
GR
GS
[0.50013 0 0 0.50082 581.45359 69.2496] CT
N
/f1101527086{65.569 9.046 M
63.381 9.046 61.608 7.913 QT
59.835 6.78 58.819 4.89 QT
57.803 2.999 57.803 0.874 QT
57.803 -1.251 58.811 -3.204 QT
59.819 -5.157 61.6 -6.329 QT
63.381 -7.501 65.569 -7.501 QT
67.678 -7.501 69.405 -6.673 QT
71.131 -5.845 71.131 -3.97 QT
71.131 -3.266 70.631 -2.743 QT
70.131 -2.22 69.413 -2.22 QT
68.694 -2.22 68.194 -2.743 QT
67.694 -3.266 67.694 -3.97 QT
67.694 -4.595 68.1 -5.063 QT
68.506 -5.532 69.1 -5.657 QT
67.85 -6.438 65.6 -6.438 QT
63.881 -6.438 62.827 -5.298 QT
61.772 -4.157 61.35 -2.47 QT
60.928 -0.782 60.928 0.874 QT
60.928 2.609 61.444 4.234 QT
61.96 5.859 63.116 6.921 QT
64.272 7.984 66.006 7.984 QT
67.71 7.984 68.905 6.937 QT
70.1 5.89 70.538 4.202 QT
70.538 3.999 70.819 3.999 QT
71.256 3.999 L
71.366 3.999 71.452 4.093 QT
71.538 4.187 71.538 4.312 QT
71.538 4.421 L
70.991 6.546 69.374 7.796 QT
67.756 9.046 65.569 9.046 QT
cp}def
f1101527086
f
GR
GS
[0.50013 0 0 0.50082 581.45359 69.2496] CT
N
/f274064305{76.272 4.312 M
76.272 -5.61 L
73.288 -5.61 L
73.288 -6.548 L
75.647 -6.548 76.749 -8.743 QT
77.85 -10.938 77.85 -13.516 QT
78.897 -13.516 L
78.897 -6.876 L
83.975 -6.876 L
83.975 -5.61 L
78.897 -5.61 L
78.897 4.249 L
78.897 5.734 79.397 6.859 QT
79.897 7.984 81.194 7.984 QT
82.428 7.984 82.975 6.796 QT
83.522 5.609 83.522 4.249 QT
83.522 2.124 L
84.553 2.124 L
84.553 4.312 L
84.553 5.437 84.139 6.538 QT
83.725 7.64 82.92 8.343 QT
82.116 9.046 80.944 9.046 QT
78.788 9.046 77.53 7.749 QT
76.272 6.452 76.272 4.312 QT
cp}def
f274064305
f
GR
GS
[0.50013 0 0 0.50082 581.45359 69.2496] CT
N
/f-778338503{87.71 8.64 M
87.71 7.374 L
88.944 7.374 89.733 7.179 QT
90.522 6.984 90.522 6.234 QT
90.522 -3.595 L
90.522 -4.985 89.983 -5.298 QT
89.444 -5.61 87.866 -5.61 QT
87.866 -6.876 L
93.053 -7.266 L
93.053 6.234 L
93.053 6.984 93.741 7.179 QT
94.428 7.374 95.569 7.374 QT
95.569 8.64 L
87.71 8.64 L
cp
89.241 -13.454 M
89.241 -14.251 89.835 -14.845 QT
90.428 -15.438 91.21 -15.438 QT
91.71 -15.438 92.186 -15.18 QT
92.663 -14.923 92.928 -14.446 QT
93.194 -13.97 93.194 -13.454 QT
93.194 -12.688 92.592 -12.087 QT
91.991 -11.485 91.21 -11.485 QT
90.428 -11.485 89.835 -12.087 QT
89.241 -12.688 89.241 -13.454 QT
cp}def
f-778338503
f
GR
GS
[0.50013 0 0 0.50082 581.45359 69.2496] CT
N
/f-1449724830{105.569 9.046 M
103.381 9.046 101.608 7.913 QT
99.835 6.78 98.819 4.89 QT
97.803 2.999 97.803 0.874 QT
97.803 -1.251 98.811 -3.204 QT
99.819 -5.157 101.6 -6.329 QT
103.381 -7.501 105.569 -7.501 QT
107.678 -7.501 109.405 -6.673 QT
111.131 -5.845 111.131 -3.97 QT
111.131 -3.266 110.631 -2.743 QT
110.131 -2.22 109.413 -2.22 QT
108.694 -2.22 108.194 -2.743 QT
107.694 -3.266 107.694 -3.97 QT
107.694 -4.595 108.1 -5.063 QT
108.506 -5.532 109.1 -5.657 QT
107.85 -6.438 105.6 -6.438 QT
103.881 -6.438 102.827 -5.298 QT
101.772 -4.157 101.35 -2.47 QT
100.928 -0.782 100.928 0.874 QT
100.928 2.609 101.444 4.234 QT
101.96 5.859 103.116 6.921 QT
104.272 7.984 106.006 7.984 QT
107.71 7.984 108.905 6.937 QT
110.1 5.89 110.538 4.202 QT
110.538 3.999 110.819 3.999 QT
111.256 3.999 L
111.366 3.999 111.452 4.093 QT
111.538 4.187 111.538 4.312 QT
111.538 4.421 L
110.991 6.546 109.374 7.796 QT
107.756 9.046 105.569 9.046 QT
cp}def
f-1449724830
f
GR
GS
[0.50013 0 0 0.50082 581.45359 69.2496] CT
N
/f1268821542{114.038 5.109 M
114.038 2.968 115.725 1.616 QT
117.413 0.265 119.78 -0.282 QT
122.147 -0.829 124.272 -0.829 QT
124.272 -2.313 L
124.272 -3.345 123.819 -4.321 QT
123.366 -5.298 122.499 -5.923 QT
121.631 -6.548 120.6 -6.548 QT
118.21 -6.548 116.96 -5.47 QT
117.647 -5.47 118.092 -4.954 QT
118.538 -4.438 118.538 -3.751 QT
118.538 -3.032 118.03 -2.524 QT
117.522 -2.016 116.819 -2.016 QT
116.1 -2.016 115.592 -2.524 QT
115.085 -3.032 115.085 -3.751 QT
115.085 -5.657 116.803 -6.579 QT
118.522 -7.501 120.6 -7.501 QT
122.053 -7.501 123.53 -6.876 QT
125.006 -6.251 125.952 -5.087 QT
126.897 -3.923 126.897 -2.376 QT
126.897 5.718 L
126.897 6.421 127.194 7.015 QT
127.491 7.609 128.116 7.609 QT
128.725 7.609 129.014 7.007 QT
129.303 6.405 129.303 5.718 QT
129.303 3.421 L
130.35 3.421 L
130.35 5.718 L
130.35 6.53 129.928 7.257 QT
129.506 7.984 128.796 8.421 QT
128.085 8.859 127.256 8.859 QT
126.21 8.859 125.444 8.038 QT
124.678 7.218 124.585 6.093 QT
123.928 7.437 122.624 8.241 QT
121.319 9.046 119.85 9.046 QT
118.475 9.046 117.147 8.64 QT
115.819 8.234 114.928 7.366 QT
114.038 6.499 114.038 5.109 QT
cp
116.96 5.109 M
116.96 6.374 117.889 7.234 QT
118.819 8.093 120.085 8.093 QT
121.256 8.093 122.202 7.515 QT
123.147 6.937 123.71 5.937 QT
124.272 4.937 124.272 3.827 QT
124.272 0.077 L
122.631 0.077 120.921 0.616 QT
119.21 1.155 118.085 2.296 QT
116.96 3.437 116.96 5.109 QT
cp}def
f1268821542
f
GR
GS
[0.50013 0 0 0.50082 581.45359 69.2496] CT
N
/f-1664098597{131.71 8.64 M
131.71 7.374 L
132.944 7.374 133.733 7.179 QT
134.522 6.984 134.522 6.234 QT
134.522 -12.673 L
134.522 -13.626 134.233 -14.063 QT
133.944 -14.501 133.397 -14.595 QT
132.85 -14.688 131.71 -14.688 QT
131.71 -15.954 L
137.053 -16.345 L
137.053 6.234 L
137.053 6.984 137.842 7.179 QT
138.632 7.374 139.85 7.374 QT
139.85 8.64 L
131.71 8.64 L
cp}def
f-1664098597
f
GR
GS
[0.50013 0 0 0.50082 564.17209 77.34975] CT
1 0 0 RC
N
f301521038
f
GR
GS
[0.50013 0 0 0.50082 564.17209 77.34975] CT
1 0 0 RC
10.0 ML
4 LW
N
-6 0 M
6 0 L
S
GR
GS
[0.50013 0 0 0.50082 564.17209 61.14946] CT
1 0 0 RC
N
f301521038
f
GR
GS
[0.50013 0 0 0.50082 564.17209 61.14946] CT
1 0 0 RC
10.0 ML
4 LW
N
-6 0 M
6 0 L
S
GR
GS
[0.50013 0 0 0.50082 0 -0.0831] CT
1 0 0 RC
1 LJ
4 LW
N
1128.057 154.614 M
1128.057 122.266 L
S
GR
GS
[0.50013 0 0 0.50082 564.17209 69.24961] CT
1 0 0 RC
10.0 ML
4 LW
N
-4.243 -4.243 M
4.243 4.243 L
-4.243 4.243 M
4.243 -4.243 L
S
GR
GS
[0.50013 0 0 0.50082 0 -0.0831] CT
0.149 GC
10.0 ML
2 LW
N
1092 163 M
1092 70 L
1347 70 L
1347 163 L
cp
S
GR
%%Trailer
%%Pages: 1
%%EOF
